parallelized/vcd/tb_DataSplitter.vcd
$date
	Sat Mar  1 13:11:27 2025
$end
$version
	Icarus Verilog
$end
$timescale
	1ps
$end
$scope module tb_DataSplitter $end
$scope module uut $end
$var wire 1 ! clk $end
$var wire 6 " handshakes [5:0] $end
$var wire 1 # int_axis_tready $end
$var wire 6 $ m_axis_tready [5:0] $end
$var wire 1 % rst $end
$var wire 48 & s_axis_tdata [47:0] $end
$var wire 8 ' s_axis_tdest [7:0] $end
$var wire 8 ( s_axis_tid [7:0] $end
$var wire 6 ) s_axis_tkeep [5:0] $end
$var wire 1 * s_axis_tlast $end
$var wire 8 + s_axis_tuser [7:0] $end
$var wire 1 , s_axis_tvalid $end
$var wire 1 - s_axis_tready $end
$var wire 1 . new_transfer $end
$var wire 6 / m_axis_tvalid [5:0] $end
$var wire 48 0 m_axis_tuser [47:0] $end
$var wire 6 1 m_axis_tlast [5:0] $end
$var wire 6 2 m_axis_tkeep [5:0] $end
$var wire 48 3 m_axis_tid [47:0] $end
$var wire 48 4 m_axis_tdest [47:0] $end
$var wire 48 5 m_axis_tdata [47:0] $end
$var wire 6 6 locked_channels_next [5:0] $end
$var wire 6 7 keep_channels [5:0] $end
$var wire 1 8 int_axis_tvalid $end
$var wire 8 9 int_axis_tuser [7:0] $end
$var wire 1 : int_axis_tlast $end
$var wire 6 ; int_axis_tkeep [5:0] $end
$var wire 8 < int_axis_tid [7:0] $end
$var wire 8 = int_axis_tdest [7:0] $end
$var wire 48 > int_axis_tdata [47:0] $end
$var wire 6 ? int_axis_chn_tvalid [5:0] $end
$var wire 6 @ int_axis_chn_tready [5:0] $end
$var parameter 32 A CHANNELS $end
$var parameter 32 B DEST_ENABLE $end
$var parameter 32 C DEST_WIDTH $end
$var parameter 32 D EXTRA_CYCLE $end
$var parameter 32 E ID_ENABLE $end
$var parameter 32 F ID_WIDTH $end
$var parameter 64 G INPUT_DATA_WIDTH $end
$var parameter 1 H INPUT_KEEP_ENABLE $end
$var parameter 65 I INPUT_KEEP_WIDTH $end
$var parameter 32 J LAST_ENABLE $end
$var parameter 32 K OUTPUT_DATA_WIDTH $end
$var parameter 1 L OUTPUT_KEEP_ENABLE $end
$var parameter 33 M OUTPUT_KEEP_WIDTH $end
$var parameter 32 N USER_ENABLE $end
$var parameter 32 O USER_WIDTH $end
$var reg 6 P locked_channels_reg [5:0] $end
$scope begin genblk1[0] $end
$var parameter 2 Q CHN $end
$scope begin genblk1 $end
$upscope $end
$scope begin genblk2 $end
$scope module out_axis_register_inst $end
$var wire 1 ! clk $end
$var wire 1 R m_axis_tkeep $end
$var wire 1 S m_axis_tready $end
$var wire 1 % rst $end
$var wire 8 T s_axis_tdata [7:0] $end
$var wire 1 U s_axis_tkeep $end
$var wire 1 V s_axis_tvalid $end
$var wire 8 W s_axis_tuser [7:0] $end
$var wire 1 X s_axis_tready $end
$var wire 1 : s_axis_tlast $end
$var wire 8 Y s_axis_tid [7:0] $end
$var wire 8 Z s_axis_tdest [7:0] $end
$var wire 1 [ m_axis_tvalid $end
$var wire 8 \ m_axis_tuser [7:0] $end
$var wire 1 ] m_axis_tlast $end
$var wire 8 ^ m_axis_tid [7:0] $end
$var wire 8 _ m_axis_tdest [7:0] $end
$var wire 8 ` m_axis_tdata [7:0] $end
$var parameter 32 a DATA_WIDTH $end
$var parameter 32 b DEST_ENABLE $end
$var parameter 32 c DEST_WIDTH $end
$var parameter 32 d ID_ENABLE $end
$var parameter 32 e ID_WIDTH $end
$var parameter 1 f KEEP_ENABLE $end
$var parameter 33 g KEEP_WIDTH $end
$var parameter 32 h LAST_ENABLE $end
$var parameter 32 i REG_TYPE $end
$var parameter 32 j USER_ENABLE $end
$var parameter 32 k USER_WIDTH $end
$scope begin genblk1 $end
$var wire 1 l s_axis_tready_early $end
$var reg 8 m m_axis_tdata_reg [7:0] $end
$var reg 8 n m_axis_tdest_reg [7:0] $end
$var reg 8 o m_axis_tid_reg [7:0] $end
$var reg 1 p m_axis_tkeep_reg $end
$var reg 1 ] m_axis_tlast_reg $end
$var reg 8 q m_axis_tuser_reg [7:0] $end
$var reg 1 r m_axis_tvalid_next $end
$var reg 1 s m_axis_tvalid_reg $end
$var reg 1 X s_axis_tready_reg $end
$var reg 1 t store_axis_input_to_output $end
$var reg 1 u store_axis_input_to_temp $end
$var reg 1 v store_axis_temp_to_output $end
$var reg 8 w temp_m_axis_tdata_reg [7:0] $end
$var reg 8 x temp_m_axis_tdest_reg [7:0] $end
$var reg 8 y temp_m_axis_tid_reg [7:0] $end
$var reg 1 z temp_m_axis_tkeep_reg $end
$var reg 1 { temp_m_axis_tlast_reg $end
$var reg 8 | temp_m_axis_tuser_reg [7:0] $end
$var reg 1 } temp_m_axis_tvalid_next $end
$var reg 1 ~ temp_m_axis_tvalid_reg $end
$upscope $end
$upscope $end
$upscope $end
$upscope $end
$scope begin genblk1[1] $end
$var parameter 2 !" CHN $end
$scope begin genblk1 $end
$upscope $end
$scope begin genblk2 $end
$scope module out_axis_register_inst $end
$var wire 1 ! clk $end
$var wire 1 "" m_axis_tkeep $end
$var wire 1 #" m_axis_tready $end
$var wire 1 % rst $end
$var wire 8 $" s_axis_tdata [7:0] $end
$var wire 1 %" s_axis_tkeep $end
$var wire 1 &" s_axis_tvalid $end
$var wire 8 '" s_axis_tuser [7:0] $end
$var wire 1 (" s_axis_tready $end
$var wire 1 : s_axis_tlast $end
$var wire 8 )" s_axis_tid [7:0] $end
$var wire 8 *" s_axis_tdest [7:0] $end
$var wire 1 +" m_axis_tvalid $end
$var wire 8 ," m_axis_tuser [7:0] $end
$var wire 1 -" m_axis_tlast $end
$var wire 8 ." m_axis_tid [7:0] $end
$var wire 8 /" m_axis_tdest [7:0] $end
$var wire 8 0" m_axis_tdata [7:0] $end
$var parameter 32 1" DATA_WIDTH $end
$var parameter 32 2" DEST_ENABLE $end
$var parameter 32 3" DEST_WIDTH $end
$var parameter 32 4" ID_ENABLE $end
$var parameter 32 5" ID_WIDTH $end
$var parameter 1 6" KEEP_ENABLE $end
$var parameter 33 7" KEEP_WIDTH $end
$var parameter 32 8" LAST_ENABLE $end
$var parameter 32 9" REG_TYPE $end
$var parameter 32 :" USER_ENABLE $end
$var parameter 32 ;" USER_WIDTH $end
$scope begin genblk1 $end
$var wire 1 <" s_axis_tready_early $end
$var reg 8 =" m_axis_tdata_reg [7:0] $end
$var reg 8 >" m_axis_tdest_reg [7:0] $end
$var reg 8 ?" m_axis_tid_reg [7:0] $end
$var reg 1 @" m_axis_tkeep_reg $end
$var reg 1 -" m_axis_tlast_reg $end
$var reg 8 A" m_axis_tuser_reg [7:0] $end
$var reg 1 B" m_axis_tvalid_next $end
$var reg 1 C" m_axis_tvalid_reg $end
$var reg 1 (" s_axis_tready_reg $end
$var reg 1 D" store_axis_input_to_output $end
$var reg 1 E" store_axis_input_to_temp $end
$var reg 1 F" store_axis_temp_to_output $end
$var reg 8 G" temp_m_axis_tdata_reg [7:0] $end
$var reg 8 H" temp_m_axis_tdest_reg [7:0] $end
$var reg 8 I" temp_m_axis_tid_reg [7:0] $end
$var reg 1 J" temp_m_axis_tkeep_reg $end
$var reg 1 K" temp_m_axis_tlast_reg $end
$var reg 8 L" temp_m_axis_tuser_reg [7:0] $end
$var reg 1 M" temp_m_axis_tvalid_next $end
$var reg 1 N" temp_m_axis_tvalid_reg $end
$upscope $end
$upscope $end
$upscope $end
$upscope $end
$scope begin genblk1[2] $end
$var parameter 3 O" CHN $end
$scope begin genblk1 $end
$upscope $end
$scope begin genblk2 $end
$scope module out_axis_register_inst $end
$var wire 1 ! clk $end
$var wire 1 P" m_axis_tkeep $end
$var wire 1 Q" m_axis_tready $end
$var wire 1 % rst $end
$var wire 8 R" s_axis_tdata [7:0] $end
$var wire 1 S" s_axis_tkeep $end
$var wire 1 T" s_axis_tvalid $end
$var wire 8 U" s_axis_tuser [7:0] $end
$var wire 1 V" s_axis_tready $end
$var wire 1 : s_axis_tlast $end
$var wire 8 W" s_axis_tid [7:0] $end
$var wire 8 X" s_axis_tdest [7:0] $end
$var wire 1 Y" m_axis_tvalid $end
$var wire 8 Z" m_axis_tuser [7:0] $end
$var wire 1 [" m_axis_tlast $end
$var wire 8 \" m_axis_tid [7:0] $end
$var wire 8 ]" m_axis_tdest [7:0] $end
$var wire 8 ^" m_axis_tdata [7:0] $end
$var parameter 32 _" DATA_WIDTH $end
$var parameter 32 `" DEST_ENABLE $end
$var parameter 32 a" DEST_WIDTH $end
$var parameter 32 b" ID_ENABLE $end
$var parameter 32 c" ID_WIDTH $end
$var parameter 1 d" KEEP_ENABLE $end
$var parameter 33 e" KEEP_WIDTH $end
$var parameter 32 f" LAST_ENABLE $end
$var parameter 32 g" REG_TYPE $end
$var parameter 32 h" USER_ENABLE $end
$var parameter 32 i" USER_WIDTH $end
$scope begin genblk1 $end
$var wire 1 j" s_axis_tready_early $end
$var reg 8 k" m_axis_tdata_reg [7:0] $end
$var reg 8 l" m_axis_tdest_reg [7:0] $end
$var reg 8 m" m_axis_tid_reg [7:0] $end
$var reg 1 n" m_axis_tkeep_reg $end
$var reg 1 [" m_axis_tlast_reg $end
$var reg 8 o" m_axis_tuser_reg [7:0] $end
$var reg 1 p" m_axis_tvalid_next $end
$var reg 1 q" m_axis_tvalid_reg $end
$var reg 1 V" s_axis_tready_reg $end
$var reg 1 r" store_axis_input_to_output $end
$var reg 1 s" store_axis_input_to_temp $end
$var reg 1 t" store_axis_temp_to_output $end
$var reg 8 u" temp_m_axis_tdata_reg [7:0] $end
$var reg 8 v" temp_m_axis_tdest_reg [7:0] $end
$var reg 8 w" temp_m_axis_tid_reg [7:0] $end
$var reg 1 x" temp_m_axis_tkeep_reg $end
$var reg 1 y" temp_m_axis_tlast_reg $end
$var reg 8 z" temp_m_axis_tuser_reg [7:0] $end
$var reg 1 {" temp_m_axis_tvalid_next $end
$var reg 1 |" temp_m_axis_tvalid_reg $end
$upscope $end
$upscope $end
$upscope $end
$upscope $end
$scope begin genblk1[3] $end
$var parameter 3 }" CHN $end
$scope begin genblk1 $end
$upscope $end
$scope begin genblk2 $end
$scope module out_axis_register_inst $end
$var wire 1 ! clk $end
$var wire 1 ~" m_axis_tkeep $end
$var wire 1 !# m_axis_tready $end
$var wire 1 % rst $end
$var wire 8 "# s_axis_tdata [7:0] $end
$var wire 1 ## s_axis_tkeep $end
$var wire 1 $# s_axis_tvalid $end
$var wire 8 %# s_axis_tuser [7:0] $end
$var wire 1 &# s_axis_tready $end
$var wire 1 : s_axis_tlast $end
$var wire 8 '# s_axis_tid [7:0] $end
$var wire 8 (# s_axis_tdest [7:0] $end
$var wire 1 )# m_axis_tvalid $end
$var wire 8 *# m_axis_tuser [7:0] $end
$var wire 1 +# m_axis_tlast $end
$var wire 8 ,# m_axis_tid [7:0] $end
$var wire 8 -# m_axis_tdest [7:0] $end
$var wire 8 .# m_axis_tdata [7:0] $end
$var parameter 32 /# DATA_WIDTH $end
$var parameter 32 0# DEST_ENABLE $end
$var parameter 32 1# DEST_WIDTH $end
$var parameter 32 2# ID_ENABLE $end
$var parameter 32 3# ID_WIDTH $end
$var parameter 1 4# KEEP_ENABLE $end
$var parameter 33 5# KEEP_WIDTH $end
$var parameter 32 6# LAST_ENABLE $end
$var parameter 32 7# REG_TYPE $end
$var parameter 32 8# USER_ENABLE $end
$var parameter 32 9# USER_WIDTH $end
$scope begin genblk1 $end
$var wire 1 :# s_axis_tready_early $end
$var reg 8 ;# m_axis_tdata_reg [7:0] $end
$var reg 8 <# m_axis_tdest_reg [7:0] $end
$var reg 8 =# m_axis_tid_reg [7:0] $end
$var reg 1 ># m_axis_tkeep_reg $end
$var reg 1 +# m_axis_tlast_reg $end
$var reg 8 ?# m_axis_tuser_reg [7:0] $end
$var reg 1 @# m_axis_tvalid_next $end
$var reg 1 A# m_axis_tvalid_reg $end
$var reg 1 &# s_axis_tready_reg $end
$var reg 1 B# store_axis_input_to_output $end
$var reg 1 C# store_axis_input_to_temp $end
$var reg 1 D# store_axis_temp_to_output $end
$var reg 8 E# temp_m_axis_tdata_reg [7:0] $end
$var reg 8 F# temp_m_axis_tdest_reg [7:0] $end
$var reg 8 G# temp_m_axis_tid_reg [7:0] $end
$var reg 1 H# temp_m_axis_tkeep_reg $end
$var reg 1 I# temp_m_axis_tlast_reg $end
$var reg 8 J# temp_m_axis_tuser_reg [7:0] $end
$var reg 1 K# temp_m_axis_tvalid_next $end
$var reg 1 L# temp_m_axis_tvalid_reg $end
$upscope $end
$upscope $end
$upscope $end
$upscope $end
$scope begin genblk1[4] $end
$var parameter 4 M# CHN $end
$scope begin genblk1 $end
$upscope $end
$scope begin genblk2 $end
$scope module out_axis_register_inst $end
$var wire 1 ! clk $end
$var wire 1 N# m_axis_tkeep $end
$var wire 1 O# m_axis_tready $end
$var wire 1 % rst $end
$var wire 8 P# s_axis_tdata [7:0] $end
$var wire 1 Q# s_axis_tkeep $end
$var wire 1 R# s_axis_tvalid $end
$var wire 8 S# s_axis_tuser [7:0] $end
$var wire 1 T# s_axis_tready $end
$var wire 1 : s_axis_tlast $end
$var wire 8 U# s_axis_tid [7:0] $end
$var wire 8 V# s_axis_tdest [7:0] $end
$var wire 1 W# m_axis_tvalid $end
$var wire 8 X# m_axis_tuser [7:0] $end
$var wire 1 Y# m_axis_tlast $end
$var wire 8 Z# m_axis_tid [7:0] $end
$var wire 8 [# m_axis_tdest [7:0] $end
$var wire 8 \# m_axis_tdata [7:0] $end
$var parameter 32 ]# DATA_WIDTH $end
$var parameter 32 ^# DEST_ENABLE $end
$var parameter 32 _# DEST_WIDTH $end
$var parameter 32 `# ID_ENABLE $end
$var parameter 32 a# ID_WIDTH $end
$var parameter 1 b# KEEP_ENABLE $end
$var parameter 33 c# KEEP_WIDTH $end
$var parameter 32 d# LAST_ENABLE $end
$var parameter 32 e# REG_TYPE $end
$var parameter 32 f# USER_ENABLE $end
$var parameter 32 g# USER_WIDTH $end
$scope begin genblk1 $end
$var wire 1 h# s_axis_tready_early $end
$var reg 8 i# m_axis_tdata_reg [7:0] $end
$var reg 8 j# m_axis_tdest_reg [7:0] $end
$var reg 8 k# m_axis_tid_reg [7:0] $end
$var reg 1 l# m_axis_tkeep_reg $end
$var reg 1 Y# m_axis_tlast_reg $end
$var reg 8 m# m_axis_tuser_reg [7:0] $end
$var reg 1 n# m_axis_tvalid_next $end
$var reg 1 o# m_axis_tvalid_reg $end
$var reg 1 T# s_axis_tready_reg $end
$var reg 1 p# store_axis_input_to_output $end
$var reg 1 q# store_axis_input_to_temp $end
$var reg 1 r# store_axis_temp_to_output $end
$var reg 8 s# temp_m_axis_tdata_reg [7:0] $end
$var reg 8 t# temp_m_axis_tdest_reg [7:0] $end
$var reg 8 u# temp_m_axis_tid_reg [7:0] $end
$var reg 1 v# temp_m_axis_tkeep_reg $end
$var reg 1 w# temp_m_axis_tlast_reg $end
$var reg 8 x# temp_m_axis_tuser_reg [7:0] $end
$var reg 1 y# temp_m_axis_tvalid_next $end
$var reg 1 z# temp_m_axis_tvalid_reg $end
$upscope $end
$upscope $end
$upscope $end
$upscope $end
$scope begin genblk1[5] $end
$var parameter 4 {# CHN $end
$scope begin genblk1 $end
$upscope $end
$scope begin genblk2 $end
$scope module out_axis_register_inst $end
$var wire 1 ! clk $end
$var wire 1 |# m_axis_tkeep $end
$var wire 1 }# m_axis_tready $end
$var wire 1 % rst $end
$var wire 8 ~# s_axis_tdata [7:0] $end
$var wire 1 !$ s_axis_tkeep $end
$var wire 1 "$ s_axis_tvalid $end
$var wire 8 #$ s_axis_tuser [7:0] $end
$var wire 1 $$ s_axis_tready $end
$var wire 1 : s_axis_tlast $end
$var wire 8 %$ s_axis_tid [7:0] $end
$var wire 8 &$ s_axis_tdest [7:0] $end
$var wire 1 '$ m_axis_tvalid $end
$var wire 8 ($ m_axis_tuser [7:0] $end
$var wire 1 )$ m_axis_tlast $end
$var wire 8 *$ m_axis_tid [7:0] $end
$var wire 8 +$ m_axis_tdest [7:0] $end
$var wire 8 ,$ m_axis_tdata [7:0] $end
$var parameter 32 -$ DATA_WIDTH $end
$var parameter 32 .$ DEST_ENABLE $end
$var parameter 32 /$ DEST_WIDTH $end
$var parameter 32 0$ ID_ENABLE $end
$var parameter 32 1$ ID_WIDTH $end
$var parameter 1 2$ KEEP_ENABLE $end
$var parameter 33 3$ KEEP_WIDTH $end
$var parameter 32 4$ LAST_ENABLE $end
$var parameter 32 5$ REG_TYPE $end
$var parameter 32 6$ USER_ENABLE $end
$var parameter 32 7$ USER_WIDTH $end
$scope begin genblk1 $end
$var wire 1 8$ s_axis_tready_early $end
$var reg 8 9$ m_axis_tdata_reg [7:0] $end
$var reg 8 :$ m_axis_tdest_reg [7:0] $end
$var reg 8 ;$ m_axis_tid_reg [7:0] $end
$var reg 1 <$ m_axis_tkeep_reg $end
$var reg 1 )$ m_axis_tlast_reg $end
$var reg 8 =$ m_axis_tuser_reg [7:0] $end
$var reg 1 >$ m_axis_tvalid_next $end
$var reg 1 ?$ m_axis_tvalid_reg $end
$var reg 1 $$ s_axis_tready_reg $end
$var reg 1 @$ store_axis_input_to_output $end
$var reg 1 A$ store_axis_input_to_temp $end
$var reg 1 B$ store_axis_temp_to_output $end
$var reg 8 C$ temp_m_axis_tdata_reg [7:0] $end
$var reg 8 D$ temp_m_axis_tdest_reg [7:0] $end
$var reg 8 E$ temp_m_axis_tid_reg [7:0] $end
$var reg 1 F$ temp_m_axis_tkeep_reg $end
$var reg 1 G$ temp_m_axis_tlast_reg $end
$var reg 8 H$ temp_m_axis_tuser_reg [7:0] $end
$var reg 1 I$ temp_m_axis_tvalid_next $end
$var reg 1 J$ temp_m_axis_tvalid_reg $end
$upscope $end
$upscope $end
$upscope $end
$upscope $end
$scope module in_axis_register_inst $end
$var wire 1 ! clk $end
$var wire 1 # m_axis_tready $end
$var wire 1 % rst $end
$var wire 48 K$ s_axis_tdata [47:0] $end
$var wire 8 L$ s_axis_tdest [7:0] $end
$var wire 8 M$ s_axis_tid [7:0] $end
$var wire 6 N$ s_axis_tkeep [5:0] $end
$var wire 1 * s_axis_tlast $end
$var wire 8 O$ s_axis_tuser [7:0] $end
$var wire 1 , s_axis_tvalid $end
$var wire 1 - s_axis_tready $end
$var wire 1 8 m_axis_tvalid $end
$var wire 8 P$ m_axis_tuser [7:0] $end
$var wire 1 : m_axis_tlast $end
$var wire 6 Q$ m_axis_tkeep [5:0] $end
$var wire 8 R$ m_axis_tid [7:0] $end
$var wire 8 S$ m_axis_tdest [7:0] $end
$var wire 48 T$ m_axis_tdata [47:0] $end
$var parameter 64 U$ DATA_WIDTH $end
$var parameter 32 V$ DEST_ENABLE $end
$var parameter 32 W$ DEST_WIDTH $end
$var parameter 32 X$ ID_ENABLE $end
$var parameter 32 Y$ ID_WIDTH $end
$var parameter 1 Z$ KEEP_ENABLE $end
$var parameter 65 [$ KEEP_WIDTH $end
$var parameter 32 \$ LAST_ENABLE $end
$var parameter 32 ]$ REG_TYPE $end
$var parameter 32 ^$ USER_ENABLE $end
$var parameter 32 _$ USER_WIDTH $end
$scope begin genblk1 $end
$var wire 1 `$ s_axis_tready_early $end
$var reg 48 a$ m_axis_tdata_reg [47:0] $end
$var reg 8 b$ m_axis_tdest_reg [7:0] $end
$var reg 8 c$ m_axis_tid_reg [7:0] $end
$var reg 6 d$ m_axis_tkeep_reg [5:0] $end
$var reg 1 e$ m_axis_tlast_reg $end
$var reg 8 f$ m_axis_tuser_reg [7:0] $end
$var reg 1 g$ m_axis_tvalid_next $end
$var reg 1 h$ m_axis_tvalid_reg $end
$var reg 1 i$ s_axis_tready_reg $end
$var reg 1 j$ store_axis_input_to_output $end
$var reg 1 k$ store_axis_input_to_temp $end
$var reg 1 l$ store_axis_temp_to_output $end
$var reg 48 m$ temp_m_axis_tdata_reg [47:0] $end
$var reg 8 n$ temp_m_axis_tdest_reg [7:0] $end
$var reg 8 o$ temp_m_axis_tid_reg [7:0] $end
$var reg 6 p$ temp_m_axis_tkeep_reg [5:0] $end
$var reg 1 q$ temp_m_axis_tlast_reg $end
$var reg 8 r$ temp_m_axis_tuser_reg [7:0] $end
$var reg 1 s$ temp_m_axis_tvalid_next $end
$var reg 1 t$ temp_m_axis_tvalid_reg $end
$upscope $end
$upscope $end
$upscope $end
$upscope $end
$enddefinitions $end
$comment Show the parameter values. $end
$dumpall
b1000 _$
b1 ^$
b10 ]$
b1 \$
b110 [$
1Z$
b1000 Y$
b1 X$
b1000 W$
b1 V$
b110000 U$
b1000 7$
b1 6$
b10 5$
b1 4$
b1 3$
02$
b1000 1$
b1 0$
b1000 /$
b1 .$
b1000 -$
b101 {#
b1000 g#
b1 f#
b10 e#
b1 d#
b1 c#
0b#
b1000 a#
b1 `#
b1000 _#
b1 ^#
b1000 ]#
b100 M#
b1000 9#
b1 8#
b10 7#
b1 6#
b1 5#
04#
b1000 3#
b1 2#
b1000 1#
b1 0#
b1000 /#
b11 }"
b1000 i"
b1 h"
b10 g"
b1 f"
b1 e"
0d"
b1000 c"
b1 b"
b1000 a"
b1 `"
b1000 _"
b10 O"
b1000 ;"
b1 :"
b10 9"
b1 8"
b1 7"
06"
b1000 5"
b1 4"
b1000 3"
b1 2"
b1000 1"
b1 !"
b1000 k
b1 j
b10 i
b1 h
b1 g
0f
b1000 e
b1 d
b1000 c
b1 b
b1000 a
b0 Q
b1000 O
b1 N
b1 M
0L
b1000 K
b1 J
b110 I
1H
b110000 G
b1000 F
b1 E
b1 D
b1000 C
b1 B
b110 A
$end
#0
$dumpvars
0t$
0s$
b0 r$
0q$
b0 p$
b0 o$
b0 n$
b0 m$
1l$
0k$
0j$
0i$
0h$
0g$
b0 f$
0e$
b0 d$
b0 c$
b0 b$
b0 a$
1`$
b0 T$
b0 S$
b0 R$
b0 Q$
b0 P$
b0 O$
b0 N$
b0 M$
b0 L$
b0 K$
0J$
0I$
b0 H$
0G$
0F$
b0 E$
b0 D$
b0 C$
0B$
0A$
0@$
0?$
0>$
b0 =$
0<$
b0 ;$
b0 :$
b0 9$
18$
b0 ,$
b0 +$
b0 *$
0)$
b0 ($
0'$
b0 &$
b0 %$
0$$
b0 #$
0"$
0!$
b0 ~#
0}#
1|#
0z#
0y#
b0 x#
0w#
0v#
b0 u#
b0 t#
b0 s#
0r#
0q#
0p#
0o#
0n#
b0 m#
0l#
b0 k#
b0 j#
b0 i#
1h#
b0 \#
b0 [#
b0 Z#
0Y#
b0 X#
0W#
b0 V#
b0 U#
0T#
b0 S#
0R#
0Q#
b0 P#
0O#
1N#
0L#
0K#
b0 J#
0I#
0H#
b0 G#
b0 F#
b0 E#
0D#
0C#
0B#
0A#
0@#
b0 ?#
0>#
b0 =#
b0 <#
b0 ;#
1:#
b0 .#
b0 -#
b0 ,#
0+#
b0 *#
0)#
b0 (#
b0 '#
0&#
b0 %#
0$#
0##
b0 "#
0!#
1~"
0|"
0{"
b0 z"
0y"
0x"
b0 w"
b0 v"
b0 u"
0t"
0s"
0r"
0q"
0p"
b0 o"
0n"
b0 m"
b0 l"
b0 k"
1j"
b0 ^"
b0 ]"
b0 \"
0["
b0 Z"
0Y"
b0 X"
b0 W"
0V"
b0 U"
0T"
0S"
b0 R"
0Q"
1P"
0N"
0M"
b0 L"
0K"
0J"
b0 I"
b0 H"
b0 G"
0F"
0E"
0D"
0C"
0B"
b0 A"
0@"
b0 ?"
b0 >"
b0 ="
1<"
b0 0"
b0 /"
b0 ."
0-"
b0 ,"
0+"
b0 *"
b0 )"
0("
b0 '"
0&"
0%"
b0 $"
0#"
1""
0~
0}
b0 |
0{
0z
b0 y
b0 x
b0 w
0v
0u
0t
0s
0r
b0 q
0p
b0 o
b0 n
b0 m
1l
b0 `
b0 _
b0 ^
0]
b0 \
0[
b0 Z
b0 Y
0X
b0 W
0V
0U
b0 T
0S
1R
bx P
b0 @
b0 ?
b0 >
b0 =
b0 <
b0 ;
0:
b0 9
08
b0 7
b0 6
b0 5
b0 4
b0 3
b111111 2
b0 1
b0 0
b0 /
1.
0-
0,
b0 +
0*
b0 )
b0 (
b0 '
b0 &
0%
b0 $
1#
b0 "
0!
$end
#1000
1t
1D"
1r"
1B#
1p#
1@$
1j$
0l$
1X
1("
1V"
1&#
1T#
b111111 @
1$$
1-
1i$
b0 P
1!
#2000
0!
#3000
1!
#4000
0!
#5000
1!
#6000
0!
#7000
1!
#8000
0!
#9000
1!
#10000
0!
1%
#11000
1l$
0j$
0@$
0p#
0B#
0r"
0D"
0t
0-
0i$
0$$
0T#
0&#
0V"
0("
b0 @
0X
1!
#12000
0!
#13000
1l$
0X
0("
0V"
0&#
0T#
b0 @
0$$
0-
0i$
1!
#14000
0!
#15000
1l$
0-
0i$
0$$
0T#
0&#
0V"
0("
b0 @
0X
1!
#16000
0!
#17000
1l$
0X
0("
0V"
0&#
0T#
b0 @
0$$
0-
0i$
1!
#18000
0!
#19000
1l$
0-
0i$
0$$
0T#
0&#
0V"
0("
b0 @
0X
1!
#20000
0!
0%
#21000
1t
1D"
1r"
1B#
1p#
1@$
1j$
0l$
1X
1("
1V"
1&#
1T#
b111111 @
1$$
1-
1i$
1!
#22000
0!
#23000
1!
#24000
0!
#25000
1!
#26000
0!
#27000
1!
#28000
0!
#29000
1!
#30000
0!
#31000
1!
#32000
1t
1D"
1r"
1B#
1p#
1@$
1S
1#"
1Q"
1!#
1O#
1}#
1g$
1j$
b111111 $
b101010101011101111001100110111011110111011111111 &
b101010101011101111001100110111011110111011111111 K$
b111111 )
b111111 N$
1,
0!
#33000
b0 6
1>$
1@$
1n#
1p#
1@#
1B#
1p"
1r"
1B"
1D"
1r
1t
1"$
1R#
1$#
1T"
1&"
1V
b111111 "
1`$
0k$
0s$
b111111 ?
1#
1.
1!$
1Q#
1##
1S"
1%"
b111111 7
1U
b10101010 ~#
b10111011 P#
b11001100 "#
b11011101 R"
b11101110 $"
b11111111 T
1j$
b111111 ;
b111111 Q$
b111111 d$
b101010101011101111001100110111011110111011111111 >
b101010101011101111001100110111011110111011111111 T$
b101010101011101111001100110111011110111011111111 a$
18
1h$
1*
b111111111010101010111011110011001101110111101110 &
b111111111010101010111011110011001101110111101110 K$
1!
#34000
0!
#35000
b11111111 ~#
b10101010 P#
b10111011 "#
b11001100 R"
b11011101 $"
b11101110 T
1@$
1p#
1B#
1r"
1D"
1t
0*
b111011101111111110101010101110111100110011011101 &
b111011101111111110101010101110111100110011011101 K$
1:
1e$
b111111111010101010111011110011001101110111101110 >
b111111111010101010111011110011001101110111101110 T$
b111111111010101010111011110011001101110111101110 a$
1<$
b10101010 ,$
b10101010 9$
1'$
1?$
1l#
b10111011 \#
b10111011 i#
1W#
1o#
1>#
b11001100 .#
b11001100 ;#
1)#
1A#
1n"
b11011101 ^"
b11011101 k"
1Y"
1q"
1@"
b11101110 0"
b11101110 ="
1+"
1C"
1p
b101010101011101111001100110111011110111011111111 5
b11111111 `
b11111111 m
b111111 /
1[
1s
1!
#36000
0!
#37000
b11101110 ~#
b11111111 P#
b10101010 "#
b10111011 R"
b11001100 $"
b11011101 T
1]
b11101110 `
b11101110 m
1-"
b11011101 0"
b11011101 ="
1["
b11001100 ^"
b11001100 k"
1+#
b10111011 .#
b10111011 ;#
1Y#
b10101010 \#
b10101010 i#
b111111 1
1)$
b111111111010101010111011110011001101110111101110 5
b11111111 ,$
b11111111 9$
0:
0e$
b111011101111111110101010101110111100110011011101 >
b111011101111111110101010101110111100110011011101 T$
b111011101111111110101010101110111100110011011101 a$
1*
b110111011110111011111111101010101011101111001100 &
b110111011110111011111111101010101011101111001100 K$
1!
#38000
0!
#39000
b11011101 ~#
b11101110 P#
b11111111 "#
b10101010 R"
b10111011 $"
b11001100 T
0*
b110011001101110111101110111111111010101010111011 &
b110011001101110111101110111111111010101010111011 K$
1:
1e$
b110111011110111011111111101010101011101111001100 >
b110111011110111011111111101010101011101111001100 T$
b110111011110111011111111101010101011101111001100 a$
0)$
b11101110 ,$
b11101110 9$
0Y#
b11111111 \#
b11111111 i#
0+#
b10101010 .#
b10101010 ;#
0["
b10111011 ^"
b10111011 k"
0-"
b11001100 0"
b11001100 ="
b0 1
0]
b111011101111111110101010101110111100110011011101 5
b11011101 `
b11011101 m
1!
#40000
0!
#41000
b11001100 ~#
b11011101 P#
b11101110 "#
b11111111 R"
b10101010 $"
b10111011 T
1]
b11001100 `
b11001100 m
1-"
b10111011 0"
b10111011 ="
1["
b10101010 ^"
b10101010 k"
1+#
b11111111 .#
b11111111 ;#
1Y#
b11101110 \#
b11101110 i#
b111111 1
1)$
b110111011110111011111111101010101011101111001100 5
b11011101 ,$
b11011101 9$
0:
0e$
b110011001101110111101110111111111010101010111011 >
b110011001101110111101110111111111010101010111011 T$
b110011001101110111101110111111111010101010111011 a$
1*
b101110111100110011011101111011101111111110101010 &
b101110111100110011011101111011101111111110101010 K$
1!
#42000
0!
#43000
b10111011 ~#
b11001100 P#
b11011101 "#
b11101110 R"
b11111111 $"
b10101010 T
0*
b101010101011101111001100110111011110111011111111 &
b101010101011101111001100110111011110111011111111 K$
1:
1e$
b101110111100110011011101111011101111111110101010 >
b101110111100110011011101111011101111111110101010 T$
b101110111100110011011101111011101111111110101010 a$
0)$
b11001100 ,$
b11001100 9$
0Y#
b11011101 \#
b11011101 i#
0+#
b11101110 .#
b11101110 ;#
0["
b11111111 ^"
b11111111 k"
0-"
b10101010 0"
b10101010 ="
b0 1
0]
b110011001101110111101110111111111010101010111011 5
b10111011 `
b10111011 m
1!
#44000
0!
