parallelized/vcd/tb_LinearProcessingElement_1_3_0_2.vcd
$date
	Wed Mar 12 16:01:07 2025
$end
$version
	Icarus Verilog
$end
$timescale
	1ps
$end
$scope module tb_LinearProcessingElement_1_3_0_2 $end
$scope module uut $end
$var wire 1 ! clk $end
$var wire 1 " m_axis_b_tready $end
$var wire 1 # m_axis_d_tready $end
$var wire 1 $ m_axis_r_tready $end
$var wire 1 % rst $end
$var wire 16 & s_axis_l_tdata [15:0] $end
$var wire 1 ' s_axis_l_tlast $end
$var wire 1 ( s_axis_l_tvalid $end
$var wire 16 ) s_axis_t_tdata [15:0] $end
$var wire 1 * s_axis_t_tlast $end
$var wire 1 + s_axis_t_tvalid $end
$var wire 32 , s_axis_u_tdata [31:0] $end
$var wire 1 - s_axis_u_tlast $end
$var wire 1 . s_axis_u_tvalid $end
$var wire 1 / s_axis_u_tready $end
$var wire 1 0 s_axis_t_tready $end
$var wire 1 1 s_axis_l_tready $end
$var wire 1 2 m_axis_r_tvalid $end
$var wire 1 3 m_axis_r_tlast $end
$var wire 16 4 m_axis_r_tdata [15:0] $end
$var wire 1 5 m_axis_d_tvalid $end
$var wire 1 6 m_axis_d_tlast $end
$var wire 32 7 m_axis_d_tdata [31:0] $end
$var wire 1 8 m_axis_b_tvalid $end
$var wire 1 9 m_axis_b_tlast $end
$var wire 16 : m_axis_b_tdata [15:0] $end
$var wire 1 ; err_unalligned_data $end
$var parameter 32 < DATA_WIDTH_OP0 $end
$var parameter 32 = DATA_WIDTH_OP1 $end
$var parameter 33 > DATA_WIDTH_PSUM $end
$var parameter 32 ? FRACTIONAL_BITS_OP0 $end
$var parameter 32 @ FRACTIONAL_BITS_OP1 $end
$var parameter 32 A IS_UNSIGNED_OP0 $end
$var parameter 32 B IS_UNSIGNED_OP1 $end
$var parameter 32 C PE_NUMBER_I $end
$var parameter 32 D PE_NUMBER_J $end
$var parameter 32 E PE_POSITION_I $end
$var parameter 32 F PE_POSITION_J $end
$scope module LinearProcessingElement_inst $end
$var wire 1 ! clk $end
$var wire 16 G int_axis_b_tdata [15:0] $end
$var wire 1 H int_axis_b_tlast $end
$var wire 1 I int_axis_b_tvalid $end
$var wire 1 J int_axis_l_tready $end
$var wire 16 K int_axis_r_tdata [15:0] $end
$var wire 1 L int_axis_r_tlast $end
$var wire 1 M int_axis_r_tvalid $end
$var wire 1 N int_axis_t_tready $end
$var wire 1 " m_axis_b_tready $end
$var wire 1 # m_axis_d_tready $end
$var wire 1 $ m_axis_r_tready $end
$var wire 1 % rst $end
$var wire 16 O s_axis_l_tdata [15:0] $end
$var wire 1 ' s_axis_l_tlast $end
$var wire 1 1 s_axis_l_tready $end
$var wire 1 ( s_axis_l_tvalid $end
$var wire 16 P s_axis_t_tdata [15:0] $end
$var wire 1 * s_axis_t_tlast $end
$var wire 1 0 s_axis_t_tready $end
$var wire 1 + s_axis_t_tvalid $end
$var wire 32 Q s_axis_u_tdata [31:0] $end
$var wire 1 - s_axis_u_tlast $end
$var wire 1 . s_axis_u_tvalid $end
$var wire 1 R store_u $end
$var wire 1 S store_t $end
$var wire 1 T store_l $end
$var wire 1 / s_axis_u_tready $end
$var wire 1 U s_axis_t_tready_int $end
$var wire 1 V s_axis_l_tready_int $end
$var wire 32 W partial_sum_rslt [31:0] $end
$var wire 32 X partial_sum_reg_next [31:0] $end
$var wire 32 Y partial_sum_fb [31:0] $end
$var wire 32 Z partial_sum_acc [31:0] $end
$var wire 1 [ op_start $end
$var wire 32 \ mult_res [31:0] $end
$var wire 16 ] mult_op1 [15:0] $end
$var wire 16 ^ mult_op0 [15:0] $end
$var wire 1 2 m_axis_r_tvalid $end
$var wire 1 3 m_axis_r_tlast $end
$var wire 16 _ m_axis_r_tdata [15:0] $end
$var wire 1 5 m_axis_d_tvalid $end
$var wire 1 6 m_axis_d_tlast $end
$var wire 32 ` m_axis_d_tdata [31:0] $end
$var wire 1 8 m_axis_b_tvalid $end
$var wire 1 9 m_axis_b_tlast $end
$var wire 16 a m_axis_b_tdata [15:0] $end
$var wire 1 b int_axis_u_tvalid $end
$var wire 1 c int_axis_u_tready $end
$var wire 1 d int_axis_u_tlast $end
$var wire 32 e int_axis_u_tdata [31:0] $end
$var wire 1 f int_axis_t_tvalid $end
$var wire 1 g int_axis_t_tlast $end
$var wire 16 h int_axis_t_tdata [15:0] $end
$var wire 1 i int_axis_r_tready $end
$var wire 1 j int_axis_l_tvalid $end
$var wire 1 k int_axis_l_tlast $end
$var wire 16 l int_axis_l_tdata [15:0] $end
$var wire 1 m int_axis_d_tvalid $end
$var wire 1 n int_axis_d_tready $end
$var wire 1 o int_axis_d_tlast $end
$var wire 32 p int_axis_d_tdata [31:0] $end
$var wire 1 q int_axis_b_tready $end
$var wire 1 r forward_u $end
$var wire 1 s forward_t $end
$var wire 1 t forward_l $end
$var wire 1 u export_rslt_last $end
$var wire 1 v export_rslt $end
$var wire 1 ; err_unalligned_data $end
$var wire 1 w drop_u $end
$var wire 1 x drop_t $end
$var wire 1 y drop_l $end
$var wire 1 z bypass_adder $end
$var wire 1 { acc_res $end
$var parameter 32 | DATA_WIDTH_OP0 $end
$var parameter 32 } DATA_WIDTH_OP1 $end
$var parameter 33 ~ DATA_WIDTH_PSUM $end
$var parameter 32 !" FRACTIONAL_BITS_OP0 $end
$var parameter 32 "" FRACTIONAL_BITS_OP1 $end
$var parameter 32 #" IS_UNSIGNED_OP0 $end
$var parameter 32 $" IS_UNSIGNED_OP1 $end
$var parameter 35 %" MLT_OP_SIZE $end
$var parameter 32 &" PE_NUMBER_I $end
$var parameter 32 '" PE_NUMBER_J $end
$var parameter 32 (" PE_POSITION_I $end
$var parameter 32 )" PE_POSITION_J $end
$var reg 32 *" partial_sum_reg [31:0] $end
$scope begin genblk1 $end
$var wire 1 +" s_axis_u_tready_int $end
$scope module axis_register_u_inst $end
$var wire 1 ! clk $end
$var wire 1 ," m_axis_tdest $end
$var wire 1 -" m_axis_tid $end
$var wire 1 ." m_axis_tkeep $end
$var wire 1 c m_axis_tready $end
$var wire 1 /" m_axis_tuser $end
$var wire 1 % rst $end
$var wire 32 0" s_axis_tdata [31:0] $end
$var wire 1 1" s_axis_tdest $end
$var wire 1 2" s_axis_tid $end
$var wire 1 3" s_axis_tkeep $end
$var wire 1 - s_axis_tlast $end
$var wire 1 4" s_axis_tuser $end
$var wire 1 5" s_axis_tvalid $end
$var wire 1 +" s_axis_tready $end
$var wire 1 b m_axis_tvalid $end
$var wire 1 d m_axis_tlast $end
$var wire 32 6" m_axis_tdata [31:0] $end
$var parameter 33 7" DATA_WIDTH $end
$var parameter 32 8" DEST_ENABLE $end
$var parameter 32 9" DEST_WIDTH $end
$var parameter 32 :" ID_ENABLE $end
$var parameter 32 ;" ID_WIDTH $end
$var parameter 32 <" KEEP_ENABLE $end
$var parameter 32 =" KEEP_WIDTH $end
$var parameter 32 >" LAST_ENABLE $end
$var parameter 32 ?" REG_TYPE $end
$var parameter 32 @" USER_ENABLE $end
$var parameter 32 A" USER_WIDTH $end
$scope begin genblk1 $end
$var wire 1 B" s_axis_tready_early $end
$var reg 32 C" m_axis_tdata_reg [31:0] $end
$var reg 1 D" m_axis_tdest_reg $end
$var reg 1 E" m_axis_tid_reg $end
$var reg 1 F" m_axis_tkeep_reg $end
$var reg 1 d m_axis_tlast_reg $end
$var reg 1 G" m_axis_tuser_reg $end
$var reg 1 H" m_axis_tvalid_next $end
$var reg 1 I" m_axis_tvalid_reg $end
$var reg 1 +" s_axis_tready_reg $end
$var reg 1 J" store_axis_input_to_output $end
$var reg 1 K" store_axis_input_to_temp $end
$var reg 1 L" store_axis_temp_to_output $end
$var reg 32 M" temp_m_axis_tdata_reg [31:0] $end
$var reg 1 N" temp_m_axis_tdest_reg $end
$var reg 1 O" temp_m_axis_tid_reg $end
$var reg 1 P" temp_m_axis_tkeep_reg $end
$var reg 1 Q" temp_m_axis_tlast_reg $end
$var reg 1 R" temp_m_axis_tuser_reg $end
$var reg 1 S" temp_m_axis_tvalid_next $end
$var reg 1 T" temp_m_axis_tvalid_reg $end
$upscope $end
$upscope $end
$upscope $end
$scope begin genblk2 $end
$upscope $end
$scope module axis_register_b_inst $end
$var wire 1 ! clk $end
$var wire 1 U" m_axis_tdest $end
$var wire 1 V" m_axis_tid $end
$var wire 1 W" m_axis_tkeep $end
$var wire 1 " m_axis_tready $end
$var wire 1 X" m_axis_tuser $end
$var wire 1 % rst $end
$var wire 16 Y" s_axis_tdata [15:0] $end
$var wire 1 Z" s_axis_tdest $end
$var wire 1 [" s_axis_tid $end
$var wire 1 \" s_axis_tkeep $end
$var wire 1 H s_axis_tlast $end
$var wire 1 ]" s_axis_tuser $end
$var wire 1 I s_axis_tvalid $end
$var wire 1 q s_axis_tready $end
$var wire 1 8 m_axis_tvalid $end
$var wire 1 9 m_axis_tlast $end
$var wire 16 ^" m_axis_tdata [15:0] $end
$var parameter 32 _" DATA_WIDTH $end
$var parameter 32 `" DEST_ENABLE $end
$var parameter 32 a" DEST_WIDTH $end
$var parameter 32 b" ID_ENABLE $end
$var parameter 32 c" ID_WIDTH $end
$var parameter 32 d" KEEP_ENABLE $end
$var parameter 32 e" KEEP_WIDTH $end
$var parameter 32 f" LAST_ENABLE $end
$var parameter 32 g" REG_TYPE $end
$var parameter 32 h" USER_ENABLE $end
$var parameter 32 i" USER_WIDTH $end
$scope begin genblk1 $end
$upscope $end
$upscope $end
$scope module axis_register_d_inst $end
$var wire 1 ! clk $end
$var wire 1 j" m_axis_tdest $end
$var wire 1 k" m_axis_tid $end
$var wire 1 l" m_axis_tkeep $end
$var wire 1 # m_axis_tready $end
$var wire 1 m" m_axis_tuser $end
$var wire 1 % rst $end
$var wire 32 n" s_axis_tdata [31:0] $end
$var wire 1 o" s_axis_tdest $end
$var wire 1 p" s_axis_tid $end
$var wire 1 q" s_axis_tkeep $end
$var wire 1 r" s_axis_tuser $end
$var wire 1 m s_axis_tvalid $end
$var wire 1 n s_axis_tready $end
$var wire 1 o s_axis_tlast $end
$var wire 1 5 m_axis_tvalid $end
$var wire 1 6 m_axis_tlast $end
$var wire 32 s" m_axis_tdata [31:0] $end
$var parameter 33 t" DATA_WIDTH $end
$var parameter 32 u" DEST_ENABLE $end
$var parameter 32 v" DEST_WIDTH $end
$var parameter 32 w" ID_ENABLE $end
$var parameter 32 x" ID_WIDTH $end
$var parameter 32 y" KEEP_ENABLE $end
$var parameter 32 z" KEEP_WIDTH $end
$var parameter 32 {" LAST_ENABLE $end
$var parameter 32 |" REG_TYPE $end
$var parameter 32 }" USER_ENABLE $end
$var parameter 32 ~" USER_WIDTH $end
$scope begin genblk1 $end
$upscope $end
$upscope $end
$scope module axis_register_l_inst $end
$var wire 1 ! clk $end
$var wire 1 !# m_axis_tdest $end
$var wire 1 "# m_axis_tid $end
$var wire 1 ## m_axis_tkeep $end
$var wire 1 J m_axis_tready $end
$var wire 1 $# m_axis_tuser $end
$var wire 1 % rst $end
$var wire 16 %# s_axis_tdata [15:0] $end
$var wire 1 &# s_axis_tdest $end
$var wire 1 '# s_axis_tid $end
$var wire 1 (# s_axis_tkeep $end
$var wire 1 ' s_axis_tlast $end
$var wire 1 )# s_axis_tuser $end
$var wire 1 *# s_axis_tvalid $end
$var wire 1 V s_axis_tready $end
$var wire 1 j m_axis_tvalid $end
$var wire 1 k m_axis_tlast $end
$var wire 16 +# m_axis_tdata [15:0] $end
$var parameter 32 ,# DATA_WIDTH $end
$var parameter 32 -# DEST_ENABLE $end
$var parameter 32 .# DEST_WIDTH $end
$var parameter 32 /# ID_ENABLE $end
$var parameter 32 0# ID_WIDTH $end
$var parameter 32 1# KEEP_ENABLE $end
$var parameter 32 2# KEEP_WIDTH $end
$var parameter 32 3# LAST_ENABLE $end
$var parameter 32 4# REG_TYPE $end
$var parameter 32 5# USER_ENABLE $end
$var parameter 32 6# USER_WIDTH $end
$scope begin genblk1 $end
$var wire 1 7# s_axis_tready_early $end
$var reg 16 8# m_axis_tdata_reg [15:0] $end
$var reg 1 9# m_axis_tdest_reg $end
$var reg 1 :# m_axis_tid_reg $end
$var reg 1 ;# m_axis_tkeep_reg $end
$var reg 1 k m_axis_tlast_reg $end
$var reg 1 <# m_axis_tuser_reg $end
$var reg 1 =# m_axis_tvalid_next $end
$var reg 1 ># m_axis_tvalid_reg $end
$var reg 1 V s_axis_tready_reg $end
$var reg 1 ?# store_axis_input_to_output $end
$var reg 1 @# store_axis_input_to_temp $end
$var reg 1 A# store_axis_temp_to_output $end
$var reg 16 B# temp_m_axis_tdata_reg [15:0] $end
$var reg 1 C# temp_m_axis_tdest_reg $end
$var reg 1 D# temp_m_axis_tid_reg $end
$var reg 1 E# temp_m_axis_tkeep_reg $end
$var reg 1 F# temp_m_axis_tlast_reg $end
$var reg 1 G# temp_m_axis_tuser_reg $end
$var reg 1 H# temp_m_axis_tvalid_next $end
$var reg 1 I# temp_m_axis_tvalid_reg $end
$upscope $end
$upscope $end
$scope module axis_register_r_inst $end
$var wire 1 ! clk $end
$var wire 1 J# m_axis_tdest $end
$var wire 1 K# m_axis_tid $end
$var wire 1 L# m_axis_tkeep $end
$var wire 1 $ m_axis_tready $end
$var wire 1 M# m_axis_tuser $end
$var wire 1 % rst $end
$var wire 16 N# s_axis_tdata [15:0] $end
$var wire 1 O# s_axis_tdest $end
$var wire 1 P# s_axis_tid $end
$var wire 1 Q# s_axis_tkeep $end
$var wire 1 L s_axis_tlast $end
$var wire 1 R# s_axis_tuser $end
$var wire 1 M s_axis_tvalid $end
$var wire 1 i s_axis_tready $end
$var wire 1 2 m_axis_tvalid $end
$var wire 1 3 m_axis_tlast $end
$var wire 16 S# m_axis_tdata [15:0] $end
$var parameter 32 T# DATA_WIDTH $end
$var parameter 32 U# DEST_ENABLE $end
$var parameter 32 V# DEST_WIDTH $end
$var parameter 32 W# ID_ENABLE $end
$var parameter 32 X# ID_WIDTH $end
$var parameter 32 Y# KEEP_ENABLE $end
$var parameter 32 Z# KEEP_WIDTH $end
$var parameter 32 [# LAST_ENABLE $end
$var parameter 32 \# REG_TYPE $end
$var parameter 32 ]# USER_ENABLE $end
$var parameter 32 ^# USER_WIDTH $end
$scope begin genblk1 $end
$upscope $end
$upscope $end
$scope module axis_register_t_inst $end
$var wire 1 ! clk $end
$var wire 1 _# m_axis_tdest $end
$var wire 1 `# m_axis_tid $end
$var wire 1 a# m_axis_tkeep $end
$var wire 1 N m_axis_tready $end
$var wire 1 b# m_axis_tuser $end
$var wire 1 % rst $end
$var wire 16 c# s_axis_tdata [15:0] $end
$var wire 1 d# s_axis_tdest $end
$var wire 1 e# s_axis_tid $end
$var wire 1 f# s_axis_tkeep $end
$var wire 1 * s_axis_tlast $end
$var wire 1 g# s_axis_tuser $end
$var wire 1 h# s_axis_tvalid $end
$var wire 1 U s_axis_tready $end
$var wire 1 f m_axis_tvalid $end
$var wire 1 g m_axis_tlast $end
$var wire 16 i# m_axis_tdata [15:0] $end
$var parameter 32 j# DATA_WIDTH $end
$var parameter 32 k# DEST_ENABLE $end
$var parameter 32 l# DEST_WIDTH $end
$var parameter 32 m# ID_ENABLE $end
$var parameter 32 n# ID_WIDTH $end
$var parameter 32 o# KEEP_ENABLE $end
$var parameter 32 p# KEEP_WIDTH $end
$var parameter 32 q# LAST_ENABLE $end
$var parameter 32 r# REG_TYPE $end
$var parameter 32 s# USER_ENABLE $end
$var parameter 32 t# USER_WIDTH $end
$scope begin genblk1 $end
$var wire 1 u# s_axis_tready_early $end
$var reg 16 v# m_axis_tdata_reg [15:0] $end
$var reg 1 w# m_axis_tdest_reg $end
$var reg 1 x# m_axis_tid_reg $end
$var reg 1 y# m_axis_tkeep_reg $end
$var reg 1 g m_axis_tlast_reg $end
$var reg 1 z# m_axis_tuser_reg $end
$var reg 1 {# m_axis_tvalid_next $end
$var reg 1 |# m_axis_tvalid_reg $end
$var reg 1 U s_axis_tready_reg $end
$var reg 1 }# store_axis_input_to_output $end
$var reg 1 ~# store_axis_input_to_temp $end
$var reg 1 !$ store_axis_temp_to_output $end
$var reg 16 "$ temp_m_axis_tdata_reg [15:0] $end
$var reg 1 #$ temp_m_axis_tdest_reg $end
$var reg 1 $$ temp_m_axis_tid_reg $end
$var reg 1 %$ temp_m_axis_tkeep_reg $end
$var reg 1 &$ temp_m_axis_tlast_reg $end
$var reg 1 '$ temp_m_axis_tuser_reg $end
$var reg 1 ($ temp_m_axis_tvalid_next $end
$var reg 1 )$ temp_m_axis_tvalid_reg $end
$upscope $end
$upscope $end
$scope module control_unit $end
$var wire 1 *$ bypass_adder_int $end
$var wire 1 ! clk $end
$var wire 1 +$ down_axis_open $end
$var wire 1 ; err_unalligned_data $end
$var wire 1 ,$ err_unalligned_data_int $end
$var wire 1 -$ export_rslt_reg_next $end
$var wire 1 t forward_l $end
$var wire 1 s forward_t $end
$var wire 1 q int_axis_b_tready $end
$var wire 1 n int_axis_d_tready $end
$var wire 1 k int_axis_l_tlast $end
$var wire 1 j int_axis_l_tvalid $end
$var wire 1 i int_axis_r_tready $end
$var wire 1 g int_axis_t_tlast $end
$var wire 1 f int_axis_t_tvalid $end
$var wire 1 .$ op0_flag $end
$var wire 1 /$ op0_last_flag $end
$var wire 1 0$ op1_flag $end
$var wire 1 1$ op1_last_flag $end
$var wire 1 2$ op_valid $end
$var wire 1 3$ partial_sum_last_reg_next $end
$var wire 1 4$ rslt_flag $end
$var wire 1 5$ rslt_last_flag $end
$var wire 1 % rst $end
$var wire 1 R store_u $end
$var wire 1 S store_t $end
$var wire 1 T store_l $end
$var wire 1 [ op_start $end
$var wire 1 b int_axis_u_tvalid $end
$var wire 1 d int_axis_u_tlast $end
$var wire 1 r forward_u $end
$var wire 1 6$ export_rslt_last_int $end
$var wire 1 u export_rslt_last $end
$var wire 1 7$ export_rslt_int $end
$var wire 1 v export_rslt $end
$var wire 1 w drop_u $end
$var wire 1 x drop_t $end
$var wire 1 y drop_l $end
$var wire 1 z bypass_adder $end
$var wire 1 { acc_res $end
$var parameter 3 8$ FSM_END $end
$var parameter 3 9$ FSM_ERR $end
$var parameter 3 :$ FSM_MAC $end
$var parameter 3 ;$ FSM_ST0 $end
$var parameter 32 <$ FSM_STATE_WIDTH $end
$var parameter 3 =$ FSM_STRL $end
$var parameter 3 >$ FSM_STRT $end
$var parameter 32 ?$ PE_NUMBER_J $end
$var parameter 32 @$ PE_POSITION_J $end
$var reg 1 A$ acc_res_reg $end
$var reg 1 B$ bypass_adder_reg $end
$var reg 1 y drop_l_reg $end
$var reg 1 x drop_t_reg $end
$var reg 1 C$ drop_u_reg $end
$var reg 1 D$ err_unalligned_data_reg $end
$var reg 1 E$ export_rslt_reg $end
$var reg 1 F$ forward_l_reg $end
$var reg 1 G$ forward_t_reg $end
$var reg 1 r forward_u_reg $end
$var reg 3 H$ fsm_state [2:0] $end
$var reg 3 I$ fsm_state_next [2:0] $end
$var reg 1 J$ op_start_reg $end
$var reg 1 K$ partial_sum_last_reg $end
$var reg 1 T store_l_reg $end
$var reg 1 S store_t_reg $end
$var reg 1 R store_u_reg $end
$scope begin genblk1 $end
$upscope $end
$scope begin genblk2 $end
$upscope $end
$scope begin genblk3 $end
$upscope $end
$scope begin genblk4 $end
$upscope $end
$scope begin genblk5 $end
$upscope $end
$scope begin genblk6 $end
$upscope $end
$scope begin genblk7 $end
$var wire 1 L$ local_tlast_reg_next $end
$var wire 1 M$ partial_sum_updated $end
$var reg 1 6$ local_tlast_reg $end
$upscope $end
$upscope $end
$upscope $end
$upscope $end
$upscope $end
$enddefinitions $end
$comment Show the parameter values. $end
$dumpall
b10 @$
b11 ?$
b10 >$
b1 =$
b11 <$
b0 ;$
b11 :$
b100 9$
b101 8$
b1 t#
b0 s#
b10 r#
b1 q#
b1 p#
b0 o#
b1 n#
b0 m#
b1 l#
b0 k#
b10000 j#
b1 ^#
b0 ]#
b0 \#
b1 [#
b1 Z#
b0 Y#
b1 X#
b0 W#
b1 V#
b0 U#
b10000 T#
b1 6#
b0 5#
b10 4#
b1 3#
b1 2#
b0 1#
b1 0#
b0 /#
b1 .#
b0 -#
b10000 ,#
b1 ~"
b0 }"
b0 |"
b1 {"
b1 z"
b0 y"
b1 x"
b0 w"
b1 v"
b0 u"
b100000 t"
b1 i"
b0 h"
b0 g"
b1 f"
b1 e"
b0 d"
b1 c"
b0 b"
b1 a"
b0 `"
b10000 _"
b1 A"
b0 @"
b10 ?"
b1 >"
b1 ="
b0 <"
b1 ;"
b0 :"
b1 9"
b0 8"
b100000 7"
b10 )"
b0 ("
b11 '"
b1 &"
b100000 %"
b0 $"
b0 #"
b1111 ""
b1101 !"
b100000 ~
b10000 }
b10000 |
b10 F
b0 E
b11 D
b1 C
b0 B
b0 A
b1111 @
b1101 ?
b100000 >
b10000 =
b10000 <
$end
#0
$dumpvars
0M$
0L$
0K$
xJ$
b0 I$
bx H$
xG$
xF$
xE$
xD$
xC$
xB$
xA$
x7$
x6$
05$
04$
03$
02$
01$
00$
0/$
0.$
x-$
0,$
0+$
1*$
0)$
0($
0'$
0&$
0%$
0$$
0#$
b0 "$
0!$
0~#
0}#
0|#
0{#
0z#
0y#
0x#
0w#
b0 v#
1u#
b0 i#
0h#
0g#
1f#
0e#
0d#
b0 c#
0b#
1a#
0`#
0_#
b0 S#
0R#
1Q#
0P#
0O#
b0 N#
0M#
1L#
0K#
0J#
0I#
0H#
0G#
0F#
0E#
0D#
0C#
b0 B#
0A#
0@#
0?#
0>#
0=#
0<#
0;#
0:#
09#
b0 8#
17#
b0 +#
0*#
0)#
1(#
0'#
0&#
b0 %#
0$#
1##
0"#
0!#
b0 s"
zr"
1q"
0p"
0o"
b0 n"
0m"
1l"
0k"
0j"
b0 ^"
0]"
1\"
0["
0Z"
b0 Y"
0X"
1W"
0V"
0U"
0T"
0S"
0R"
0Q"
0P"
0O"
0N"
b0 M"
0L"
0K"
0J"
0I"
0H"
0G"
0F"
0E"
0D"
b0 C"
1B"
b0 6"
05"
04"
13"
02"
01"
b0 0"
0/"
1."
0-"
0,"
0+"
b0 *"
0{
1z
xy
xx
xw
xv
xu
xt
xs
xr
0q
b0 p
xo
0n
xm
b0 l
0k
0j
0i
b0 h
0g
0f
b0 e
0d
xc
0b
b0 a
b0 `
b0 _
b0 ^
b0 ]
b0 \
x[
b0 Z
b0 Y
b0 X
b0 W
0V
0U
xT
xS
xR
b0 Q
b0 P
b0 O
xN
0M
0L
b0 K
xJ
0I
0H
b0 G
x;
b0 :
09
08
b0 7
x6
x5
b0 4
03
02
01
00
0/
0.
0-
b0 ,
0+
0*
b0 )
0(
0'
b0 &
0%
0$
0#
0"
0!
$end
#1000
0c
1J"
05
0m
0-$
0;
1[
1s
1t
0w
0N
0J
1/
1?#
11
1}#
10
1+"
06
0o
0u
0v
07$
06$
0E$
0D$
0A$
0B$
1J$
0r
1G$
1F$
0C$
0x
0y
1R
1S
1T
b0 H$
1V
1U
b1 ,
b1 Q
b1 0"
1!
#2000
0!
#3000
b1 7
b1 `
b1 s"
b1 p
b1 n"
1y#
1;#
1F"
b1 e
b1 6"
b1 C"
1!
#4000
0!
#5000
1!
#6000
0!
#7000
1!
#8000
0!
#9000
1!
#10000
0!
1%
#11000
1L"
1c
1!$
0}#
1A#
0?#
0s
0t
1w
1N
1J
00
01
0J"
0/
0U
0V
1B$
0G$
0F$
1C$
1x
1y
0R
0S
0T
0+"
1!
#12000
0!
#13000
b0 7
b0 `
b0 s"
b0 p
b0 n"
1L"
1A#
1!$
0F"
b0 e
b0 6"
b0 C"
0+"
0;#
0V
0y#
0U
1!
#14000
0!
#15000
1!$
1A#
1L"
0U
0V
0+"
1!
#16000
0!
#17000
1L"
1A#
1!$
0+"
0V
0U
1!
#18000
0!
#19000
1!$
1A#
1L"
0U
0V
0+"
1!
#20000
0!
0%
#21000
0c
1J"
0L"
1s
1t
0w
0N
0J
1/
1?#
0A#
11
1}#
0!$
10
1+"
0B$
1G$
1F$
0C$
0x
0y
1R
1S
1T
1V
1U
1!
#22000
0!
#23000
b1 7
b1 `
b1 s"
b1 p
b1 n"
1y#
1;#
1F"
b1 e
b1 6"
b1 C"
1!
#24000
0!
#25000
1!
#26000
0!
#27000
1!
#28000
0!
#29000
1!
#30000
0!
#31000
1{#
1}#
1=#
1?#
1h#
1*#
1+
1(
b1000000000000000 )
b1000000000000000 P
b1000000000000000 c#
b1000000000000000 &
b1000000000000000 O
b1000000000000000 %#
1!
#32000
1?#
1=#
1}#
1{#
1J
1N
1i
1$
1n
1#
1q
1"
0!
#33000
b11 I$
b1000000000000000000000000000000 X
0z
0*$
12
1M
12$
18
1I
b1000000000000000000000000000000 W
b1000000000000000000000000000000 Z
1?#
1.$
1}#
10$
b1000000000000000000000000000000 \
b1000000000000000 ^
b1000000000000000 4
b1000000000000000 _
b1000000000000000 S#
b1000000000000000 K
b1000000000000000 N#
b1000000000000000 l
b1000000000000000 +#
b1000000000000000 8#
1j
1>#
b1000000000000000 ]
b1000000000000000 :
b1000000000000000 a
b1000000000000000 ^"
b1000000000000000 G
b1000000000000000 Y"
b1000000000000000 h
b1000000000000000 i#
b1000000000000000 v#
1f
1|#
1!
#34000
0!
#35000
b10000000000000000000000000000000 X
b10000000000000000000000000000000 W
b1000000000000000000000000000000 Y
0[
b1000000000000000000000000000000 *"
0J$
b11 H$
1!
#36000
0!
#37000
b11000000000000000000000000000000 X
b11000000000000000000000000000000 W
b10000000000000000000000000000000 Y
b10000000000000000000000000000000 *"
b1111000000000000 )
b1111000000000000 P
b1111000000000000 c#
1!
#38000
0!
#39000
b11001000000000000000000000000000 X
b11000000000000000000000000000000 Y
b11001000000000000000000000000000 W
b1000000000000000000000000000 Z
b0 )
b0 P
b0 c#
b11000000000000000000000000000000 *"
b1000000000000000000000000000 \
b1111000000000000 ]
b1111000000000000 :
b1111000000000000 a
b1111000000000000 ^"
b1111000000000000 G
b1111000000000000 Y"
b1111000000000000 h
b1111000000000000 i#
b1111000000000000 v#
1!
#40000
0!
#41000
b0 Z
b11001000000000000000000000000000 W
b11001000000000000000000000000000 Y
b0 \
b0 ]
b0 :
b0 a
b0 ^"
b0 G
b0 Y"
b0 h
b0 i#
b0 v#
b11001000000000000000000000000000 *"
b1000000000000 )
b1000000000000 P
b1000000000000 c#
1!
#42000
0!
#43000
b11000000000000000000000000000000 X
b11000000000000000000000000000000 W
b11111000000000000000000000000000 Z
b1000000000000000 )
b1000000000000000 P
b1000000000000000 c#
b11111000000000000000000000000000 \
b1000000000000 ]
b1000000000000 :
b1000000000000 a
b1000000000000 ^"
b1000000000000 G
b1000000000000 Y"
b1000000000000 h
b1000000000000 i#
b1000000000000 v#
1!
#44000
0!
#45000
b0 X
b1000000000000000000000000000000 Z
b0 W
b11000000000000000000000000000000 Y
b1000000000000000000000000000000 \
b1000000000000000 ]
b1000000000000000 :
b1000000000000000 a
b1000000000000000 ^"
b1000000000000000 G
b1000000000000000 Y"
b1000000000000000 h
b1000000000000000 i#
b1000000000000000 v#
b11000000000000000000000000000000 *"
b1111000000000000 &
b1111000000000000 O
b1111000000000000 %#
1!
#46000
0!
#47000
b1000000000000000000000000000 X
b0 Y
b1000000000000000000000000000 W
b1000000000000000000000000000 Z
b1111000000000000 )
b1111000000000000 P
b1111000000000000 c#
b0 *"
b1000000000000000000000000000 \
b1111000000000000 ^
b1111000000000000 4
b1111000000000000 _
b1111000000000000 S#
b1111000000000000 K
b1111000000000000 N#
b1111000000000000 l
b1111000000000000 +#
b1111000000000000 8#
1!
#48000
0!
#49000
b1001000000000000000000000000 X
b1000000000000000000000000 Z
b1001000000000000000000000000 W
b1000000000000000000000000000 Y
b1000000000000000000000000 \
b1111000000000000 ]
b1111000000000000 :
b1111000000000000 a
b1111000000000000 ^"
b1111000000000000 G
b1111000000000000 Y"
b1111000000000000 h
b1111000000000000 i#
b1111000000000000 v#
b1000000000000000000000000000 *"
b0 )
b0 P
b0 c#
1!
#50000
0!
#51000
b1001000000000000000000000000 Y
b1001000000000000000000000000 W
b0 Z
b1000000000000 )
b1000000000000 P
b1000000000000 c#
b1001000000000000000000000000 *"
b0 \
b0 ]
b0 :
b0 a
b0 ^"
b0 G
b0 Y"
b0 h
b0 i#
b0 v#
1!
#52000
0!
#53000
b1000000000000000000000000000 X
b1000000000000000000000000000 W
b11111111000000000000000000000000 Z
b11111111000000000000000000000000 \
b1000000000000 ]
b1000000000000 :
b1000000000000 a
b1000000000000 ^"
b1000000000000 G
b1000000000000 Y"
b1000000000000 h
b1000000000000 i#
b1000000000000 v#
b1000000000000000 )
b1000000000000000 P
b1000000000000000 c#
1!
#54000
0!
#55000
b10000000000000000000000000000 X
b1000000000000000000000000000 Y
b10000000000000000000000000000 W
b1000000000000000000000000000 Z
b0 &
b0 O
b0 %#
b1000000000000000000000000000 *"
b1000000000000000000000000000 \
b1000000000000000 ]
b1000000000000000 :
b1000000000000000 a
b1000000000000000 ^"
b1000000000000000 G
b1000000000000000 Y"
b1000000000000000 h
b1000000000000000 i#
b1000000000000000 v#
1!
#56000
0!
#57000
b0 Z
b10000000000000000000000000000 W
b10000000000000000000000000000 Y
b0 \
b0 ^
b0 4
b0 _
b0 S#
b0 K
b0 N#
b0 l
b0 +#
b0 8#
b10000000000000000000000000000 *"
b1111000000000000 )
b1111000000000000 P
b1111000000000000 c#
1!
#58000
0!
#59000
b0 )
b0 P
b0 c#
b1111000000000000 ]
b1111000000000000 :
b1111000000000000 a
b1111000000000000 ^"
b1111000000000000 G
b1111000000000000 Y"
b1111000000000000 h
b1111000000000000 i#
b1111000000000000 v#
1!
#60000
0!
