parallelized/vcd/tb_LinearProcessingElement_1_3_0_0.vcd
$date
	Wed Mar 12 16:01:05 2025
$end
$version
	Icarus Verilog
$end
$timescale
	1ps
$end
$scope module tb_LinearProcessingElement_1_3_0_0 $end
$scope module uut $end
$var wire 1 ! clk $end
$var wire 1 " m_axis_b_tready $end
$var wire 1 # m_axis_d_tready $end
$var wire 1 $ m_axis_r_tready $end
$var wire 1 % rst $end
$var wire 16 & s_axis_l_tdata [15:0] $end
$var wire 1 ' s_axis_l_tlast $end
$var wire 1 ( s_axis_l_tvalid $end
$var wire 16 ) s_axis_t_tdata [15:0] $end
$var wire 1 * s_axis_t_tlast $end
$var wire 1 + s_axis_t_tvalid $end
$var wire 32 , s_axis_u_tdata [31:0] $end
$var wire 1 - s_axis_u_tlast $end
$var wire 1 . s_axis_u_tready $end
$var wire 1 / s_axis_u_tvalid $end
$var wire 1 0 s_axis_t_tready $end
$var wire 1 1 s_axis_l_tready $end
$var wire 1 2 m_axis_r_tvalid $end
$var wire 1 3 m_axis_r_tlast $end
$var wire 16 4 m_axis_r_tdata [15:0] $end
$var wire 1 5 m_axis_d_tvalid $end
$var wire 1 6 m_axis_d_tlast $end
$var wire 32 7 m_axis_d_tdata [31:0] $end
$var wire 1 8 m_axis_b_tvalid $end
$var wire 1 9 m_axis_b_tlast $end
$var wire 16 : m_axis_b_tdata [15:0] $end
$var wire 1 ; err_unalligned_data $end
$var parameter 32 < DATA_WIDTH_OP0 $end
$var parameter 32 = DATA_WIDTH_OP1 $end
$var parameter 33 > DATA_WIDTH_PSUM $end
$var parameter 32 ? FRACTIONAL_BITS_OP0 $end
$var parameter 32 @ FRACTIONAL_BITS_OP1 $end
$var parameter 32 A IS_UNSIGNED_OP0 $end
$var parameter 32 B IS_UNSIGNED_OP1 $end
$var parameter 32 C PE_NUMBER_I $end
$var parameter 32 D PE_NUMBER_J $end
$var parameter 32 E PE_POSITION_I $end
$var parameter 32 F PE_POSITION_J $end
$scope module LinearProcessingElement_inst $end
$var wire 1 G acc_res $end
$var wire 1 ! clk $end
$var wire 1 H drop_u $end
$var wire 1 I forward_u $end
$var wire 16 J int_axis_b_tdata [15:0] $end
$var wire 1 K int_axis_b_tlast $end
$var wire 1 L int_axis_b_tvalid $end
$var wire 1 M int_axis_l_tready $end
$var wire 16 N int_axis_r_tdata [15:0] $end
$var wire 1 O int_axis_r_tlast $end
$var wire 1 P int_axis_r_tvalid $end
$var wire 1 Q int_axis_t_tready $end
$var wire 32 R int_axis_u_tdata [31:0] $end
$var wire 1 S int_axis_u_tlast $end
$var wire 1 T int_axis_u_tvalid $end
$var wire 1 " m_axis_b_tready $end
$var wire 1 # m_axis_d_tready $end
$var wire 1 $ m_axis_r_tready $end
$var wire 32 U partial_sum_acc [31:0] $end
$var wire 1 % rst $end
$var wire 16 V s_axis_l_tdata [15:0] $end
$var wire 1 ' s_axis_l_tlast $end
$var wire 1 1 s_axis_l_tready $end
$var wire 1 ( s_axis_l_tvalid $end
$var wire 16 W s_axis_t_tdata [15:0] $end
$var wire 1 * s_axis_t_tlast $end
$var wire 1 0 s_axis_t_tready $end
$var wire 1 + s_axis_t_tvalid $end
$var wire 32 X s_axis_u_tdata [31:0] $end
$var wire 1 - s_axis_u_tlast $end
$var wire 1 . s_axis_u_tready $end
$var wire 1 / s_axis_u_tvalid $end
$var wire 1 Y store_u $end
$var wire 1 Z store_t $end
$var wire 1 [ store_l $end
$var wire 1 \ s_axis_t_tready_int $end
$var wire 1 ] s_axis_l_tready_int $end
$var wire 32 ^ partial_sum_rslt [31:0] $end
$var wire 32 _ partial_sum_reg_next [31:0] $end
$var wire 32 ` partial_sum_fb [31:0] $end
$var wire 1 a op_start $end
$var wire 32 b mult_res [31:0] $end
$var wire 16 c mult_op1 [15:0] $end
$var wire 16 d mult_op0 [15:0] $end
$var wire 1 2 m_axis_r_tvalid $end
$var wire 1 3 m_axis_r_tlast $end
$var wire 16 e m_axis_r_tdata [15:0] $end
$var wire 1 5 m_axis_d_tvalid $end
$var wire 1 6 m_axis_d_tlast $end
$var wire 32 f m_axis_d_tdata [31:0] $end
$var wire 1 8 m_axis_b_tvalid $end
$var wire 1 9 m_axis_b_tlast $end
$var wire 16 g m_axis_b_tdata [15:0] $end
$var wire 1 h int_axis_t_tvalid $end
$var wire 1 i int_axis_t_tlast $end
$var wire 16 j int_axis_t_tdata [15:0] $end
$var wire 1 k int_axis_r_tready $end
$var wire 1 l int_axis_l_tvalid $end
$var wire 1 m int_axis_l_tlast $end
$var wire 16 n int_axis_l_tdata [15:0] $end
$var wire 1 o int_axis_d_tvalid $end
$var wire 1 p int_axis_d_tready $end
$var wire 1 q int_axis_d_tlast $end
$var wire 32 r int_axis_d_tdata [31:0] $end
$var wire 1 s int_axis_b_tready $end
$var wire 1 t forward_t $end
$var wire 1 u forward_l $end
$var wire 1 v export_rslt_last $end
$var wire 1 w export_rslt $end
$var wire 1 ; err_unalligned_data $end
$var wire 1 x drop_t $end
$var wire 1 y drop_l $end
$var wire 1 z bypass_adder $end
$var parameter 32 { DATA_WIDTH_OP0 $end
$var parameter 32 | DATA_WIDTH_OP1 $end
$var parameter 33 } DATA_WIDTH_PSUM $end
$var parameter 32 ~ FRACTIONAL_BITS_OP0 $end
$var parameter 32 !" FRACTIONAL_BITS_OP1 $end
$var parameter 32 "" IS_UNSIGNED_OP0 $end
$var parameter 32 #" IS_UNSIGNED_OP1 $end
$var parameter 35 $" MLT_OP_SIZE $end
$var parameter 32 %" PE_NUMBER_I $end
$var parameter 32 &" PE_NUMBER_J $end
$var parameter 32 '" PE_POSITION_I $end
$var parameter 32 (" PE_POSITION_J $end
$var reg 32 )" partial_sum_reg [31:0] $end
$scope begin genblk1 $end
$upscope $end
$scope begin genblk2 $end
$upscope $end
$scope module axis_register_b_inst $end
$var wire 1 ! clk $end
$var wire 1 *" m_axis_tdest $end
$var wire 1 +" m_axis_tid $end
$var wire 1 ," m_axis_tkeep $end
$var wire 1 " m_axis_tready $end
$var wire 1 -" m_axis_tuser $end
$var wire 1 % rst $end
$var wire 16 ." s_axis_tdata [15:0] $end
$var wire 1 /" s_axis_tdest $end
$var wire 1 0" s_axis_tid $end
$var wire 1 1" s_axis_tkeep $end
$var wire 1 K s_axis_tlast $end
$var wire 1 2" s_axis_tuser $end
$var wire 1 L s_axis_tvalid $end
$var wire 1 s s_axis_tready $end
$var wire 1 8 m_axis_tvalid $end
$var wire 1 9 m_axis_tlast $end
$var wire 16 3" m_axis_tdata [15:0] $end
$var parameter 32 4" DATA_WIDTH $end
$var parameter 32 5" DEST_ENABLE $end
$var parameter 32 6" DEST_WIDTH $end
$var parameter 32 7" ID_ENABLE $end
$var parameter 32 8" ID_WIDTH $end
$var parameter 32 9" KEEP_ENABLE $end
$var parameter 32 :" KEEP_WIDTH $end
$var parameter 32 ;" LAST_ENABLE $end
$var parameter 32 <" REG_TYPE $end
$var parameter 32 =" USER_ENABLE $end
$var parameter 32 >" USER_WIDTH $end
$scope begin genblk1 $end
$upscope $end
$upscope $end
$scope module axis_register_d_inst $end
$var wire 1 ! clk $end
$var wire 1 ?" m_axis_tdest $end
$var wire 1 @" m_axis_tid $end
$var wire 1 A" m_axis_tkeep $end
$var wire 1 # m_axis_tready $end
$var wire 1 B" m_axis_tuser $end
$var wire 1 % rst $end
$var wire 1 C" s_axis_tdest $end
$var wire 1 D" s_axis_tid $end
$var wire 1 E" s_axis_tkeep $end
$var wire 1 F" s_axis_tuser $end
$var wire 1 o s_axis_tvalid $end
$var wire 1 p s_axis_tready $end
$var wire 1 q s_axis_tlast $end
$var wire 32 G" s_axis_tdata [31:0] $end
$var wire 1 5 m_axis_tvalid $end
$var wire 1 6 m_axis_tlast $end
$var wire 32 H" m_axis_tdata [31:0] $end
$var parameter 33 I" DATA_WIDTH $end
$var parameter 32 J" DEST_ENABLE $end
$var parameter 32 K" DEST_WIDTH $end
$var parameter 32 L" ID_ENABLE $end
$var parameter 32 M" ID_WIDTH $end
$var parameter 32 N" KEEP_ENABLE $end
$var parameter 32 O" KEEP_WIDTH $end
$var parameter 32 P" LAST_ENABLE $end
$var parameter 32 Q" REG_TYPE $end
$var parameter 32 R" USER_ENABLE $end
$var parameter 32 S" USER_WIDTH $end
$scope begin genblk1 $end
$upscope $end
$upscope $end
$scope module axis_register_l_inst $end
$var wire 1 ! clk $end
$var wire 1 T" m_axis_tdest $end
$var wire 1 U" m_axis_tid $end
$var wire 1 V" m_axis_tkeep $end
$var wire 1 M m_axis_tready $end
$var wire 1 W" m_axis_tuser $end
$var wire 1 % rst $end
$var wire 16 X" s_axis_tdata [15:0] $end
$var wire 1 Y" s_axis_tdest $end
$var wire 1 Z" s_axis_tid $end
$var wire 1 [" s_axis_tkeep $end
$var wire 1 ' s_axis_tlast $end
$var wire 1 \" s_axis_tuser $end
$var wire 1 ]" s_axis_tvalid $end
$var wire 1 ] s_axis_tready $end
$var wire 1 l m_axis_tvalid $end
$var wire 1 m m_axis_tlast $end
$var wire 16 ^" m_axis_tdata [15:0] $end
$var parameter 32 _" DATA_WIDTH $end
$var parameter 32 `" DEST_ENABLE $end
$var parameter 32 a" DEST_WIDTH $end
$var parameter 32 b" ID_ENABLE $end
$var parameter 32 c" ID_WIDTH $end
$var parameter 32 d" KEEP_ENABLE $end
$var parameter 32 e" KEEP_WIDTH $end
$var parameter 32 f" LAST_ENABLE $end
$var parameter 32 g" REG_TYPE $end
$var parameter 32 h" USER_ENABLE $end
$var parameter 32 i" USER_WIDTH $end
$scope begin genblk1 $end
$var wire 1 j" s_axis_tready_early $end
$var reg 16 k" m_axis_tdata_reg [15:0] $end
$var reg 1 l" m_axis_tdest_reg $end
$var reg 1 m" m_axis_tid_reg $end
$var reg 1 n" m_axis_tkeep_reg $end
$var reg 1 m m_axis_tlast_reg $end
$var reg 1 o" m_axis_tuser_reg $end
$var reg 1 p" m_axis_tvalid_next $end
$var reg 1 q" m_axis_tvalid_reg $end
$var reg 1 ] s_axis_tready_reg $end
$var reg 1 r" store_axis_input_to_output $end
$var reg 1 s" store_axis_input_to_temp $end
$var reg 1 t" store_axis_temp_to_output $end
$var reg 16 u" temp_m_axis_tdata_reg [15:0] $end
$var reg 1 v" temp_m_axis_tdest_reg $end
$var reg 1 w" temp_m_axis_tid_reg $end
$var reg 1 x" temp_m_axis_tkeep_reg $end
$var reg 1 y" temp_m_axis_tlast_reg $end
$var reg 1 z" temp_m_axis_tuser_reg $end
$var reg 1 {" temp_m_axis_tvalid_next $end
$var reg 1 |" temp_m_axis_tvalid_reg $end
$upscope $end
$upscope $end
$scope module axis_register_r_inst $end
$var wire 1 ! clk $end
$var wire 1 }" m_axis_tdest $end
$var wire 1 ~" m_axis_tid $end
$var wire 1 !# m_axis_tkeep $end
$var wire 1 $ m_axis_tready $end
$var wire 1 "# m_axis_tuser $end
$var wire 1 % rst $end
$var wire 16 ## s_axis_tdata [15:0] $end
$var wire 1 $# s_axis_tdest $end
$var wire 1 %# s_axis_tid $end
$var wire 1 &# s_axis_tkeep $end
$var wire 1 O s_axis_tlast $end
$var wire 1 '# s_axis_tuser $end
$var wire 1 P s_axis_tvalid $end
$var wire 1 k s_axis_tready $end
$var wire 1 2 m_axis_tvalid $end
$var wire 1 3 m_axis_tlast $end
$var wire 16 (# m_axis_tdata [15:0] $end
$var parameter 32 )# DATA_WIDTH $end
$var parameter 32 *# DEST_ENABLE $end
$var parameter 32 +# DEST_WIDTH $end
$var parameter 32 ,# ID_ENABLE $end
$var parameter 32 -# ID_WIDTH $end
$var parameter 32 .# KEEP_ENABLE $end
$var parameter 32 /# KEEP_WIDTH $end
$var parameter 32 0# LAST_ENABLE $end
$var parameter 32 1# REG_TYPE $end
$var parameter 32 2# USER_ENABLE $end
$var parameter 32 3# USER_WIDTH $end
$scope begin genblk1 $end
$upscope $end
$upscope $end
$scope module axis_register_t_inst $end
$var wire 1 ! clk $end
$var wire 1 4# m_axis_tdest $end
$var wire 1 5# m_axis_tid $end
$var wire 1 6# m_axis_tkeep $end
$var wire 1 Q m_axis_tready $end
$var wire 1 7# m_axis_tuser $end
$var wire 1 % rst $end
$var wire 16 8# s_axis_tdata [15:0] $end
$var wire 1 9# s_axis_tdest $end
$var wire 1 :# s_axis_tid $end
$var wire 1 ;# s_axis_tkeep $end
$var wire 1 * s_axis_tlast $end
$var wire 1 <# s_axis_tuser $end
$var wire 1 =# s_axis_tvalid $end
$var wire 1 \ s_axis_tready $end
$var wire 1 h m_axis_tvalid $end
$var wire 1 i m_axis_tlast $end
$var wire 16 ># m_axis_tdata [15:0] $end
$var parameter 32 ?# DATA_WIDTH $end
$var parameter 32 @# DEST_ENABLE $end
$var parameter 32 A# DEST_WIDTH $end
$var parameter 32 B# ID_ENABLE $end
$var parameter 32 C# ID_WIDTH $end
$var parameter 32 D# KEEP_ENABLE $end
$var parameter 32 E# KEEP_WIDTH $end
$var parameter 32 F# LAST_ENABLE $end
$var parameter 32 G# REG_TYPE $end
$var parameter 32 H# USER_ENABLE $end
$var parameter 32 I# USER_WIDTH $end
$scope begin genblk1 $end
$var wire 1 J# s_axis_tready_early $end
$var reg 16 K# m_axis_tdata_reg [15:0] $end
$var reg 1 L# m_axis_tdest_reg $end
$var reg 1 M# m_axis_tid_reg $end
$var reg 1 N# m_axis_tkeep_reg $end
$var reg 1 i m_axis_tlast_reg $end
$var reg 1 O# m_axis_tuser_reg $end
$var reg 1 P# m_axis_tvalid_next $end
$var reg 1 Q# m_axis_tvalid_reg $end
$var reg 1 \ s_axis_tready_reg $end
$var reg 1 R# store_axis_input_to_output $end
$var reg 1 S# store_axis_input_to_temp $end
$var reg 1 T# store_axis_temp_to_output $end
$var reg 16 U# temp_m_axis_tdata_reg [15:0] $end
$var reg 1 V# temp_m_axis_tdest_reg $end
$var reg 1 W# temp_m_axis_tid_reg $end
$var reg 1 X# temp_m_axis_tkeep_reg $end
$var reg 1 Y# temp_m_axis_tlast_reg $end
$var reg 1 Z# temp_m_axis_tuser_reg $end
$var reg 1 [# temp_m_axis_tvalid_next $end
$var reg 1 \# temp_m_axis_tvalid_reg $end
$upscope $end
$upscope $end
$scope module control_unit $end
$var wire 1 G acc_res $end
$var wire 1 ]# bypass_adder_int $end
$var wire 1 ! clk $end
$var wire 1 ^# down_axis_open $end
$var wire 1 H drop_u $end
$var wire 1 ; err_unalligned_data $end
$var wire 1 _# err_unalligned_data_int $end
$var wire 1 `# export_rslt_reg_next $end
$var wire 1 u forward_l $end
$var wire 1 t forward_t $end
$var wire 1 I forward_u $end
$var wire 1 s int_axis_b_tready $end
$var wire 1 p int_axis_d_tready $end
$var wire 1 m int_axis_l_tlast $end
$var wire 1 l int_axis_l_tvalid $end
$var wire 1 k int_axis_r_tready $end
$var wire 1 i int_axis_t_tlast $end
$var wire 1 h int_axis_t_tvalid $end
$var wire 1 S int_axis_u_tlast $end
$var wire 1 T int_axis_u_tvalid $end
$var wire 1 a# op0_flag $end
$var wire 1 b# op0_last_flag $end
$var wire 1 c# op1_flag $end
$var wire 1 d# op1_last_flag $end
$var wire 1 e# op_valid $end
$var wire 1 f# partial_sum_last_reg_next $end
$var wire 1 g# rslt_flag $end
$var wire 1 h# rslt_last_flag $end
$var wire 1 % rst $end
$var wire 1 Y store_u $end
$var wire 1 Z store_t $end
$var wire 1 [ store_l $end
$var wire 1 a op_start $end
$var wire 1 i# export_rslt_last_int $end
$var wire 1 v export_rslt_last $end
$var wire 1 j# export_rslt_int $end
$var wire 1 w export_rslt $end
$var wire 1 x drop_t $end
$var wire 1 y drop_l $end
$var wire 1 z bypass_adder $end
$var parameter 3 k# FSM_END $end
$var parameter 3 l# FSM_ERR $end
$var parameter 3 m# FSM_MAC $end
$var parameter 3 n# FSM_ST0 $end
$var parameter 32 o# FSM_STATE_WIDTH $end
$var parameter 3 p# FSM_STRL $end
$var parameter 3 q# FSM_STRT $end
$var parameter 32 r# PE_NUMBER_J $end
$var parameter 32 s# PE_POSITION_J $end
$var reg 1 t# acc_res_reg $end
$var reg 1 u# bypass_adder_reg $end
$var reg 1 y drop_l_reg $end
$var reg 1 x drop_t_reg $end
$var reg 1 v# drop_u_reg $end
$var reg 1 w# err_unalligned_data_reg $end
$var reg 1 x# export_rslt_reg $end
$var reg 1 y# forward_l_reg $end
$var reg 1 z# forward_t_reg $end
$var reg 1 {# forward_u_reg $end
$var reg 3 |# fsm_state [2:0] $end
$var reg 3 }# fsm_state_next [2:0] $end
$var reg 1 ~# op_start_reg $end
$var reg 1 !$ partial_sum_last_reg $end
$var reg 1 [ store_l_reg $end
$var reg 1 Z store_t_reg $end
$var reg 1 "$ store_u_reg $end
$scope begin genblk1 $end
$upscope $end
$scope begin genblk7 $end
$upscope $end
$upscope $end
$upscope $end
$upscope $end
$upscope $end
$enddefinitions $end
$comment Show the parameter values. $end
$dumpall
b0 s#
b11 r#
b10 q#
b1 p#
b11 o#
b0 n#
b11 m#
b100 l#
b101 k#
b1 I#
b0 H#
b10 G#
b1 F#
b1 E#
b0 D#
b1 C#
b0 B#
b1 A#
b0 @#
b10000 ?#
b1 3#
b0 2#
b0 1#
b1 0#
b1 /#
b0 .#
b1 -#
b0 ,#
b1 +#
b0 *#
b10000 )#
b1 i"
b0 h"
b10 g"
b1 f"
b1 e"
b0 d"
b1 c"
b0 b"
b1 a"
b0 `"
b10000 _"
b1 S"
b0 R"
b0 Q"
b1 P"
b1 O"
b0 N"
b1 M"
b0 L"
b1 K"
b0 J"
b100000 I"
b1 >"
b0 ="
b0 <"
b1 ;"
b1 :"
b0 9"
b1 8"
b0 7"
b1 6"
b0 5"
b10000 4"
b0 ("
b0 '"
b11 &"
b1 %"
b100000 $"
b0 #"
b0 ""
b1111 !"
b1101 ~
b100000 }
b10000 |
b10000 {
b0 F
b0 E
b11 D
b1 C
b0 B
b0 A
b1111 @
b1101 ?
b100000 >
b10000 =
b10000 <
$end
#0
$dumpvars
x"$
0!$
x~#
b0 }#
bx |#
x{#
xz#
xy#
xx#
xw#
xv#
xu#
xt#
xj#
xi#
0h#
0g#
0f#
0e#
0d#
0c#
0b#
0a#
x`#
0_#
0^#
1]#
0\#
0[#
0Z#
0Y#
0X#
0W#
0V#
b0 U#
0T#
0S#
0R#
0Q#
0P#
0O#
0N#
0M#
0L#
b0 K#
1J#
b0 >#
0=#
0<#
1;#
0:#
09#
b0 8#
07#
16#
05#
04#
b0 (#
0'#
1&#
0%#
0$#
b0 ##
0"#
1!#
0~"
0}"
0|"
0{"
0z"
0y"
0x"
0w"
0v"
b0 u"
0t"
0s"
0r"
0q"
0p"
0o"
0n"
0m"
0l"
b0 k"
1j"
b0 ^"
0]"
0\"
1["
0Z"
0Y"
b0 X"
0W"
1V"
0U"
0T"
b0 H"
b0 G"
zF"
1E"
0D"
0C"
0B"
1A"
0@"
0?"
b0 3"
02"
11"
00"
0/"
b0 ."
0-"
1,"
0+"
0*"
b0 )"
xz
xy
xx
xw
xv
xu
xt
0s
b0 r
xq
0p
xo
b0 n
0m
0l
0k
b0 j
0i
0h
b0 g
b0 f
b0 e
b0 d
b0 c
b0 b
xa
b0 `
b0 _
b0 ^
0]
0\
x[
xZ
zY
b0 X
b0 W
b0 V
b0 U
0T
zS
bz R
xQ
0P
0O
b0 N
xM
0L
0K
b0 J
zI
zH
0G
x;
b0 :
09
08
b0 7
x6
x5
b0 4
03
02
01
00
0/
0.
0-
b0 ,
0+
0*
b0 )
0(
0'
b0 &
0%
0$
0#
0"
0!
$end
#1000
0;
1a
1t
1u
0Q
0M
06
0q
0v
0i#
05
0o
0w
0`#
1r"
11
1R#
10
0x#
0w#
0t#
0z
0u#
1~#
1{#
1z#
1y#
0v#
0x
0y
1"$
1Z
1[
0j#
b0 |#
1]
1\
1!
#2000
0!
#3000
1N#
1n"
1!
#4000
0!
#5000
1!
#6000
0!
#7000
1!
#8000
0!
#9000
1!
#10000
0!
1%
#11000
1T#
0R#
1t"
0r"
0t
0u
1Q
1M
00
01
0\
0]
1z
1u#
0{#
0z#
0y#
1v#
1x
1y
0"$
0Z
0[
1!
#12000
0!
#13000
1t"
1T#
0n"
0]
0N#
0\
1!
#14000
0!
#15000
1T#
1t"
0\
0]
1!
#16000
0!
#17000
1t"
1T#
0]
0\
1!
#18000
0!
#19000
1T#
1t"
0\
0]
1!
#20000
0!
0%
#21000
1t
1u
0Q
0M
1r"
0t"
11
1R#
0T#
10
0z
0u#
1{#
1z#
1y#
0v#
0x
0y
1"$
1Z
1[
1]
1\
1!
#22000
0!
#23000
1N#
1n"
1!
#24000
0!
#25000
1!
#26000
0!
#27000
1!
#28000
0!
#29000
1!
#30000
0!
#31000
1P#
1R#
1p"
1r"
1=#
1]"
1+
1(
b1000000000000000 )
b1000000000000000 W
b1000000000000000 8#
b1000000000000000 &
b1000000000000000 V
b1000000000000000 X"
1!
#32000
1r"
1p"
1R#
1P#
1M
1Q
x^#
1k
1$
1p
1#
1s
1"
0!
#33000
b11 }#
0]#
12
1P
1e#
18
1L
b1000000000000000000000000000000 _
1r"
1a#
1R#
1c#
b1000000000000000000000000000000 ^
b1000000000000000000000000000000 U
b1000000000000000000000000000000 b
b1000000000000000 d
b1000000000000000 4
b1000000000000000 e
b1000000000000000 (#
b1000000000000000 N
b1000000000000000 ##
b1000000000000000 n
b1000000000000000 ^"
b1000000000000000 k"
1l
1q"
b1000000000000000 c
b1000000000000000 :
b1000000000000000 g
b1000000000000000 3"
b1000000000000000 J
b1000000000000000 ."
b1000000000000000 j
b1000000000000000 >#
b1000000000000000 K#
1h
1Q#
1!
#34000
0!
#35000
b10000000000000000000000000000000 _
b10000000000000000000000000000000 ^
b1000000000000000000000000000000 `
0a
b1000000000000000000000000000000 7
b1000000000000000000000000000000 f
b1000000000000000000000000000000 H"
b1000000000000000000000000000000 r
b1000000000000000000000000000000 G"
b1000000000000000000000000000000 )"
0~#
b11 |#
1!
#36000
0!
#37000
b11000000000000000000000000000000 _
b11000000000000000000000000000000 ^
b10000000000000000000000000000000 `
b10000000000000000000000000000000 7
b10000000000000000000000000000000 f
b10000000000000000000000000000000 H"
b10000000000000000000000000000000 r
b10000000000000000000000000000000 G"
b10000000000000000000000000000000 )"
b1111000000000000 )
b1111000000000000 W
b1111000000000000 8#
1!
#38000
0!
#39000
b11000000000000000000000000000000 `
b11001000000000000000000000000000 _
b0 )
b0 W
b0 8#
b11000000000000000000000000000000 7
b11000000000000000000000000000000 f
b11000000000000000000000000000000 H"
b11000000000000000000000000000000 r
b11000000000000000000000000000000 G"
b11000000000000000000000000000000 )"
b11001000000000000000000000000000 ^
b1000000000000000000000000000 U
b1000000000000000000000000000 b
b1111000000000000 c
b1111000000000000 :
b1111000000000000 g
b1111000000000000 3"
b1111000000000000 J
b1111000000000000 ."
b1111000000000000 j
b1111000000000000 >#
b1111000000000000 K#
1!
#40000
0!
#41000
b11001000000000000000000000000000 `
b11001000000000000000000000000000 ^
b0 U
b0 b
b0 c
b0 :
b0 g
b0 3"
b0 J
b0 ."
b0 j
b0 >#
b0 K#
b11001000000000000000000000000000 7
b11001000000000000000000000000000 f
b11001000000000000000000000000000 H"
b11001000000000000000000000000000 r
b11001000000000000000000000000000 G"
b11001000000000000000000000000000 )"
b1000000000000 )
b1000000000000 W
b1000000000000 8#
1!
#42000
0!
#43000
b11000000000000000000000000000000 _
b1000000000000000 )
b1000000000000000 W
b1000000000000000 8#
b11000000000000000000000000000000 ^
b11111000000000000000000000000000 U
b11111000000000000000000000000000 b
b1000000000000 c
b1000000000000 :
b1000000000000 g
b1000000000000 3"
b1000000000000 J
b1000000000000 ."
b1000000000000 j
b1000000000000 >#
b1000000000000 K#
1!
#44000
0!
#45000
b0 _
b11000000000000000000000000000000 `
b0 ^
b1000000000000000000000000000000 U
b1000000000000000000000000000000 b
b1000000000000000 c
b1000000000000000 :
b1000000000000000 g
b1000000000000000 3"
b1000000000000000 J
b1000000000000000 ."
b1000000000000000 j
b1000000000000000 >#
b1000000000000000 K#
b11000000000000000000000000000000 7
b11000000000000000000000000000000 f
b11000000000000000000000000000000 H"
b11000000000000000000000000000000 r
b11000000000000000000000000000000 G"
b11000000000000000000000000000000 )"
b1111000000000000 &
b1111000000000000 V
b1111000000000000 X"
1!
#46000
0!
#47000
b0 `
b1000000000000000000000000000 _
b1111000000000000 )
b1111000000000000 W
b1111000000000000 8#
b0 7
b0 f
b0 H"
b0 r
b0 G"
b0 )"
b1000000000000000000000000000 ^
b1000000000000000000000000000 U
b1000000000000000000000000000 b
b1111000000000000 d
b1111000000000000 4
b1111000000000000 e
b1111000000000000 (#
b1111000000000000 N
b1111000000000000 ##
b1111000000000000 n
b1111000000000000 ^"
b1111000000000000 k"
1!
#48000
0!
#49000
b1001000000000000000000000000 _
b1000000000000000000000000000 `
b1001000000000000000000000000 ^
b1000000000000000000000000 U
b1000000000000000000000000 b
b1111000000000000 c
b1111000000000000 :
b1111000000000000 g
b1111000000000000 3"
b1111000000000000 J
b1111000000000000 ."
b1111000000000000 j
b1111000000000000 >#
b1111000000000000 K#
b1000000000000000000000000000 7
b1000000000000000000000000000 f
b1000000000000000000000000000 H"
b1000000000000000000000000000 r
b1000000000000000000000000000 G"
b1000000000000000000000000000 )"
b0 )
b0 W
b0 8#
1!
#50000
0!
#51000
b1001000000000000000000000000 `
b1001000000000000000000000000 _
b1000000000000 )
b1000000000000 W
b1000000000000 8#
b1001000000000000000000000000 7
b1001000000000000000000000000 f
b1001000000000000000000000000 H"
b1001000000000000000000000000 r
b1001000000000000000000000000 G"
b1001000000000000000000000000 )"
b1001000000000000000000000000 ^
b0 U
b0 b
b0 c
b0 :
b0 g
b0 3"
b0 J
b0 ."
b0 j
b0 >#
b0 K#
1!
#52000
0!
#53000
b1000000000000000000000000000 _
b1000000000000000000000000000 ^
b11111111000000000000000000000000 U
b11111111000000000000000000000000 b
b1000000000000 c
b1000000000000 :
b1000000000000 g
b1000000000000 3"
b1000000000000 J
b1000000000000 ."
b1000000000000 j
b1000000000000 >#
b1000000000000 K#
b1000000000000000 )
b1000000000000000 W
b1000000000000000 8#
1!
#54000
0!
#55000
b1000000000000000000000000000 `
b10000000000000000000000000000 _
b0 &
b0 V
b0 X"
b1000000000000000000000000000 7
b1000000000000000000000000000 f
b1000000000000000000000000000 H"
b1000000000000000000000000000 r
b1000000000000000000000000000 G"
b1000000000000000000000000000 )"
b10000000000000000000000000000 ^
b1000000000000000000000000000 U
b1000000000000000000000000000 b
b1000000000000000 c
b1000000000000000 :
b1000000000000000 g
b1000000000000000 3"
b1000000000000000 J
b1000000000000000 ."
b1000000000000000 j
b1000000000000000 >#
b1000000000000000 K#
1!
#56000
0!
#57000
b10000000000000000000000000000 `
b10000000000000000000000000000 ^
b0 U
b0 b
b0 d
b0 4
b0 e
b0 (#
b0 N
b0 ##
b0 n
b0 ^"
b0 k"
b10000000000000000000000000000 7
b10000000000000000000000000000 f
b10000000000000000000000000000 H"
b10000000000000000000000000000 r
b10000000000000000000000000000 G"
b10000000000000000000000000000 )"
b1111000000000000 )
b1111000000000000 W
b1111000000000000 8#
1!
#58000
0!
#59000
b0 )
b0 W
b0 8#
b1111000000000000 c
b1111000000000000 :
b1111000000000000 g
b1111000000000000 3"
b1111000000000000 J
b1111000000000000 ."
b1111000000000000 j
b1111000000000000 >#
b1111000000000000 K#
1!
#60000
0!
#61000
b0 c
b0 :
b0 g
b0 3"
b0 J
b0 ."
b0 j
b0 >#
b0 K#
b1000000000000 )
b1000000000000 W
b1000000000000 8#
1!
#62000
0!
#63000
b1000000000000000 )
b1000000000000000 W
b1000000000000000 8#
b1000000000000 c
b1000000000000 :
b1000000000000 g
b1000000000000 3"
b1000000000000 J
b1000000000000 ."
b1000000000000 j
b1000000000000 >#
b1000000000000 K#
1!
#64000
0!
#65000
b1000000000000000 c
b1000000000000000 :
b1000000000000000 g
b1000000000000000 3"
b1000000000000000 J
b1000000000000000 ."
b1000000000000000 j
b1000000000000000 >#
b1000000000000000 K#
b1000000000000 &
b1000000000000 V
b1000000000000 X"
1!
#66000
0!
#67000
b1000000000000000000000000000 _
b1111000000000000 )
b1111000000000000 W
b1111000000000000 8#
b1000000000000000000000000000 ^
b11111000000000000000000000000000 U
b11111000000000000000000000000000 b
b1000000000000 d
b1000000000000 4
b1000000000000 e
b1000000000000 (#
b1000000000000 N
b1000000000000 ##
b1000000000000 n
b1000000000000 ^"
b1000000000000 k"
1!
#68000
0!
#69000
b111000000000000000000000000 _
b1000000000000000000000000000 `
b111000000000000000000000000 ^
b11111111000000000000000000000000 U
b11111111000000000000000000000000 b
b1111000000000000 c
b1111000000000000 :
b1111000000000000 g
b1111000000000000 3"
b1111000000000000 J
b1111000000000000 ."
b1111000000000000 j
b1111000000000000 >#
b1111000000000000 K#
b1000000000000000000000000000 7
b1000000000000000000000000000 f
b1000000000000000000000000000 H"
b1000000000000000000000000000 r
b1000000000000000000000000000 G"
b1000000000000000000000000000 )"
b0 )
b0 W
b0 8#
1!
#70000
0!
#71000
b111000000000000000000000000 `
b111000000000000000000000000 _
b1000000000000 )
b1000000000000 W
b1000000000000 8#
b111000000000000000000000000 7
b111000000000000000000000000 f
b111000000000000000000000000 H"
b111000000000000000000000000 r
b111000000000000000000000000 G"
b111000000000000000000000000 )"
b111000000000000000000000000 ^
b0 U
b0 b
b0 c
b0 :
b0 g
b0 3"
b0 J
b0 ."
b0 j
b0 >#
b0 K#
1!
#72000
0!
