parallelized/vcd/tb_LinearProcessingArray_1_1_1.vcd
$date
	Thu Mar 13 19:21:35 2025
$end
$version
	Icarus Verilog
$end
$timescale
	1ps
$end
$scope module tb_LinearProcessingArray_1_1_1 $end
$scope module uut $end
$var wire 1 ! clk $end
$var wire 1 " m_axis_d_tdest $end
$var wire 1 # m_axis_d_tid $end
$var wire 1 $ m_axis_d_tready $end
$var wire 1 % m_axis_d_tuser $end
$var wire 1 & rst $end
$var wire 16 ' s_axis_l_tdata [15:0] $end
$var wire 1 ( s_axis_l_tdest $end
$var wire 1 ) s_axis_l_tid $end
$var wire 1 * s_axis_l_tlast $end
$var wire 1 + s_axis_l_tuser $end
$var wire 1 , s_axis_l_tvalid $end
$var wire 16 - s_axis_t_tdata [15:0] $end
$var wire 1 . s_axis_t_tdest $end
$var wire 1 / s_axis_t_tid $end
$var wire 1 0 s_axis_t_tlast $end
$var wire 1 1 s_axis_t_tuser $end
$var wire 1 2 s_axis_t_tvalid $end
$var wire 1 3 s_axis_t_tready $end
$var wire 1 4 s_axis_l_tready $end
$var wire 1 5 m_axis_d_tvalid $end
$var wire 1 6 m_axis_d_tlast $end
$var wire 16 7 m_axis_d_tdata [15:0] $end
$var wire 1 8 err_unalligned_data $end
$var wire 1 9 core_rst $end
$var parameter 32 : BATCH_SIZE $end
$var parameter 32 ; DATA_WIDTH_OP0 $end
$var parameter 32 < DATA_WIDTH_OP1 $end
$var parameter 32 = DATA_WIDTH_RSLT $end
$var parameter 32 > DEST_ENABLE $end
$var parameter 32 ? DEST_WIDTH $end
$var parameter 32 @ FRACTIONAL_BITS_OP0 $end
$var parameter 32 A FRACTIONAL_BITS_OP1 $end
$var parameter 32 B FRACTIONAL_BITS_RSLT $end
$var parameter 32 C ID_ENABLE $end
$var parameter 32 D ID_WIDTH $end
$var parameter 32 E INTERNAL_RESET $end
$var parameter 32 F IS_UNSIGNED_OP0 $end
$var parameter 32 G IS_UNSIGNED_OP1 $end
$var parameter 32 H OUTPUT_DEST $end
$var parameter 32 I OUTPUT_ID $end
$var parameter 32 J PE_NUMBER_I $end
$var parameter 32 K PE_NUMBER_J $end
$var parameter 32 L USER_ENABLE $end
$var parameter 32 M USER_WIDTH $end
$scope module wrapper $end
$var wire 1 ! clk $end
$var wire 1 9 core_rst $end
$var wire 2 N int_axis_lr_handshake [0:1] $end
$var wire 2 O int_axis_tb_handshake [0:1] $end
$var wire 2 P int_axis_ud_handshake [0:1] $end
$var wire 1 " m_axis_d_tdest $end
$var wire 1 # m_axis_d_tid $end
$var wire 1 $ m_axis_d_tready $end
$var wire 1 % m_axis_d_tuser $end
$var wire 1 & rst $end
$var wire 16 Q s_axis_l_tdata [15:0] $end
$var wire 1 ( s_axis_l_tdest $end
$var wire 1 ) s_axis_l_tid $end
$var wire 1 * s_axis_l_tlast $end
$var wire 1 + s_axis_l_tuser $end
$var wire 1 , s_axis_l_tvalid $end
$var wire 16 R s_axis_t_tdata [15:0] $end
$var wire 1 . s_axis_t_tdest $end
$var wire 1 / s_axis_t_tid $end
$var wire 1 0 s_axis_t_tlast $end
$var wire 1 1 s_axis_t_tuser $end
$var wire 1 2 s_axis_t_tvalid $end
$var wire 1 3 s_axis_t_tready $end
$var wire 1 4 s_axis_l_tready $end
$var wire 1 S rst_int $end
$var wire 1 5 m_axis_d_tvalid $end
$var wire 1 6 m_axis_d_tlast $end
$var wire 16 T m_axis_d_tdata [15:0] $end
$var wire 2 U int_axis_ud_tvalid [0:1] $end
$var wire 2 V int_axis_ud_tready [0:1] $end
$var wire 2 W int_axis_ud_tlast [0:1] $end
$var wire 2 X int_axis_tb_tvalid [0:1] $end
$var wire 2 Y int_axis_tb_tready [0:1] $end
$var wire 2 Z int_axis_tb_tlast [0:1] $end
$var wire 2 [ int_axis_lr_tvalid [0:1] $end
$var wire 2 \ int_axis_lr_tready [0:1] $end
$var wire 2 ] int_axis_lr_tlast [0:1] $end
$var wire 1 ^ err_unalligned_data_int $end
$var wire 1 8 err_unalligned_data $end
$var parameter 32 _ BATCH_SIZE $end
$var parameter 32 ` DATA_WIDTH_OP0 $end
$var parameter 32 a DATA_WIDTH_OP1 $end
$var parameter 35 b DATA_WIDTH_PSUM $end
$var parameter 32 c DATA_WIDTH_RSLT $end
$var parameter 32 d DEST_ENABLE $end
$var parameter 32 e DEST_WIDTH $end
$var parameter 32 f FRACTIONAL_BITS_OP0 $end
$var parameter 32 g FRACTIONAL_BITS_OP1 $end
$var parameter 32 h FRACTIONAL_BITS_RSLT $end
$var parameter 32 i ID_ENABLE $end
$var parameter 32 j ID_WIDTH $end
$var parameter 32 k INTERNAL_RESET $end
$var parameter 32 l IS_UNSIGNED_OP0 $end
$var parameter 32 m IS_UNSIGNED_OP1 $end
$var parameter 34 n MAC_RSLT_LSB $end
$var parameter 36 o MAC_RSLT_MSB $end
$var parameter 35 p MLT_OP_SIZE $end
$var parameter 32 q OUTPUT_DEST $end
$var parameter 32 r OUTPUT_ID $end
$var parameter 32 s PE_NUMBER_I $end
$var parameter 32 t PE_NUMBER_J $end
$var parameter 32 u USER_ENABLE $end
$var parameter 32 v USER_WIDTH $end
$var reg 4 w rst_pipeline [3:0] $end
$scope begin genblk1[0] $end
$var parameter 2 x batch $end
$scope begin genblk1[0] $end
$var parameter 2 y pe_pos_j $end
$scope begin genblk1[0] $end
$var parameter 32 z NODE_B $end
$var parameter 32 { NODE_D $end
$var parameter 32 | NODE_L $end
$var parameter 32 } NODE_R $end
$var parameter 32 ~ NODE_T $end
$var parameter 32 !" NODE_U $end
$var parameter 32 "" PE_POSITION_I $end
$var parameter 32 #" PE_POSITION_J $end
$var parameter 32 $" UID $end
$var parameter 2 %" pe_pos_i $end
$scope begin genblk1 $end
$var parameter 32 &" LFT_POS $end
$var parameter 32 '" LSB $end
$var parameter 32 (" MSB $end
$upscope $end
$scope begin genblk2 $end
$upscope $end
$scope begin genblk3 $end
$var parameter 32 )" LSB $end
$var parameter 32 *" MSB $end
$var parameter 32 +" TOP_POS $end
$upscope $end
$scope begin genblk4 $end
$upscope $end
$scope begin genblk5 $end
$upscope $end
$scope begin genblk6 $end
$var parameter 32 ," DWN_POS $end
$var parameter 32 -" LSB $end
$var parameter 32 ." MSB $end
$upscope $end
$scope module LPE_ijk $end
$var wire 1 /" acc_res $end
$var wire 1 ! clk $end
$var wire 1 0" drop_u $end
$var wire 1 1" forward_u $end
$var wire 16 2" int_axis_b_tdata [15:0] $end
$var wire 1 3" int_axis_b_tlast $end
$var wire 1 4" int_axis_b_tvalid $end
$var wire 1 5" int_axis_l_tready $end
$var wire 16 6" int_axis_r_tdata [15:0] $end
$var wire 1 7" int_axis_r_tlast $end
$var wire 1 8" int_axis_r_tvalid $end
$var wire 1 9" int_axis_t_tready $end
$var wire 32 :" int_axis_u_tdata [31:0] $end
$var wire 1 ;" int_axis_u_tlast $end
$var wire 1 <" int_axis_u_tvalid $end
$var wire 1 =" m_axis_b_tready $end
$var wire 1 >" m_axis_d_tready $end
$var wire 1 ?" m_axis_r_tready $end
$var wire 32 @" partial_sum_acc [31:0] $end
$var wire 1 S rst $end
$var wire 1 A" s_axis_l_tlast $end
$var wire 1 B" s_axis_l_tready $end
$var wire 1 C" s_axis_l_tvalid $end
$var wire 1 D" s_axis_t_tlast $end
$var wire 1 E" s_axis_t_tready $end
$var wire 1 F" s_axis_t_tvalid $end
$var wire 32 G" s_axis_u_tdata [31:0] $end
$var wire 1 H" s_axis_u_tlast $end
$var wire 1 I" s_axis_u_tready $end
$var wire 1 J" s_axis_u_tvalid $end
$var wire 1 K" store_u $end
$var wire 1 L" store_t $end
$var wire 1 M" store_l $end
$var wire 1 N" s_axis_t_tready_int $end
$var wire 16 O" s_axis_t_tdata [15:0] $end
$var wire 1 P" s_axis_l_tready_int $end
$var wire 16 Q" s_axis_l_tdata [15:0] $end
$var wire 32 R" partial_sum_rslt [31:0] $end
$var wire 32 S" partial_sum_reg_next [31:0] $end
$var wire 32 T" partial_sum_fb [31:0] $end
$var wire 1 U" op_start $end
$var wire 32 V" mult_res [31:0] $end
$var wire 16 W" mult_op1 [15:0] $end
$var wire 16 X" mult_op0 [15:0] $end
$var wire 1 Y" m_axis_r_tvalid $end
$var wire 1 Z" m_axis_r_tlast $end
$var wire 16 [" m_axis_r_tdata [15:0] $end
$var wire 1 \" m_axis_d_tvalid $end
$var wire 1 ]" m_axis_d_tlast $end
$var wire 32 ^" m_axis_d_tdata [31:0] $end
$var wire 1 _" m_axis_b_tvalid $end
$var wire 1 `" m_axis_b_tlast $end
$var wire 16 a" m_axis_b_tdata [15:0] $end
$var wire 1 b" int_axis_t_tvalid $end
$var wire 1 c" int_axis_t_tlast $end
$var wire 16 d" int_axis_t_tdata [15:0] $end
$var wire 1 e" int_axis_r_tready $end
$var wire 1 f" int_axis_l_tvalid $end
$var wire 1 g" int_axis_l_tlast $end
$var wire 16 h" int_axis_l_tdata [15:0] $end
$var wire 1 i" int_axis_d_tvalid $end
$var wire 1 j" int_axis_d_tready $end
$var wire 1 k" int_axis_d_tlast $end
$var wire 32 l" int_axis_d_tdata [31:0] $end
$var wire 1 m" int_axis_b_tready $end
$var wire 1 n" forward_t $end
$var wire 1 o" forward_l $end
$var wire 1 p" export_rslt_last $end
$var wire 1 q" export_rslt $end
$var wire 1 ^ err_unalligned_data $end
$var wire 1 r" drop_t $end
$var wire 1 s" drop_l $end
$var wire 1 t" bypass_adder $end
$var parameter 32 u" DATA_WIDTH_OP0 $end
$var parameter 32 v" DATA_WIDTH_OP1 $end
$var parameter 35 w" DATA_WIDTH_PSUM $end
$var parameter 32 x" FRACTIONAL_BITS_OP0 $end
$var parameter 32 y" FRACTIONAL_BITS_OP1 $end
$var parameter 32 z" IS_UNSIGNED_OP0 $end
$var parameter 32 {" IS_UNSIGNED_OP1 $end
$var parameter 35 |" MLT_OP_SIZE $end
$var parameter 32 }" PE_NUMBER_I $end
$var parameter 32 ~" PE_NUMBER_J $end
$var parameter 32 !# PE_POSITION_I $end
$var parameter 32 "# PE_POSITION_J $end
$var reg 32 ## partial_sum_reg [31:0] $end
$scope begin genblk1 $end
$upscope $end
$scope begin genblk2 $end
$upscope $end
$scope module axis_register_b_inst $end
$var wire 1 ! clk $end
$var wire 1 $# m_axis_tdest $end
$var wire 1 %# m_axis_tid $end
$var wire 1 &# m_axis_tkeep $end
$var wire 1 =" m_axis_tready $end
$var wire 1 '# m_axis_tuser $end
$var wire 1 S rst $end
$var wire 16 (# s_axis_tdata [15:0] $end
$var wire 1 )# s_axis_tdest $end
$var wire 1 *# s_axis_tid $end
$var wire 1 +# s_axis_tkeep $end
$var wire 1 3" s_axis_tlast $end
$var wire 1 ,# s_axis_tuser $end
$var wire 1 4" s_axis_tvalid $end
$var wire 1 m" s_axis_tready $end
$var wire 1 _" m_axis_tvalid $end
$var wire 1 `" m_axis_tlast $end
$var wire 16 -# m_axis_tdata [15:0] $end
$var parameter 32 .# DATA_WIDTH $end
$var parameter 32 /# DEST_ENABLE $end
$var parameter 32 0# DEST_WIDTH $end
$var parameter 32 1# ID_ENABLE $end
$var parameter 32 2# ID_WIDTH $end
$var parameter 32 3# KEEP_ENABLE $end
$var parameter 32 4# KEEP_WIDTH $end
$var parameter 32 5# LAST_ENABLE $end
$var parameter 32 6# REG_TYPE $end
$var parameter 32 7# USER_ENABLE $end
$var parameter 32 8# USER_WIDTH $end
$scope begin genblk1 $end
$upscope $end
$upscope $end
$scope module axis_register_d_inst $end
$var wire 1 ! clk $end
$var wire 1 9# m_axis_tdest $end
$var wire 1 :# m_axis_tid $end
$var wire 1 ;# m_axis_tkeep $end
$var wire 1 >" m_axis_tready $end
$var wire 1 <# m_axis_tuser $end
$var wire 1 S rst $end
$var wire 1 =# s_axis_tdest $end
$var wire 1 ># s_axis_tid $end
$var wire 1 ?# s_axis_tkeep $end
$var wire 1 @# s_axis_tuser $end
$var wire 1 i" s_axis_tvalid $end
$var wire 1 j" s_axis_tready $end
$var wire 1 k" s_axis_tlast $end
$var wire 32 A# s_axis_tdata [31:0] $end
$var wire 1 \" m_axis_tvalid $end
$var wire 1 ]" m_axis_tlast $end
$var wire 32 B# m_axis_tdata [31:0] $end
$var parameter 35 C# DATA_WIDTH $end
$var parameter 32 D# DEST_ENABLE $end
$var parameter 32 E# DEST_WIDTH $end
$var parameter 32 F# ID_ENABLE $end
$var parameter 32 G# ID_WIDTH $end
$var parameter 32 H# KEEP_ENABLE $end
$var parameter 32 I# KEEP_WIDTH $end
$var parameter 32 J# LAST_ENABLE $end
$var parameter 32 K# REG_TYPE $end
$var parameter 32 L# USER_ENABLE $end
$var parameter 32 M# USER_WIDTH $end
$scope begin genblk1 $end
$upscope $end
$upscope $end
$scope module axis_register_l_inst $end
$var wire 1 ! clk $end
$var wire 1 N# m_axis_tdest $end
$var wire 1 O# m_axis_tid $end
$var wire 1 P# m_axis_tkeep $end
$var wire 1 5" m_axis_tready $end
$var wire 1 Q# m_axis_tuser $end
$var wire 1 S rst $end
$var wire 1 R# s_axis_tdest $end
$var wire 1 S# s_axis_tid $end
$var wire 1 T# s_axis_tkeep $end
$var wire 1 A" s_axis_tlast $end
$var wire 1 U# s_axis_tuser $end
$var wire 1 V# s_axis_tvalid $end
$var wire 1 P" s_axis_tready $end
$var wire 16 W# s_axis_tdata [15:0] $end
$var wire 1 f" m_axis_tvalid $end
$var wire 1 g" m_axis_tlast $end
$var wire 16 X# m_axis_tdata [15:0] $end
$var parameter 32 Y# DATA_WIDTH $end
$var parameter 32 Z# DEST_ENABLE $end
$var parameter 32 [# DEST_WIDTH $end
$var parameter 32 \# ID_ENABLE $end
$var parameter 32 ]# ID_WIDTH $end
$var parameter 32 ^# KEEP_ENABLE $end
$var parameter 32 _# KEEP_WIDTH $end
$var parameter 32 `# LAST_ENABLE $end
$var parameter 32 a# REG_TYPE $end
$var parameter 32 b# USER_ENABLE $end
$var parameter 32 c# USER_WIDTH $end
$scope begin genblk1 $end
$var wire 1 d# s_axis_tready_early $end
$var reg 16 e# m_axis_tdata_reg [15:0] $end
$var reg 1 f# m_axis_tdest_reg $end
$var reg 1 g# m_axis_tid_reg $end
$var reg 1 h# m_axis_tkeep_reg $end
$var reg 1 g" m_axis_tlast_reg $end
$var reg 1 i# m_axis_tuser_reg $end
$var reg 1 j# m_axis_tvalid_next $end
$var reg 1 k# m_axis_tvalid_reg $end
$var reg 1 P" s_axis_tready_reg $end
$var reg 1 l# store_axis_input_to_output $end
$var reg 1 m# store_axis_input_to_temp $end
$var reg 1 n# store_axis_temp_to_output $end
$var reg 16 o# temp_m_axis_tdata_reg [15:0] $end
$var reg 1 p# temp_m_axis_tdest_reg $end
$var reg 1 q# temp_m_axis_tid_reg $end
$var reg 1 r# temp_m_axis_tkeep_reg $end
$var reg 1 s# temp_m_axis_tlast_reg $end
$var reg 1 t# temp_m_axis_tuser_reg $end
$var reg 1 u# temp_m_axis_tvalid_next $end
$var reg 1 v# temp_m_axis_tvalid_reg $end
$upscope $end
$upscope $end
$scope module axis_register_r_inst $end
$var wire 1 ! clk $end
$var wire 1 w# m_axis_tdest $end
$var wire 1 x# m_axis_tid $end
$var wire 1 y# m_axis_tkeep $end
$var wire 1 ?" m_axis_tready $end
$var wire 1 z# m_axis_tuser $end
$var wire 1 S rst $end
$var wire 16 {# s_axis_tdata [15:0] $end
$var wire 1 |# s_axis_tdest $end
$var wire 1 }# s_axis_tid $end
$var wire 1 ~# s_axis_tkeep $end
$var wire 1 7" s_axis_tlast $end
$var wire 1 !$ s_axis_tuser $end
$var wire 1 8" s_axis_tvalid $end
$var wire 1 e" s_axis_tready $end
$var wire 1 Y" m_axis_tvalid $end
$var wire 1 Z" m_axis_tlast $end
$var wire 16 "$ m_axis_tdata [15:0] $end
$var parameter 32 #$ DATA_WIDTH $end
$var parameter 32 $$ DEST_ENABLE $end
$var parameter 32 %$ DEST_WIDTH $end
$var parameter 32 &$ ID_ENABLE $end
$var parameter 32 '$ ID_WIDTH $end
$var parameter 32 ($ KEEP_ENABLE $end
$var parameter 32 )$ KEEP_WIDTH $end
$var parameter 32 *$ LAST_ENABLE $end
$var parameter 32 +$ REG_TYPE $end
$var parameter 32 ,$ USER_ENABLE $end
$var parameter 32 -$ USER_WIDTH $end
$scope begin genblk1 $end
$upscope $end
$upscope $end
$scope module axis_register_t_inst $end
$var wire 1 ! clk $end
$var wire 1 .$ m_axis_tdest $end
$var wire 1 /$ m_axis_tid $end
$var wire 1 0$ m_axis_tkeep $end
$var wire 1 9" m_axis_tready $end
$var wire 1 1$ m_axis_tuser $end
$var wire 1 S rst $end
$var wire 1 2$ s_axis_tdest $end
$var wire 1 3$ s_axis_tid $end
$var wire 1 4$ s_axis_tkeep $end
$var wire 1 D" s_axis_tlast $end
$var wire 1 5$ s_axis_tuser $end
$var wire 1 6$ s_axis_tvalid $end
$var wire 1 N" s_axis_tready $end
$var wire 16 7$ s_axis_tdata [15:0] $end
$var wire 1 b" m_axis_tvalid $end
$var wire 1 c" m_axis_tlast $end
$var wire 16 8$ m_axis_tdata [15:0] $end
$var parameter 32 9$ DATA_WIDTH $end
$var parameter 32 :$ DEST_ENABLE $end
$var parameter 32 ;$ DEST_WIDTH $end
$var parameter 32 <$ ID_ENABLE $end
$var parameter 32 =$ ID_WIDTH $end
$var parameter 32 >$ KEEP_ENABLE $end
$var parameter 32 ?$ KEEP_WIDTH $end
$var parameter 32 @$ LAST_ENABLE $end
$var parameter 32 A$ REG_TYPE $end
$var parameter 32 B$ USER_ENABLE $end
$var parameter 32 C$ USER_WIDTH $end
$scope begin genblk1 $end
$var wire 1 D$ s_axis_tready_early $end
$var reg 16 E$ m_axis_tdata_reg [15:0] $end
$var reg 1 F$ m_axis_tdest_reg $end
$var reg 1 G$ m_axis_tid_reg $end
$var reg 1 H$ m_axis_tkeep_reg $end
$var reg 1 c" m_axis_tlast_reg $end
$var reg 1 I$ m_axis_tuser_reg $end
$var reg 1 J$ m_axis_tvalid_next $end
$var reg 1 K$ m_axis_tvalid_reg $end
$var reg 1 N" s_axis_tready_reg $end
$var reg 1 L$ store_axis_input_to_output $end
$var reg 1 M$ store_axis_input_to_temp $end
$var reg 1 N$ store_axis_temp_to_output $end
$var reg 16 O$ temp_m_axis_tdata_reg [15:0] $end
$var reg 1 P$ temp_m_axis_tdest_reg $end
$var reg 1 Q$ temp_m_axis_tid_reg $end
$var reg 1 R$ temp_m_axis_tkeep_reg $end
$var reg 1 S$ temp_m_axis_tlast_reg $end
$var reg 1 T$ temp_m_axis_tuser_reg $end
$var reg 1 U$ temp_m_axis_tvalid_next $end
$var reg 1 V$ temp_m_axis_tvalid_reg $end
$upscope $end
$upscope $end
$scope module control_unit $end
$var wire 1 /" acc_res $end
$var wire 1 ! clk $end
$var wire 1 W$ down_axis_open $end
$var wire 1 0" drop_u $end
$var wire 1 ^ err_unalligned_data $end
$var wire 1 X$ err_unalligned_data_int $end
$var wire 1 Y$ export_rslt_reg_next $end
$var wire 1 1" forward_u $end
$var wire 1 m" int_axis_b_tready $end
$var wire 1 j" int_axis_d_tready $end
$var wire 1 g" int_axis_l_tlast $end
$var wire 1 f" int_axis_l_tvalid $end
$var wire 1 e" int_axis_r_tready $end
$var wire 1 c" int_axis_t_tlast $end
$var wire 1 b" int_axis_t_tvalid $end
$var wire 1 ;" int_axis_u_tlast $end
$var wire 1 <" int_axis_u_tvalid $end
$var wire 1 Z$ op0_flag $end
$var wire 1 [$ op0_last_flag $end
$var wire 1 \$ op1_flag $end
$var wire 1 ]$ op1_last_flag $end
$var wire 1 ^$ op_valid $end
$var wire 1 _$ partial_sum_last_reg_next $end
$var wire 1 `$ rslt_flag $end
$var wire 1 a$ rslt_last_flag $end
$var wire 1 S rst $end
$var wire 1 K" store_u $end
$var wire 1 L" store_t $end
$var wire 1 M" store_l $end
$var wire 1 U" op_start $end
$var wire 1 n" forward_t $end
$var wire 1 o" forward_l $end
$var wire 1 b$ export_rslt_last_int $end
$var wire 1 p" export_rslt_last $end
$var wire 1 c$ export_rslt_int $end
$var wire 1 q" export_rslt $end
$var wire 1 r" drop_t $end
$var wire 1 s" drop_l $end
$var wire 1 t" bypass_adder $end
$var parameter 3 d$ FSM_END $end
$var parameter 3 e$ FSM_ERR $end
$var parameter 3 f$ FSM_MAC $end
$var parameter 3 g$ FSM_ST0 $end
$var parameter 32 h$ FSM_STATE_WIDTH $end
$var parameter 3 i$ FSM_STRL $end
$var parameter 3 j$ FSM_STRT $end
$var parameter 32 k$ PE_NUMBER_J $end
$var parameter 32 l$ PE_POSITION_J $end
$var reg 1 m$ acc_res_reg $end
$var reg 1 t" bypass_adder_reg $end
$var reg 1 s" drop_l_reg $end
$var reg 1 r" drop_t_reg $end
$var reg 1 n$ drop_u_reg $end
$var reg 1 o$ err_unalligned_data_reg $end
$var reg 1 p$ export_rslt_reg $end
$var reg 1 o" forward_l_reg $end
$var reg 1 n" forward_t_reg $end
$var reg 1 q$ forward_u_reg $end
$var reg 3 r$ fsm_state [2:0] $end
$var reg 3 s$ fsm_state_next [2:0] $end
$var reg 1 t$ op_start_reg $end
$var reg 1 M" store_l_reg $end
$var reg 1 L" store_t_reg $end
$var reg 1 u$ store_u_reg $end
$scope begin genblk1 $end
$upscope $end
$scope begin genblk6 $end
$upscope $end
$upscope $end
$upscope $end
$upscope $end
$upscope $end
$upscope $end
$upscope $end
$upscope $end
$upscope $end
$enddefinitions $end
$comment Show the parameter values. $end
$dumpall
b0 l$
b1 k$
b10 j$
b1 i$
b11 h$
b0 g$
b11 f$
b100 e$
b101 d$
b1 C$
b0 B$
b10 A$
b1 @$
b1 ?$
b0 >$
b1 =$
b0 <$
b1 ;$
b0 :$
b10000 9$
b1 -$
b0 ,$
b0 +$
b1 *$
b1 )$
b0 ($
b1 '$
b0 &$
b1 %$
b0 $$
b10000 #$
b1 c#
b0 b#
b10 a#
b1 `#
b1 _#
b0 ^#
b1 ]#
b0 \#
b1 [#
b0 Z#
b10000 Y#
b1 M#
b0 L#
b0 K#
b1 J#
b1 I#
b0 H#
b1 G#
b0 F#
b1 E#
b0 D#
b100000 C#
b1 8#
b0 7#
b0 6#
b1 5#
b1 4#
b0 3#
b1 2#
b0 1#
b1 0#
b0 /#
b10000 .#
b0 "#
b0 !#
b1 ~"
b1 }"
b100000 |"
b0 {"
b0 z"
b1100 y"
b1100 x"
b100000 w"
b10000 v"
b10000 u"
b1111 ."
b0 -"
b0 ,"
b0 +"
b1111 *"
b0 )"
b1111 ("
b0 '"
b0 &"
b0 %"
b0 $"
b0 #"
b0 ""
b0 !"
b0 ~
b1 }
b0 |
b1 {
b1 z
b0 y
b0 x
b1 v
b0 u
b1 t
b1 s
b1 r
b0 q
b100000 p
b11011 o
b1100 n
b0 m
b0 l
b1 k
b1 j
b0 i
b1100 h
b1100 g
b1100 f
b1 e
b0 d
b10000 c
b100000 b
b10000 a
b10000 `
b1 _
b1 M
b0 L
b1 K
b1 J
b1 I
b0 H
b0 G
b0 F
b1 E
b1 D
b0 C
b1100 B
b1100 A
b1100 @
b1 ?
b0 >
b10000 =
b10000 <
b10000 ;
b1 :
$end
#0
$dumpvars
xu$
xt$
b0 s$
bx r$
0q$
xp$
xo$
xn$
xm$
xc$
xb$
0a$
0`$
0_$
0^$
0]$
0\$
0[$
0Z$
xY$
0X$
0W$
0V$
0U$
0T$
0S$
0R$
0Q$
0P$
b0 O$
1N$
0M$
0L$
0K$
0J$
0I$
0H$
0G$
0F$
b0 E$
1D$
b0 8$
b0 7$
06$
05$
14$
03$
02$
01$
10$
0/$
0.$
b0 "$
0!$
1~#
0}#
0|#
b0 {#
0z#
1y#
0x#
0w#
0v#
0u#
0t#
0s#
0r#
0q#
0p#
b0 o#
1n#
0m#
0l#
0k#
0j#
0i#
0h#
0g#
0f#
b0 e#
1d#
b0 X#
b0 W#
0V#
0U#
1T#
0S#
0R#
0Q#
1P#
0O#
0N#
b0 B#
b0 A#
0@#
1?#
0>#
0=#
0<#
1;#
0:#
09#
b0 -#
0,#
1+#
0*#
0)#
b0 (#
0'#
1&#
0%#
0$#
b0 ##
1t"
xs"
xr"
xq"
xp"
1o"
1n"
1m"
b0 l"
xk"
0j"
xi"
b0 h"
0g"
0f"
1e"
b0 d"
0c"
0b"
b0 a"
0`"
0_"
b0 ^"
x]"
x\"
b0 ["
0Z"
0Y"
b0 X"
b0 W"
b0 V"
xU"
b0 T"
b0 S"
b0 R"
b0 Q"
0P"
b0 O"
0N"
xM"
xL"
zK"
zJ"
0I"
zH"
bz G"
0F"
0E"
0D"
0C"
0B"
0A"
b0 @"
1?"
0>"
1="
0<"
z;"
bz :"
19"
08"
07"
b0 6"
15"
04"
03"
b0 2"
z1"
z0"
0/"
bx w
x^
b0 ]
b1 \
b0 [
b0 Z
b1 Y
b0 X
bzx W
b0 V
bzx U
b0 T
xS
b0 R
b0 Q
b0 P
b0 O
b0 N
x9
x8
b0 7
x6
x5
04
03
02
x1
00
x/
x.
b0 -
0,
x+
0*
x)
x(
b0 '
0&
z%
0$
z#
z"
0!
$end
#1000
bx0 w
06
05
14
13
08
0^
1U"
bz0 W
0]"
0k"
0p"
0b$
bz0 U
0\"
0i"
0q"
0Y$
1l#
0n#
b11 \
1B"
1L$
0N$
b11 Y
1E"
0p$
0o$
0m$
1t$
0n$
0r"
0s"
1u$
1L"
1M"
0c$
b0 r$
1P"
1N"
1!
#2000
0!
#3000
bx00 w
1H$
1h#
1!
#4000
0!
#5000
bx000 w
1!
#6000
0!
#7000
09
0S
b0 w
1!
#8000
0!
#9000
1!
#10000
b1 w
0!
1&
#11000
19
1S
b1011 w
1!
#12000
0!
#13000
04
03
1n#
0l#
b1 \
0B"
1N$
0L$
b1 Y
0E"
0n"
0o"
1n$
1r"
1s"
0u$
0L"
0M"
0P"
0N"
b1111 w
1!
#14000
0!
#15000
1N$
1n#
0H$
0N"
0h#
0P"
1!
#16000
0!
#17000
1n#
1N$
0P"
0N"
1!
#18000
0!
#19000
1N$
1n#
0N"
0P"
1!
#20000
b1110 w
0!
0&
#21000
1n#
1N$
0P"
0N"
b1100 w
1!
#22000
0!
#23000
1N$
1n#
b1000 w
0N"
0P"
1!
#24000
0!
#25000
1n#
1N$
09
0S
0P"
0N"
b0 w
1!
#26000
0!
#27000
13
14
1L$
0N$
1l#
0n#
09"
05"
b11 Y
1E"
b11 \
1B"
1N"
1P"
0n$
0r"
0s"
1u$
1L"
1M"
1!
#28000
0!
#29000
1h#
1H$
1!
#30000
0!
#31000
1!
#32000
1L$
1l#
19"
15"
1n"
1o"
xW$
1j"
1>"
b1 V
1$
0!
#33000
1j#
1l#
1J$
1L$
1V#
16$
1C"
b10 N
1F"
b10 O
b10 [
1,
b10 X
12
1!
#34000
b1110000000000000 O"
b1110000000000000 7$
b1110000000000000 -
b1110000000000000 R
b1110000000000000 Q"
b1110000000000000 W#
b1110000000000000 '
b1110000000000000 Q
0!
#35000
b100000000000000000000000000 S"
0t"
b11 s$
b11 O
b11 N
b11 X
1_"
14"
1^$
b11 [
1Y"
18"
1L$
1\$
1l#
1Z$
b100000000000000000000000000 R"
b100000000000000000000000000 @"
b100000000000000000000000000 V"
b1110000000000000 W"
b1110000000000000 a"
b1110000000000000 -#
b1110000000000000 2"
b1110000000000000 (#
b1110000000000000 d"
b1110000000000000 8$
b1110000000000000 E$
1b"
1K$
b1110000000000000 X"
b1110000000000000 ["
b1110000000000000 "$
b1110000000000000 6"
b1110000000000000 {#
b1110000000000000 h"
b1110000000000000 X#
b1110000000000000 e#
1f"
1k#
1!
#36000
b1111100000000000 O"
b1111100000000000 7$
b1111100000000000 -
b1111100000000000 R
b1111100000000000 Q"
b1111100000000000 W#
b1111100000000000 '
b1111100000000000 Q
0!
#37000
b100000000000000000000000000 T"
0U"
b100010000000000000000000000 S"
b100000000000000 7
b100000000000000 T
0t$
b11 r$
b1111100000000000 X"
b1111100000000000 ["
b1111100000000000 "$
b1111100000000000 6"
b1111100000000000 {#
b1111100000000000 h"
b1111100000000000 X#
b1111100000000000 e#
b100010000000000000000000000 R"
b10000000000000000000000 @"
b10000000000000000000000 V"
b1111100000000000 W"
b1111100000000000 a"
b1111100000000000 -#
b1111100000000000 2"
b1111100000000000 (#
b1111100000000000 d"
b1111100000000000 8$
b1111100000000000 E$
b100000000000000000000000000 ^"
b100000000000000000000000000 B#
b100000000000000000000000000 l"
b100000000000000000000000000 A#
b100000000000000000000000000 ##
1!
#38000
b0 O"
b0 7$
b0 -
b0 R
b0 Q"
b0 W#
b0 '
b0 Q
0!
#39000
b100010000000000000000000000 T"
b100010000000000 7
b100010000000000 T
b100010000000000000000000000 S"
b100010000000000000000000000 ^"
b100010000000000000000000000 B#
b100010000000000000000000000 l"
b100010000000000000000000000 A#
b100010000000000000000000000 ##
b0 W"
b0 a"
b0 -#
b0 2"
b0 (#
b0 d"
b0 8$
b0 E$
b100010000000000000000000000 R"
b0 @"
b0 V"
b0 X"
b0 ["
b0 "$
b0 6"
b0 {#
b0 h"
b0 X#
b0 e#
1!
#40000
b100000000000 O"
b100000000000 7$
b100000000000 -
b100000000000 R
b100000000000 Q"
b100000000000 W#
b100000000000 '
b100000000000 Q
0!
#41000
b100100000000000000000000000 S"
b100100000000000000000000000 R"
b10000000000000000000000 @"
b10000000000000000000000 V"
b100000000000 X"
b100000000000 ["
b100000000000 "$
b100000000000 6"
b100000000000 {#
b100000000000 h"
b100000000000 X#
b100000000000 e#
b100000000000 W"
b100000000000 a"
b100000000000 -#
b100000000000 2"
b100000000000 (#
b100000000000 d"
b100000000000 8$
b100000000000 E$
1!
