vcd/tb_AXISSplitter.vcd
$date
	Fri Sep 27 12:55:42 2024
$end
$version
	Icarus Verilog
$end
$timescale
	1ps
$end
$scope module tb_AXISSplitter $end
$scope module uut $end
$var wire 1 ! clk $end
$var wire 4 " m_axis_0_tready [3:0] $end
$var wire 1 # rst $end
$var wire 64 $ s_axis_0_tdata [63:0] $end
$var wire 4 % s_axis_0_tkeep [3:0] $end
$var wire 1 & s_axis_0_tlast $end
$var wire 1 ' s_axis_0_tready $end
$var wire 1 ( s_axis_0_tvalid $end
$var wire 1 ) s_axis_0_tready_reg $end
$var wire 4 * m_axis_0_tvalid [3:0] $end
$var wire 4 + m_axis_0_tlast [3:0] $end
$var wire 64 , m_axis_0_tdata [63:0] $end
$var wire 1 - load_from_reg $end
$var wire 1 . load_from_in $end
$var wire 1 / input_handshake $end
$var wire 65 0 data_reg_next [64:0] $end
$var wire 4 1 data_keep_reg_next [3:0] $end
$var wire 4 2 data_keep_next [3:0] $end
$var wire 4 3 data_keep_in_next [3:0] $end
$var wire 65 4 data_in_next [64:0] $end
$var reg 4 5 data_keep_reg [3:0] $end
$var reg 65 6 data_reg [64:0] $end
$scope begin genblk1[0] $end
$var wire 1 7 m_fifo_tready $end
$var wire 1 8 s_fifo_handshake $end
$var wire 1 9 s_fifo_tlast $end
$var wire 1 : s_fifo_tvalid $end
$var wire 1 ; s_fifo_tready $end
$var wire 1 < m_fifo_tvalid $end
$var wire 1 = m_fifo_tlast $end
$var wire 16 > m_fifo_tdata [15:0] $end
$var reg 16 ? s_fifo_tdata [15:0] $end
$scope module AXISFifo_inst_i $end
$var wire 1 @ almost_empty $end
$var wire 1 A almost_full $end
$var wire 1 ! clk $end
$var wire 1 B deq $end
$var wire 1 C empty $end
$var wire 1 D enq $end
$var wire 1 E full $end
$var wire 1 7 m_axis_0_tready $end
$var wire 1 < m_axis_0_tvalid $end
$var wire 1 # rst $end
$var wire 16 F s_axis_0_tdata [15:0] $end
$var wire 1 9 s_axis_0_tlast $end
$var wire 1 ; s_axis_0_tready $end
$var wire 1 : s_axis_0_tvalid $end
$var wire 1 = m_axis_0_tlast $end
$var wire 16 G m_axis_0_tdata [15:0] $end
$var wire 1 H is_full $end
$var wire 1 I is_empty $end
$var wire 1 J is_almost_full $end
$var wire 1 K is_almost_empty $end
$var reg 2 L head [1:0] $end
$var reg 1 M m_axis_0_tvalid_int $end
$var reg 1 N s_axis_0_tready_int $end
$var reg 2 O tail [1:0] $end
$var integer 32 P i [31:0] $end
$upscope $end
$upscope $end
$scope begin genblk1[1] $end
$var wire 1 Q m_fifo_tready $end
$var wire 1 R s_fifo_handshake $end
$var wire 1 S s_fifo_tlast $end
$var wire 1 T s_fifo_tvalid $end
$var wire 1 U s_fifo_tready $end
$var wire 1 V m_fifo_tvalid $end
$var wire 1 W m_fifo_tlast $end
$var wire 16 X m_fifo_tdata [15:0] $end
$var reg 16 Y s_fifo_tdata [15:0] $end
$scope module AXISFifo_inst_i $end
$var wire 1 Z almost_empty $end
$var wire 1 [ almost_full $end
$var wire 1 ! clk $end
$var wire 1 \ deq $end
$var wire 1 ] empty $end
$var wire 1 ^ enq $end
$var wire 1 _ full $end
$var wire 1 Q m_axis_0_tready $end
$var wire 1 V m_axis_0_tvalid $end
$var wire 1 # rst $end
$var wire 16 ` s_axis_0_tdata [15:0] $end
$var wire 1 S s_axis_0_tlast $end
$var wire 1 U s_axis_0_tready $end
$var wire 1 T s_axis_0_tvalid $end
$var wire 1 W m_axis_0_tlast $end
$var wire 16 a m_axis_0_tdata [15:0] $end
$var wire 1 b is_full $end
$var wire 1 c is_empty $end
$var wire 1 d is_almost_full $end
$var wire 1 e is_almost_empty $end
$var reg 2 f head [1:0] $end
$var reg 1 g m_axis_0_tvalid_int $end
$var reg 1 h s_axis_0_tready_int $end
$var reg 2 i tail [1:0] $end
$var integer 32 j i [31:0] $end
$upscope $end
$upscope $end
$scope begin genblk1[2] $end
$var wire 1 k m_fifo_tready $end
$var wire 1 l s_fifo_handshake $end
$var wire 1 m s_fifo_tlast $end
$var wire 1 n s_fifo_tvalid $end
$var wire 1 o s_fifo_tready $end
$var wire 1 p m_fifo_tvalid $end
$var wire 1 q m_fifo_tlast $end
$var wire 16 r m_fifo_tdata [15:0] $end
$var reg 16 s s_fifo_tdata [15:0] $end
$scope module AXISFifo_inst_i $end
$var wire 1 t almost_empty $end
$var wire 1 u almost_full $end
$var wire 1 ! clk $end
$var wire 1 v deq $end
$var wire 1 w empty $end
$var wire 1 x enq $end
$var wire 1 y full $end
$var wire 1 k m_axis_0_tready $end
$var wire 1 p m_axis_0_tvalid $end
$var wire 1 # rst $end
$var wire 16 z s_axis_0_tdata [15:0] $end
$var wire 1 m s_axis_0_tlast $end
$var wire 1 o s_axis_0_tready $end
$var wire 1 n s_axis_0_tvalid $end
$var wire 1 q m_axis_0_tlast $end
$var wire 16 { m_axis_0_tdata [15:0] $end
$var wire 1 | is_full $end
$var wire 1 } is_empty $end
$var wire 1 ~ is_almost_full $end
$var wire 1 !" is_almost_empty $end
$var reg 2 "" head [1:0] $end
$var reg 1 #" m_axis_0_tvalid_int $end
$var reg 1 $" s_axis_0_tready_int $end
$var reg 2 %" tail [1:0] $end
$var integer 32 &" i [31:0] $end
$upscope $end
$upscope $end
$scope begin genblk1[3] $end
$var wire 1 '" m_fifo_tready $end
$var wire 1 (" s_fifo_handshake $end
$var wire 1 )" s_fifo_tlast $end
$var wire 1 *" s_fifo_tvalid $end
$var wire 1 +" s_fifo_tready $end
$var wire 1 ," m_fifo_tvalid $end
$var wire 1 -" m_fifo_tlast $end
$var wire 16 ." m_fifo_tdata [15:0] $end
$var reg 16 /" s_fifo_tdata [15:0] $end
$scope module AXISFifo_inst_i $end
$var wire 1 0" almost_empty $end
$var wire 1 1" almost_full $end
$var wire 1 ! clk $end
$var wire 1 2" deq $end
$var wire 1 3" empty $end
$var wire 1 4" enq $end
$var wire 1 5" full $end
$var wire 1 '" m_axis_0_tready $end
$var wire 1 ," m_axis_0_tvalid $end
$var wire 1 # rst $end
$var wire 16 6" s_axis_0_tdata [15:0] $end
$var wire 1 )" s_axis_0_tlast $end
$var wire 1 +" s_axis_0_tready $end
$var wire 1 *" s_axis_0_tvalid $end
$var wire 1 -" m_axis_0_tlast $end
$var wire 16 7" m_axis_0_tdata [15:0] $end
$var wire 1 8" is_full $end
$var wire 1 9" is_empty $end
$var wire 1 :" is_almost_full $end
$var wire 1 ;" is_almost_empty $end
$var reg 2 <" head [1:0] $end
$var reg 1 =" m_axis_0_tvalid_int $end
$var reg 1 >" s_axis_0_tready_int $end
$var reg 2 ?" tail [1:0] $end
$var integer 32 @" i [31:0] $end
$upscope $end
$upscope $end
$upscope $end
$upscope $end
$enddefinitions $end
#0
$dumpvars
b100 @"
b0 ?"
1>"
0="
b0 <"
0;"
0:"
19"
08"
b0 7"
bx 6"
05"
x4"
13"
02"
01"
10"
bx /"
b0 ."
0-"
0,"
1+"
x*"
x)"
x("
0'"
b100 &"
b0 %"
1$"
0#"
b0 ""
0!"
0~
1}
0|
b0 {
bx z
0y
xx
1w
0v
0u
1t
bx s
b0 r
0q
0p
1o
xn
xm
xl
0k
b100 j
b0 i
1h
0g
b0 f
0e
0d
1c
0b
b0 a
bx `
0_
x^
1]
0\
0[
1Z
bx Y
b0 X
0W
0V
1U
xT
xS
xR
0Q
b100 P
b0 O
1N
0M
b0 L
0K
0J
1I
0H
b0 G
bx F
0E
xD
1C
0B
0A
1@
bx ?
b0 >
0=
0<
1;
x:
x9
x8
07
bx 6
bx 5
bx 4
bx 3
bx 2
bx 1
bx 0
0/
x.
x-
b0 ,
b0 +
b0 *
x)
0(
x'
0&
b0 %
b0 $
0#
b0 "
0!
$end
#1000000000000
1!
#2000000000000
0!
#3000000000000
1!
#4000000000000
0!
#5000000000000
1!
#6000000000000
0!
#7000000000000
1!
#8000000000000
0!
#9000000000000
1!
#10000000000000
0D
08
0^
0R
0x
0l
04"
0("
0;
0N
0U
0h
0o
0$"
0+"
0>"
0'
0)
0!
1#
#11000000000000
b0 /"
b0 6"
b0 s
b0 z
b0 Y
b0 `
b0 ?
b0 F
b0 1
b0 3
1.
0-
b0 2
b0 0
0:
0T
0n
0*"
09
0S
0m
0)"
b0 4
b0 5
b0 6
1!
#12000000000000
0!
#13000000000000
1!
#14000000000000
0!
#15000000000000
1!
#16000000000000
0!
#17000000000000
1!
#18000000000000
0!
#19000000000000
1!
#20000000000000
1;
1N
1U
1h
1o
1$"
1+"
1>"
1'
1)
0!
0#
#21000000000000
1!
#22000000000000
0!
#23000000000000
1!
#24000000000000
0!
#25000000000000
1!
#26000000000000
0!
#27000000000000
1!
#28000000000000
0!
#29000000000000
1!
#30000000000000
0!
#31000000000000
b1011101010111110101110101011111010111010101111101011101010111110 0
b1111 1
b1011101010111110101110101011111010111010101111101011101010111110 4
b1111 3
1/
1'"
1k
1Q
17
1(
b1111 %
b1111 "
b1011101010111110101110101011111010111010101111101011101010111110 $
1!
#32000000000000
0!
#33000000000000
b1011101010111110 ?
b1011101010111110 F
b1011101010111110 Y
b1011101010111110 `
b1011101010111110 s
b1011101010111110 z
b1011101010111110 /"
b1011101010111110 6"
b1101111010101101101111101010111111001010111111101011101010111110 0
b1111 1
b1111 3
1/
1'
1)
18
1D
1R
1^
1l
1x
1("
1.
0-
b0 2
14"
b1101111010101101101111101010111111001010111111101011101010111110 4
1:
1T
1n
1*"
b1101111010101101101111101010111111001010111111101011101010111110 $
b1111 5
b1011101010111110101110101011111010111010101111101011101010111110 6
1!
#34000000000000
0!
#35000000000000
12"
1v
1\
1B
b1101111010101101 /"
b1101111010101101 6"
b1011111010101111 s
b1011111010101111 z
b1100101011111110 Y
b1100101011111110 `
1,"
1="
1p
1#"
1V
1g
b1111 *
1<
1M
b1011101010111110 ."
b1011101010111110 7"
b1011101010111110 r
b1011101010111110 {
b1011101010111110 X
b1011101010111110 a
b1011101010111110101110101011111010111010101111101011101010111110 ,
b1011101010111110 >
b1011101010111110 G
b1101111010101101101111101010111111001010111111101011101010111110 6
03"
09"
1;"
b1 <"
0w
0}
1!"
b1 ""
0]
0c
1e
b1 f
0C
0I
1K
b1 L
1!
#36000000000000
0!
#37000000000000
b1011101010111110110111101010110110111110101011111100101011111110 0
b1011101010111110110111101010110110111110101011111100101011111110 4
1@
b1100101011111110 X
b1100101011111110 a
1Z
b1011111010101111 r
b1011111010101111 {
1t
b1101111010101101101111101010111111001010111111101011101010111110 ,
b1101111010101101 ."
b1101111010101101 7"
10"
b1011101010111110110111101010110110111110101011111100101011111110 $
b1 O
1K
b10 L
b1 i
1e
b10 f
b1 %"
1!"
b10 ""
b1 ?"
1;"
b10 <"
1!
#38000000000000
0!
#39000000000000
b1100101011111110 ?
b1100101011111110 F
b1011111010101111 Y
b1011111010101111 `
b1101111010101101 s
b1101111010101101 z
b1011101010111110 /"
b1011101010111110 6"
b1100101011111110101110101011111011011110101011011011111010101111 0
10"
1t
1Z
1@
b1100101011111110101110101011111011011110101011011011111010101111 4
b1011101010111110110111101010110110111110101011111100101011111110 6
b10 ?"
1;"
b11 <"
b10 %"
1!"
b11 ""
b10 i
1e
b11 f
b10 O
1K
b11 L
b1100101011111110101110101011111011011110101011011011111010101111 $
1!
#40000000000000
0!
#41000000000000
b1100101011111110 /"
b1100101011111110 6"
b1011101010111110 s
b1011101010111110 z
b1101111010101101 Y
b1101111010101101 `
b1011111010101111 ?
b1011111010101111 F
b1011111010101111110010101111111010111010101111101101111010101101 0
b1011111010101111110010101111111010111010101111101101111010101101 4
b1100101011111110 >
b1100101011111110 G
1@
b1011111010101111 X
b1011111010101111 a
1Z
b1101111010101101 r
b1101111010101101 {
1t
b1011101010111110110111101010110110111110101011111100101011111110 ,
b1011101010111110 ."
b1011101010111110 7"
10"
b1011111010101111110010101111111010111010101111101101111010101101 $
b11 O
1K
b0 L
b11 i
1e
b0 f
b11 %"
1!"
b0 ""
b11 ?"
1;"
b0 <"
b1100101011111110101110101011111011011110101011011011111010101111 6
1!
#42000000000000
0!
#43000000000000
b1101111010101101 ?
b1101111010101101 F
b1011101010111110 Y
b1011101010111110 `
b1100101011111110 s
b1100101011111110 z
b1011111010101111 /"
b1011111010101111 6"
b1101111010101101101111101010111111001010111111101011101010111110 0
b1100101011111110 ."
b1100101011111110 7"
10"
b1011101010111110 r
b1011101010111110 {
1t
b1101111010101101 X
b1101111010101101 a
1Z
b1100101011111110101110101011111011011110101011011011111010101111 ,
b1011111010101111 >
b1011111010101111 G
1@
b1101111010101101101111101010111111001010111111101011101010111110 4
b1011111010101111110010101111111010111010101111101101111010101101 6
b0 ?"
1;"
b1 <"
b0 %"
1!"
b1 ""
b0 i
1e
b1 f
b0 O
1K
b1 L
b1101111010101101101111101010111111001010111111101011101010111110 $
1!
#44000000000000
0!
#45000000000000
b1101111010101101 /"
b1101111010101101 6"
b1011111010101111 s
b1011111010101111 z
b1100101011111110 Y
b1100101011111110 `
b1011101010111110 ?
b1011101010111110 F
b1011101010111110110111101010110110111110101011111100101011111110 0
b1011101010111110110111101010110110111110101011111100101011111110 4
b1101111010101101 >
b1101111010101101 G
1@
b1011101010111110 X
b1011101010111110 a
1Z
b1100101011111110 r
b1100101011111110 {
1t
b1011111010101111110010101111111010111010101111101101111010101101 ,
b1011111010101111 ."
b1011111010101111 7"
10"
b1011101010111110110111101010110110111110101011111100101011111110 $
b1 O
1K
b10 L
b1 i
1e
b10 f
b1 %"
1!"
b10 ""
b1 ?"
1;"
b10 <"
b1101111010101101101111101010111111001010111111101011101010111110 6
1!
#46000000000000
0!
#47000000000000
b1100101011111110 ?
b1100101011111110 F
b1011111010101111 Y
b1011111010101111 `
b1101111010101101 s
b1101111010101101 z
b1011101010111110 /"
b1011101010111110 6"
b1100101011111110101110101011111011011110101011011011111010101111 0
b1101111010101101 ."
b1101111010101101 7"
10"
b1011111010101111 r
b1011111010101111 {
1t
b1100101011111110 X
b1100101011111110 a
1Z
b1101111010101101101111101010111111001010111111101011101010111110 ,
b1011101010111110 >
b1011101010111110 G
1@
b1100101011111110101110101011111011011110101011011011111010101111 4
b1011101010111110110111101010110110111110101011111100101011111110 6
b10 ?"
1;"
b11 <"
b10 %"
1!"
b11 ""
b10 i
1e
b11 f
b10 O
1K
b11 L
b1100101011111110101110101011111011011110101011011011111010101111 $
1!
#48000000000000
0!
#49000000000000
b1100101011111110 /"
b1100101011111110 6"
b1011101010111110 s
b1011101010111110 z
b1101111010101101 Y
b1101111010101101 `
b1011111010101111 ?
b1011111010101111 F
b1011111010101111110010101111111010111010101111101101111010101101 0
b1011111010101111110010101111111010111010101111101101111010101101 4
b1100101011111110 >
b1100101011111110 G
1@
b1011111010101111 X
b1011111010101111 a
1Z
b1101111010101101 r
b1101111010101101 {
1t
b1011101010111110110111101010110110111110101011111100101011111110 ,
b1011101010111110 ."
b1011101010111110 7"
10"
b1011111010101111110010101111111010111010101111101101111010101101 $
b11 O
1K
b0 L
b11 i
1e
b0 f
b11 %"
1!"
b0 ""
b11 ?"
1;"
b0 <"
b1100101011111110101110101011111011011110101011011011111010101111 6
1!
#50000000000000
0!
#51000000000000
b1101111010101101 ?
b1101111010101101 F
b1011101010111110 Y
b1011101010111110 `
b1100101011111110 s
b1100101011111110 z
b1011111010101111 /"
b1011111010101111 6"
b1101111010101101101111101010111111001010111111101011101010111110 0
b1100101011111110 ."
b1100101011111110 7"
10"
b1011101010111110 r
b1011101010111110 {
1t
b1101111010101101 X
b1101111010101101 a
1Z
b1100101011111110101110101011111011011110101011011011111010101111 ,
b1011111010101111 >
b1011111010101111 G
1@
b1101111010101101101111101010111111001010111111101011101010111110 4
b1011111010101111110010101111111010111010101111101101111010101101 6
b0 ?"
1;"
b1 <"
b0 %"
1!"
b1 ""
b0 i
1e
b1 f
b0 O
1K
b1 L
b1101111010101101101111101010111111001010111111101011101010111110 $
1!
#52000000000000
0!
#53000000000000
b1101111010101101 /"
b1101111010101101 6"
b1011111010101111 s
b1011111010101111 z
b1100101011111110 Y
b1100101011111110 `
b1011101010111110 ?
b1011101010111110 F
b1011101010111110110111101010110110111110101011111100101011111110 0
b1011101010111110110111101010110110111110101011111100101011111110 4
b1101111010101101 >
b1101111010101101 G
1@
b1011101010111110 X
b1011101010111110 a
1Z
b1100101011111110 r
b1100101011111110 {
1t
b1011111010101111110010101111111010111010101111101101111010101101 ,
b1011111010101111 ."
b1011111010101111 7"
10"
b1011101010111110110111101010110110111110101011111100101011111110 $
b1 O
1K
b10 L
b1 i
1e
b10 f
b1 %"
1!"
b10 ""
b1 ?"
1;"
b10 <"
b1101111010101101101111101010111111001010111111101011101010111110 6
1!
#54000000000000
0!
#55000000000000
b1100101011111110 ?
b1100101011111110 F
b1011111010101111 Y
b1011111010101111 `
b1101111010101101 s
b1101111010101101 z
b1011101010111110 /"
b1011101010111110 6"
b1100101011111110101110101011111011011110101011011011111010101111 0
b1101111010101101 ."
b1101111010101101 7"
10"
b1011111010101111 r
b1011111010101111 {
1t
b1100101011111110 X
b1100101011111110 a
1Z
b1101111010101101101111101010111111001010111111101011101010111110 ,
b1011101010111110 >
b1011101010111110 G
1@
b1100101011111110101110101011111011011110101011011011111010101111 4
b1011101010111110110111101010110110111110101011111100101011111110 6
b10 ?"
1;"
b11 <"
b10 %"
1!"
b11 ""
b10 i
1e
b11 f
b10 O
1K
b11 L
b1100101011111110101110101011111011011110101011011011111010101111 $
1!
#56000000000000
0!
#57000000000000
b1100101011111110 /"
b1100101011111110 6"
b1011101010111110 s
b1011101010111110 z
b1101111010101101 Y
b1101111010101101 `
b1011111010101111 ?
b1011111010101111 F
b1011111010101111110010101111111010111010101111101101111010101101 0
b1011111010101111110010101111111010111010101111101101111010101101 4
b1100101011111110 >
b1100101011111110 G
1@
b1011111010101111 X
b1011111010101111 a
1Z
b1101111010101101 r
b1101111010101101 {
1t
b1011101010111110110111101010110110111110101011111100101011111110 ,
b1011101010111110 ."
b1011101010111110 7"
10"
b1011111010101111110010101111111010111010101111101101111010101101 $
b11 O
1K
b0 L
b11 i
1e
b0 f
b11 %"
1!"
b0 ""
b11 ?"
1;"
b0 <"
b1100101011111110101110101011111011011110101011011011111010101111 6
1!
#58000000000000
0!
#59000000000000
b1101111010101101 ?
b1101111010101101 F
b1011101010111110 Y
b1011101010111110 `
b1100101011111110 s
b1100101011111110 z
b1011111010101111 /"
b1011111010101111 6"
b1101111010101101101111101010111111001010111111101011101010111110 0
b1100101011111110 ."
b1100101011111110 7"
10"
b1011101010111110 r
b1011101010111110 {
1t
b1101111010101101 X
b1101111010101101 a
1Z
b1100101011111110101110101011111011011110101011011011111010101111 ,
b1011111010101111 >
b1011111010101111 G
1@
b1101111010101101101111101010111111001010111111101011101010111110 4
b1011111010101111110010101111111010111010101111101101111010101101 6
b0 ?"
1;"
b1 <"
b0 %"
1!"
b1 ""
b0 i
1e
b1 f
b0 O
1K
b1 L
b1101111010101101101111101010111111001010111111101011101010111110 $
1!
#60000000000000
0!
#61000000000000
b1101111010101101 /"
b1101111010101101 6"
b1011111010101111 s
b1011111010101111 z
b1100101011111110 Y
b1100101011111110 `
b1011101010111110 ?
b1011101010111110 F
b1011101010111110110111101010110110111110101011111100101011111110 0
b1011101010111110110111101010110110111110101011111100101011111110 4
b1101111010101101 >
b1101111010101101 G
1@
b1011101010111110 X
b1011101010111110 a
1Z
b1100101011111110 r
b1100101011111110 {
1t
b1011111010101111110010101111111010111010101111101101111010101101 ,
b1011111010101111 ."
b1011111010101111 7"
10"
b1011101010111110110111101010110110111110101011111100101011111110 $
b1 O
1K
b10 L
b1 i
1e
b10 f
b1 %"
1!"
b10 ""
b1 ?"
1;"
b10 <"
b1101111010101101101111101010111111001010111111101011101010111110 6
1!
#62000000000000
0!
#63000000000000
b1100101011111110 ?
b1100101011111110 F
b1011111010101111 Y
b1011111010101111 `
b1101111010101101 s
b1101111010101101 z
b1011101010111110 /"
b1011101010111110 6"
b1100101011111110101110101011111011011110101011011011111010101111 0
b1101111010101101 ."
b1101111010101101 7"
10"
b1011111010101111 r
b1011111010101111 {
1t
b1100101011111110 X
b1100101011111110 a
1Z
b1101111010101101101111101010111111001010111111101011101010111110 ,
b1011101010111110 >
b1011101010111110 G
1@
b1100101011111110101110101011111011011110101011011011111010101111 4
b1011101010111110110111101010110110111110101011111100101011111110 6
b10 ?"
1;"
b11 <"
b10 %"
1!"
b11 ""
b10 i
1e
b11 f
b10 O
1K
b11 L
b1100101011111110101110101011111011011110101011011011111010101111 $
1!
#64000000000000
0!
#65000000000000
b1100101011111110 /"
b1100101011111110 6"
b1011101010111110 s
b1011101010111110 z
b1101111010101101 Y
b1101111010101101 `
b1011111010101111 ?
b1011111010101111 F
b1011111010101111110010101111111010111010101111101101111010101101 0
b1011111010101111110010101111111010111010101111101101111010101101 4
b1100101011111110 >
b1100101011111110 G
1@
b1011111010101111 X
b1011111010101111 a
1Z
b1101111010101101 r
b1101111010101101 {
1t
b1011101010111110110111101010110110111110101011111100101011111110 ,
b1011101010111110 ."
b1011101010111110 7"
10"
b1011111010101111110010101111111010111010101111101101111010101101 $
b11 O
1K
b0 L
b11 i
1e
b0 f
b11 %"
1!"
b0 ""
b11 ?"
1;"
b0 <"
b1100101011111110101110101011111011011110101011011011111010101111 6
1!
#66000000000000
0!
#67000000000000
b1101111010101101 ?
b1101111010101101 F
b1011101010111110 Y
b1011101010111110 `
b1100101011111110 s
b1100101011111110 z
b1011111010101111 /"
b1011111010101111 6"
b1101111010101101101111101010111111001010111111101011101010111110 0
b1100101011111110 ."
b1100101011111110 7"
10"
b1011101010111110 r
b1011101010111110 {
1t
b1101111010101101 X
b1101111010101101 a
1Z
b1100101011111110101110101011111011011110101011011011111010101111 ,
b1011111010101111 >
b1011111010101111 G
1@
b1101111010101101101111101010111111001010111111101011101010111110 4
b1011111010101111110010101111111010111010101111101101111010101101 6
b0 ?"
1;"
b1 <"
b0 %"
1!"
b1 ""
b0 i
1e
b1 f
b0 O
1K
b1 L
b1101111010101101101111101010111111001010111111101011101010111110 $
1!
#68000000000000
0!
#69000000000000
b1101111010101101 /"
b1101111010101101 6"
b1011111010101111 s
b1011111010101111 z
b1100101011111110 Y
b1100101011111110 `
b1011101010111110 ?
b1011101010111110 F
b1011101010111110110111101010110110111110101011111100101011111110 0
b1011101010111110110111101010110110111110101011111100101011111110 4
b1101111010101101 >
b1101111010101101 G
1@
b1011101010111110 X
b1011101010111110 a
1Z
b1100101011111110 r
b1100101011111110 {
1t
b1011111010101111110010101111111010111010101111101101111010101101 ,
b1011111010101111 ."
b1011111010101111 7"
10"
b1011101010111110110111101010110110111110101011111100101011111110 $
b1 O
1K
b10 L
b1 i
1e
b10 f
b1 %"
1!"
b10 ""
b1 ?"
1;"
b10 <"
b1101111010101101101111101010111111001010111111101011101010111110 6
1!
#70000000000000
0!
#71000000000000
b1100101011111110 ?
b1100101011111110 F
b1011111010101111 Y
b1011111010101111 `
b1101111010101101 s
b1101111010101101 z
b1011101010111110 /"
b1011101010111110 6"
b1100101011111110101110101011111011011110101011011011111010101111 0
b1101111010101101 ."
b1101111010101101 7"
10"
b1011111010101111 r
b1011111010101111 {
1t
b1100101011111110 X
b1100101011111110 a
1Z
b1101111010101101101111101010111111001010111111101011101010111110 ,
b1011101010111110 >
b1011101010111110 G
1@
b1100101011111110101110101011111011011110101011011011111010101111 4
b1011101010111110110111101010110110111110101011111100101011111110 6
b10 ?"
1;"
b11 <"
b10 %"
1!"
b11 ""
b10 i
1e
b11 f
b10 O
1K
b11 L
b1100101011111110101110101011111011011110101011011011111010101111 $
1!
#72000000000000
0!
#73000000000000
b1100101011111110 /"
b1100101011111110 6"
b1011101010111110 s
b1011101010111110 z
b1101111010101101 Y
b1101111010101101 `
b1011111010101111 ?
b1011111010101111 F
b1011111010101111110010101111111010111010101111101101111010101101 0
b1011111010101111110010101111111010111010101111101101111010101101 4
b1100101011111110 >
b1100101011111110 G
1@
b1011111010101111 X
b1011111010101111 a
1Z
b1101111010101101 r
b1101111010101101 {
1t
b1011101010111110110111101010110110111110101011111100101011111110 ,
b1011101010111110 ."
b1011101010111110 7"
10"
b1011111010101111110010101111111010111010101111101101111010101101 $
b11 O
1K
b0 L
b11 i
1e
b0 f
b11 %"
1!"
b0 ""
b11 ?"
1;"
b0 <"
b1100101011111110101110101011111011011110101011011011111010101111 6
1!
#74000000000000
0!
#75000000000000
b1101111010101101 ?
b1101111010101101 F
b1011101010111110 Y
b1011101010111110 `
b1100101011111110 s
b1100101011111110 z
b1011111010101111 /"
b1011111010101111 6"
0B
b1101111010101101101111101010111111001010111111101011101010111110 0
b1100101011111110 ."
b1100101011111110 7"
10"
b1011101010111110 r
b1011101010111110 {
1t
b1101111010101101 X
b1101111010101101 a
1Z
b1100101011111110101110101011111011011110101011011011111010101111 ,
b1011111010101111 >
b1011111010101111 G
1@
07
b1101111010101101101111101010111111001010111111101011101010111110 4
b1011111010101111110010101111111010111010101111101101111010101101 6
b0 ?"
1;"
b1 <"
b0 %"
1!"
b1 ""
b0 i
1e
b1 f
b0 O
1K
b1 L
b1110 "
b1101111010101101101111101010111111001010111111101011101010111110 $
1!
#76000000000000
0!
#77000000000000
b1101111010101101 /"
b1101111010101101 6"
b1011111010101111 s
b1011111010101111 z
b1100101011111110 Y
b1100101011111110 `
b1011101010111110 ?
b1011101010111110 F
0\
b1011101010111110110111101010110110111110101011111100101011111110 0
1A
0Q
b1011101010111110110111101010110110111110101011111100101011111110 4
0@
1J
b1011101010111110 X
b1011101010111110 a
1Z
b1100101011111110 r
b1100101011111110 {
1t
b1011111010101111110010101111111010111010101111101011111010101111 ,
b1011111010101111 ."
b1011111010101111 7"
10"
b1100 "
b1011101010111110110111101010110110111110101011111100101011111110 $
0K
b10 L
b1 i
1e
b10 f
b1 %"
1!"
b10 ""
b1 ?"
1;"
b10 <"
b1101111010101101101111101010111111001010111111101011101010111110 6
1!
#78000000000000
0!
#79000000000000
b1 3
0/
0'
0)
b1 1
0.
1-
b1 2
0D
08
0;
0N
b1100101011111110 ?
b1100101011111110 F
b1011111010101111 Y
b1011111010101111 `
b1101111010101101 s
b1101111010101101 z
b1011101010111110 /"
b1011101010111110 6"
1[
0v
1B
b1011101010111110110111101010110110111110101011111100101011111110 0
b1101111010101101 ."
b1101111010101101 7"
10"
b1101111010101101101111101010111110111010101111101011111010101111 ,
b1011111010101111 r
b1011111010101111 {
1t
0Z
1d
1E
1H
0J
0k
17
b1011101010111110110111101010110110111110101011111100101011111110 4
b1011101010111110110111101010110110111110101011111100101011111110 6
b10 ?"
1;"
b11 <"
b10 %"
1!"
b11 ""
0e
b11 f
b11 L
b1001 "
b1100101011111110101110101011111011011110101011011011111010101111 $
1!
#80000000000000
0!
#81000000000000
b11011111010101111110010101111111010111010101111101101111010101101 0
b11011111010101111110010101111111010111010101111101101111010101101 4
1/
b1111 1
1'
1)
b1111 3
1.
0-
b0 2
1D
18
0U
0h
1;
1N
1\
02"
1u
0R
0^
0l
0x
0("
04"
1Q
0'"
b1101111010101101 >
b1101111010101101 G
1_
1b
0d
0t
1~
b1011101010111110101111101010111110111010101111101101111010101101 ,
b1011101010111110 ."
b1011101010111110 7"
10"
0T
0n
0*"
b11 "
b1011111010101111110010101111111010111010101111101101111010101101 $
0E
0H
1J
b1 O
b0 f
0!"
b0 ""
b11 ?"
1;"
b0 <"
b1 5
1&
1!
#82000000000000
0!
#83000000000000
1^
1R
b1011111010101111 /"
b1011111010101111 6"
b1100101011111110 s
b1100101011111110 z
b1011101010111110 Y
b1011101010111110 `
b1101111010101101 ?
b1101111010101101 F
1U
1h
b0 3
1'
1)
b0 1
0/
1l
1x
1("
1.
0-
b0 2
14"
b11011111010101111110010101111111010111010101111101101111010101101 0
1T
1n
1*"
19
1S
1m
1)"
b1100101011111110 X
b1100101011111110 a
b1011101010111110101111101010111111001010111111101011101010111110 ,
b1011101010111110 >
b1011101010111110 G
b11011111010101111110010101111111010111010101111101101111010101101 4
0(
0&
b1111 5
b11011111010101111110010101111111010111010101111101101111010101101 6
0_
0b
1d
b10 i
1J
b10 O
b0 L
b1101111010101101101111101010111111001010111111101011101010111110 $
1!
#84000000000000
0!
#85000000000000
0o
0$"
1v
11"
08
0D
0R
0^
0l
0x
0("
04"
1k
b1100101011111110 >
b1100101011111110 G
b1011101010111110101111101010111110111110101011111100101011111110 ,
b1011111010101111 X
b1011111010101111 a
1y
1|
0~
00"
1:"
0:
0T
0n
0*"
b111 "
1J
b11 O
b1 L
1d
b11 i
b1 f
b1 ""
0;"
b1 <"
b0 5
0(
1!
#86000000000000
0!
#87000000000000
1o
1$"
1Z
1@
b1101111010101101 r
b1101111010101101 {
1e
0[
1W
b1011101010111110 X
b1011101010111110 a
1K
0A
b11 +
1=
b1011101010111110110111101010110110111010101111101101111010101101 ,
b1101111010101101 >
b1101111010101101 G
0(
0y
0|
1~
b11 %"
0d
b0 i
0J
b0 O
b1011101010111110110111101010110110111110101011111100101011111110 $
1!
#88000000000000
0!
#89000000000000
0B
0\
0<
0M
b1100 *
0V
0g
1t
0K
0=
0e
0W
1!"
0u
b100 +
1q
b1011101010111110110010101111111010111010101111101101111010101101 ,
b1100101011111110 r
b1100101011111110 {
1C
1I
b1 O
1]
1c
b1 i
0~
b0 %"
0(
1!
#90000000000000
0!
#91000000000000
0v
b1000 *
0p
0#"
0!"
b0 +
0q
0(
1w
1}
b1 %"
1!
#92000000000000
0!
#93000000000000
12"
1'"
b1111 "
0(
1!
#94000000000000
0!
