vcd/tb_AXISCombiner.vcd
$date
	Mon Oct  7 14:18:55 2024
$end
$version
	Icarus Verilog
$end
$timescale
	1ps
$end
$scope module tb_AXISCombiner $end
$scope module uut $end
$var wire 1 ! clk $end
$var wire 1 " m_axis_0_tready $end
$var wire 1 # output_handshake $end
$var wire 1 $ rst $end
$var wire 64 % s_axis_0_tdata [63:0] $end
$var wire 4 & s_axis_0_tlast [3:0] $end
$var wire 4 ' s_axis_0_tvalid [3:0] $end
$var wire 4 ( s_axis_0_tready [3:0] $end
$var wire 1 ) m_axis_0_tvalid $end
$var wire 1 * m_axis_0_tlast $end
$var wire 4 + m_axis_0_tkeep [3:0] $end
$var wire 64 , m_axis_0_tdata [63:0] $end
$var wire 1 - generate_tvalid $end
$var wire 1 . generate_tlast $end
$var wire 4 / data_valid_in_next [3:0] $end
$var wire 64 0 data_reg_next [63:0] $end
$var wire 4 1 data_ready_in_next [3:0] $end
$var wire 4 2 data_ready_in_early_next [3:0] $end
$var wire 1 3 data_ready_in $end
$var wire 4 4 data_last_reg_next [3:0] $end
$var wire 4 5 data_last_in_next [3:0] $end
$var wire 4 6 data_keep_reg_next [3:0] $end
$var wire 4 7 data_keep_next [3:0] $end
$var wire 4 8 data_keep_in_next [3:0] $end
$var wire 64 9 data_in_next [63:0] $end
$var reg 4 : data_keep_reg [3:0] $end
$var reg 4 ; data_last_reg [3:0] $end
$var reg 64 < data_reg [63:0] $end
$scope begin genblk1[0] $end
$var wire 1 = m_fifo_handshake $end
$var wire 1 > m_fifo_tready $end
$var wire 1 ? s_fifo_handshake $end
$var wire 1 @ s_fifo_tlast $end
$var wire 1 A s_fifo_tvalid $end
$var wire 1 B s_fifo_tready $end
$var wire 1 C m_fifo_tvalid $end
$var wire 1 D m_fifo_tlast $end
$var wire 16 E m_fifo_tdata [15:0] $end
$var reg 16 F s_fifo_tdata [15:0] $end
$scope module AXISFifo_in_inst_i $end
$var wire 1 G almost_empty $end
$var wire 1 H almost_full $end
$var wire 1 ! clk $end
$var wire 1 I deq $end
$var wire 1 J empty $end
$var wire 1 K enq $end
$var wire 1 L full $end
$var wire 1 > m_axis_0_tready $end
$var wire 1 C m_axis_0_tvalid $end
$var wire 1 $ rst $end
$var wire 16 M s_axis_0_tdata [15:0] $end
$var wire 1 @ s_axis_0_tlast $end
$var wire 1 B s_axis_0_tready $end
$var wire 1 A s_axis_0_tvalid $end
$var wire 1 D m_axis_0_tlast $end
$var wire 16 N m_axis_0_tdata [15:0] $end
$var wire 1 O is_full $end
$var wire 1 P is_empty $end
$var wire 1 Q is_almost_full $end
$var wire 1 R is_almost_empty $end
$var reg 2 S head [1:0] $end
$var reg 1 T m_axis_0_tvalid_int $end
$var reg 1 U s_axis_0_tready_int $end
$var reg 2 V tail [1:0] $end
$var integer 32 W i [31:0] $end
$upscope $end
$upscope $end
$scope begin genblk1[1] $end
$var wire 1 X m_fifo_handshake $end
$var wire 1 Y m_fifo_tready $end
$var wire 1 Z s_fifo_handshake $end
$var wire 1 [ s_fifo_tlast $end
$var wire 1 \ s_fifo_tvalid $end
$var wire 1 ] s_fifo_tready $end
$var wire 1 ^ m_fifo_tvalid $end
$var wire 1 _ m_fifo_tlast $end
$var wire 16 ` m_fifo_tdata [15:0] $end
$var reg 16 a s_fifo_tdata [15:0] $end
$scope module AXISFifo_in_inst_i $end
$var wire 1 b almost_empty $end
$var wire 1 c almost_full $end
$var wire 1 ! clk $end
$var wire 1 d deq $end
$var wire 1 e empty $end
$var wire 1 f enq $end
$var wire 1 g full $end
$var wire 1 Y m_axis_0_tready $end
$var wire 1 ^ m_axis_0_tvalid $end
$var wire 1 $ rst $end
$var wire 16 h s_axis_0_tdata [15:0] $end
$var wire 1 [ s_axis_0_tlast $end
$var wire 1 ] s_axis_0_tready $end
$var wire 1 \ s_axis_0_tvalid $end
$var wire 1 _ m_axis_0_tlast $end
$var wire 16 i m_axis_0_tdata [15:0] $end
$var wire 1 j is_full $end
$var wire 1 k is_empty $end
$var wire 1 l is_almost_full $end
$var wire 1 m is_almost_empty $end
$var reg 2 n head [1:0] $end
$var reg 1 o m_axis_0_tvalid_int $end
$var reg 1 p s_axis_0_tready_int $end
$var reg 2 q tail [1:0] $end
$var integer 32 r i [31:0] $end
$upscope $end
$upscope $end
$scope begin genblk1[2] $end
$var wire 1 s m_fifo_handshake $end
$var wire 1 t m_fifo_tready $end
$var wire 1 u s_fifo_handshake $end
$var wire 1 v s_fifo_tlast $end
$var wire 1 w s_fifo_tvalid $end
$var wire 1 x s_fifo_tready $end
$var wire 1 y m_fifo_tvalid $end
$var wire 1 z m_fifo_tlast $end
$var wire 16 { m_fifo_tdata [15:0] $end
$var reg 16 | s_fifo_tdata [15:0] $end
$scope module AXISFifo_in_inst_i $end
$var wire 1 } almost_empty $end
$var wire 1 ~ almost_full $end
$var wire 1 ! clk $end
$var wire 1 !" deq $end
$var wire 1 "" empty $end
$var wire 1 #" enq $end
$var wire 1 $" full $end
$var wire 1 t m_axis_0_tready $end
$var wire 1 y m_axis_0_tvalid $end
$var wire 1 $ rst $end
$var wire 16 %" s_axis_0_tdata [15:0] $end
$var wire 1 v s_axis_0_tlast $end
$var wire 1 x s_axis_0_tready $end
$var wire 1 w s_axis_0_tvalid $end
$var wire 1 z m_axis_0_tlast $end
$var wire 16 &" m_axis_0_tdata [15:0] $end
$var wire 1 '" is_full $end
$var wire 1 (" is_empty $end
$var wire 1 )" is_almost_full $end
$var wire 1 *" is_almost_empty $end
$var reg 2 +" head [1:0] $end
$var reg 1 ," m_axis_0_tvalid_int $end
$var reg 1 -" s_axis_0_tready_int $end
$var reg 2 ." tail [1:0] $end
$var integer 32 /" i [31:0] $end
$upscope $end
$upscope $end
$scope begin genblk1[3] $end
$var wire 1 0" m_fifo_handshake $end
$var wire 1 1" m_fifo_tready $end
$var wire 1 2" s_fifo_handshake $end
$var wire 1 3" s_fifo_tlast $end
$var wire 1 4" s_fifo_tvalid $end
$var wire 1 5" s_fifo_tready $end
$var wire 1 6" m_fifo_tvalid $end
$var wire 1 7" m_fifo_tlast $end
$var wire 16 8" m_fifo_tdata [15:0] $end
$var reg 16 9" s_fifo_tdata [15:0] $end
$scope module AXISFifo_in_inst_i $end
$var wire 1 :" almost_empty $end
$var wire 1 ;" almost_full $end
$var wire 1 ! clk $end
$var wire 1 <" deq $end
$var wire 1 =" empty $end
$var wire 1 >" enq $end
$var wire 1 ?" full $end
$var wire 1 1" m_axis_0_tready $end
$var wire 1 6" m_axis_0_tvalid $end
$var wire 1 $ rst $end
$var wire 16 @" s_axis_0_tdata [15:0] $end
$var wire 1 3" s_axis_0_tlast $end
$var wire 1 5" s_axis_0_tready $end
$var wire 1 4" s_axis_0_tvalid $end
$var wire 1 7" m_axis_0_tlast $end
$var wire 16 A" m_axis_0_tdata [15:0] $end
$var wire 1 B" is_full $end
$var wire 1 C" is_empty $end
$var wire 1 D" is_almost_full $end
$var wire 1 E" is_almost_empty $end
$var reg 2 F" head [1:0] $end
$var reg 1 G" m_axis_0_tvalid_int $end
$var reg 1 H" s_axis_0_tready_int $end
$var reg 2 I" tail [1:0] $end
$var integer 32 J" i [31:0] $end
$upscope $end
$upscope $end
$scope module AXISFifo_out_inst $end
$var wire 1 K" almost_empty $end
$var wire 1 L" almost_full $end
$var wire 1 ! clk $end
$var wire 1 M" deq $end
$var wire 1 N" empty $end
$var wire 1 O" enq $end
$var wire 1 P" full $end
$var wire 1 " m_axis_0_tready $end
$var wire 1 ) m_axis_0_tvalid $end
$var wire 1 $ rst $end
$var wire 68 Q" s_axis_0_tdata [67:0] $end
$var wire 1 . s_axis_0_tlast $end
$var wire 1 3 s_axis_0_tready $end
$var wire 1 - s_axis_0_tvalid $end
$var wire 1 * m_axis_0_tlast $end
$var wire 68 R" m_axis_0_tdata [67:0] $end
$var wire 1 S" is_full $end
$var wire 1 T" is_empty $end
$var wire 1 U" is_almost_full $end
$var wire 1 V" is_almost_empty $end
$var reg 2 W" head [1:0] $end
$var reg 1 X" m_axis_0_tvalid_int $end
$var reg 1 Y" s_axis_0_tready_int $end
$var reg 2 Z" tail [1:0] $end
$var integer 32 [" i [31:0] $end
$upscope $end
$upscope $end
$upscope $end
$enddefinitions $end
#0
$dumpvars
b100 ["
b0 Z"
1Y"
0X"
b0 W"
0V"
0U"
1T"
0S"
b0 R"
bx Q"
0P"
xO"
1N"
0M"
0L"
1K"
b100 J"
b0 I"
1H"
0G"
b0 F"
0E"
0D"
1C"
0B"
b0 A"
b0 @"
0?"
0>"
1="
0<"
0;"
1:"
b0 9"
b0 8"
07"
06"
15"
04"
03"
02"
x1"
00"
b100 /"
b0 ."
1-"
0,"
b0 +"
0*"
0)"
1("
0'"
b0 &"
b0 %"
0$"
0#"
1""
0!"
0~
1}
b0 |
b0 {
0z
0y
1x
0w
0v
0u
xt
0s
b100 r
b0 q
1p
0o
b0 n
0m
0l
1k
0j
b0 i
b0 h
0g
0f
1e
0d
0c
1b
b0 a
b0 `
0_
0^
1]
0\
0[
0Z
xY
0X
b100 W
b0 V
1U
0T
b0 S
0R
0Q
1P
0O
b0 N
b0 M
0L
0K
1J
0I
0H
1G
b0 F
b0 E
0D
0C
1B
0A
0@
0?
x>
0=
bx <
bx ;
bx :
b0 9
b0 8
b0 7
bx 6
b0 5
bx 4
13
bx 2
bx 1
bx 0
b0 /
x.
x-
b0 ,
b0 +
0*
0)
b1111 (
b0 '
b0 &
b0 %
0$
x#
0"
0!
$end
#1000000000000
1!
#2000000000000
0!
#3000000000000
1!
#4000000000000
0!
#5000000000000
1!
#6000000000000
0!
#7000000000000
1!
#8000000000000
0!
#9000000000000
1!
#10000000000000
0O"
0#
03
0Y"
0B
0U
0]
0p
0x
0-"
b0 (
05"
0H"
0!
1$
#11000000000000
1>
1Y
1t
11"
b1111 1
b0 4
b1111 2
b0 6
b0 0
0.
b0 ;
0-
b0 :
b0 Q"
b0 <
1!
#12000000000000
0!
#13000000000000
1!
#14000000000000
0!
#15000000000000
1!
#16000000000000
0!
#17000000000000
1!
#18000000000000
0!
#19000000000000
1!
#20000000000000
13
1Y"
1B
1U
1]
1p
1x
1-"
b1111 (
15"
1H"
0!
0$
#21000000000000
1!
#22000000000000
0!
#23000000000000
1!
#24000000000000
0!
#25000000000000
1!
#26000000000000
0!
#27000000000000
1!
#28000000000000
0!
#29000000000000
1!
#30000000000000
0!
#31000000000000
b1011101010111110 F
b1011101010111110 M
b1100101011111110 a
b1100101011111110 h
b1011111010101111 |
b1011111010101111 %"
b1101111010101101 9"
b1101111010101101 @"
12"
1>"
1u
1#"
1Z
1f
1?
b0 7
1K
14"
1w
1\
1A
1"
b1111 '
b1101111010101101101111101010111111001010111111101011101010111110 %
1!
#32000000000000
0!
#33000000000000
b1101111010101101101111101010111111001010111111101011101010111110 0
b1111 6
1I
1=
1d
1X
1!"
1s
1<"
b1111 8
10"
1C
1T
1^
1o
1y
1,"
b1111 /
16"
1G"
b1011101010111110 E
b1011101010111110 N
b1100101011111110 `
b1100101011111110 i
b1011111010101111 {
b1011111010101111 &"
b1101111010101101101111101010111111001010111111101011101010111110 9
b1101111010101101 8"
b1101111010101101 A"
0J
0P
1R
b1 S
0e
0k
1m
b1 n
0""
0("
1*"
b1 +"
0="
0C"
1E"
b1 F"
1!
#34000000000000
0!
#35000000000000
b1011101010111110 9"
b1011101010111110 @"
b1101111010101101 |
b1101111010101101 %"
b1011111010101111 a
b1011111010101111 h
b1100101011111110 F
b1100101011111110 M
1O"
1#
1:"
1}
1b
1G
1-
b1111 :
b11011110101011011011111010101111110010101111111010111010101111101111 Q"
b1101111010101101101111101010111111001010111111101011101010111110 <
b1 I"
1E"
b10 F"
b1 ."
1*"
b10 +"
b1 q
1m
b10 n
b1 V
1R
b10 S
b1011101010111110110111101010110110111110101011111100101011111110 %
1!
#36000000000000
0!
#37000000000000
1M"
b1011111010101111 F
b1011111010101111 M
b1101111010101101 a
b1101111010101101 h
b1011101010111110 |
b1011101010111110 %"
b1100101011111110 9"
b1100101011111110 @"
1)
1X"
b1011101010111110110111101010110110111110101011111100101011111110 0
b1111 +
b1101111010101101101111101010111111001010111111101011101010111110 ,
b1100101011111110 E
b1100101011111110 N
1G
b1011111010101111 `
b1011111010101111 i
1b
b1101111010101101 {
b1101111010101101 &"
1}
b1011101010111110110111101010110110111110101011111100101011111110 9
b1011101010111110 8"
b1011101010111110 A"
1:"
b11011110101011011011111010101111110010101111111010111010101111101111 R"
b1100101011111110101110101011111011011110101011011011111010101111 %
b10 V
1R
b11 S
b10 q
1m
b11 n
b10 ."
1*"
b11 +"
b10 I"
1E"
b11 F"
0N"
0T"
1V"
b1 W"
1!
#38000000000000
0!
#39000000000000
b1011111010101111 9"
b1011111010101111 @"
b1100101011111110 |
b1100101011111110 %"
b1011101010111110 a
b1011101010111110 h
b1101111010101101 F
b1101111010101101 M
b1100101011111110101110101011111011011110101011011011111010101111 0
1K"
b1100101011111110 8"
b1100101011111110 A"
1:"
b1011101010111110 {
b1011101010111110 &"
1}
b1101111010101101 `
b1101111010101101 i
1b
b1100101011111110101110101011111011011110101011011011111010101111 9
b1011111010101111 E
b1011111010101111 N
1G
b10111010101111101101111010101101101111101010111111001010111111101111 Q"
b1011101010111110110111101010110110111110101011111100101011111110 <
b1 Z"
1V"
b10 W"
b11 I"
1E"
b0 F"
b11 ."
1*"
b0 +"
b11 q
1m
b0 n
b11 V
1R
b0 S
b1011111010101111110010101111111010111010101111101101111010101101 %
1!
#40000000000000
0!
#41000000000000
b1011101010111110 F
b1011101010111110 M
b1100101011111110 a
b1100101011111110 h
b1011111010101111 |
b1011111010101111 %"
b1101111010101101 9"
b1101111010101101 @"
b1011111010101111110010101111111010111010101111101101111010101101 0
b1011101010111110110111101010110110111110101011111100101011111110 ,
b1101111010101101 E
b1101111010101101 N
1G
b1011101010111110 `
b1011101010111110 i
1b
b1100101011111110 {
b1100101011111110 &"
1}
b1011111010101111110010101111111010111010101111101101111010101101 9
b1011111010101111 8"
b1011111010101111 A"
1:"
b10111010101111101101111010101101101111101010111111001010111111101111 R"
1K"
b1101111010101101101111101010111111001010111111101011101010111110 %
b0 V
1R
b1 S
b0 q
1m
b1 n
b0 ."
1*"
b1 +"
b0 I"
1E"
b1 F"
b10 Z"
1V"
b11 W"
b11001010111111101011101010111110110111101010110110111110101011111111 Q"
b1100101011111110101110101011111011011110101011011011111010101111 <
1!
#42000000000000
0!
#43000000000000
b1011101010111110 9"
b1011101010111110 @"
b1101111010101101 |
b1101111010101101 %"
b1011111010101111 a
b1011111010101111 h
b1100101011111110 F
b1100101011111110 M
b1101111010101101101111101010111111001010111111101011101010111110 0
b1100101011111110101110101011111011011110101011011011111010101111 ,
b11001010111111101011101010111110110111101010110110111110101011111111 R"
1K"
b1101111010101101 8"
b1101111010101101 A"
1:"
b1011111010101111 {
b1011111010101111 &"
1}
b1100101011111110 `
b1100101011111110 i
1b
b1101111010101101101111101010111111001010111111101011101010111110 9
b1011101010111110 E
b1011101010111110 N
1G
b10111110101011111100101011111110101110101011111011011110101011011111 Q"
b1011111010101111110010101111111010111010101111101101111010101101 <
b11 Z"
1V"
b0 W"
b1 I"
1E"
b10 F"
b1 ."
1*"
b10 +"
b1 q
1m
b10 n
b1 V
1R
b10 S
b1011101010111110110111101010110110111110101011111100101011111110 %
1!
#44000000000000
0!
#45000000000000
b1011111010101111 F
b1011111010101111 M
b1101111010101101 a
b1101111010101101 h
b1011101010111110 |
b1011101010111110 %"
b1100101011111110 9"
b1100101011111110 @"
b1011101010111110110111101010110110111110101011111100101011111110 0
b1011111010101111110010101111111010111010101111101101111010101101 ,
b1100101011111110 E
b1100101011111110 N
1G
b1011111010101111 `
b1011111010101111 i
1b
b1101111010101101 {
b1101111010101101 &"
1}
b1011101010111110110111101010110110111110101011111100101011111110 9
b1011101010111110 8"
b1011101010111110 A"
1:"
b10111110101011111100101011111110101110101011111011011110101011011111 R"
1K"
b1100101011111110101110101011111011011110101011011011111010101111 %
b10 V
1R
b11 S
b10 q
1m
b11 n
b10 ."
1*"
b11 +"
b10 I"
1E"
b11 F"
b0 Z"
1V"
b1 W"
b11011110101011011011111010101111110010101111111010111010101111101111 Q"
b1101111010101101101111101010111111001010111111101011101010111110 <
1!
#46000000000000
0!
#47000000000000
b1011111010101111 9"
b1011111010101111 @"
b1100101011111110 |
b1100101011111110 %"
b1011101010111110 a
b1011101010111110 h
b1101111010101101 F
b1101111010101101 M
b1100101011111110101110101011111011011110101011011011111010101111 0
b1101111010101101101111101010111111001010111111101011101010111110 ,
b11011110101011011011111010101111110010101111111010111010101111101111 R"
1K"
b1100101011111110 8"
b1100101011111110 A"
1:"
b1011101010111110 {
b1011101010111110 &"
1}
b1101111010101101 `
b1101111010101101 i
1b
b1100101011111110101110101011111011011110101011011011111010101111 9
b1011111010101111 E
b1011111010101111 N
1G
b10111010101111101101111010101101101111101010111111001010111111101111 Q"
b1011101010111110110111101010110110111110101011111100101011111110 <
b1 Z"
1V"
b10 W"
b11 I"
1E"
b0 F"
b11 ."
1*"
b0 +"
b11 q
1m
b0 n
b11 V
1R
b0 S
b1011111010101111110010101111111010111010101111101101111010101101 %
1!
#48000000000000
0!
#49000000000000
b1011101010111110 F
b1011101010111110 M
b1100101011111110 a
b1100101011111110 h
b1011111010101111 |
b1011111010101111 %"
b1101111010101101 9"
b1101111010101101 @"
b1011111010101111110010101111111010111010101111101101111010101101 0
b1011101010111110110111101010110110111110101011111100101011111110 ,
b1101111010101101 E
b1101111010101101 N
1G
b1011101010111110 `
b1011101010111110 i
1b
b1100101011111110 {
b1100101011111110 &"
1}
b1011111010101111110010101111111010111010101111101101111010101101 9
b1011111010101111 8"
b1011111010101111 A"
1:"
b10111010101111101101111010101101101111101010111111001010111111101111 R"
1K"
b1101111010101101101111101010111111001010111111101011101010111110 %
b0 V
1R
b1 S
b0 q
1m
b1 n
b0 ."
1*"
b1 +"
b0 I"
1E"
b1 F"
b10 Z"
1V"
b11 W"
b11001010111111101011101010111110110111101010110110111110101011111111 Q"
b1100101011111110101110101011111011011110101011011011111010101111 <
1!
#50000000000000
0!
#51000000000000
b1011101010111110 9"
b1011101010111110 @"
b1101111010101101 |
b1101111010101101 %"
b1011111010101111 a
b1011111010101111 h
b1100101011111110 F
b1100101011111110 M
b1101111010101101101111101010111111001010111111101011101010111110 0
b1100101011111110101110101011111011011110101011011011111010101111 ,
b11001010111111101011101010111110110111101010110110111110101011111111 R"
1K"
b1101111010101101 8"
b1101111010101101 A"
1:"
b1011111010101111 {
b1011111010101111 &"
1}
b1100101011111110 `
b1100101011111110 i
1b
b1101111010101101101111101010111111001010111111101011101010111110 9
b1011101010111110 E
b1011101010111110 N
1G
b10111110101011111100101011111110101110101011111011011110101011011111 Q"
b1011111010101111110010101111111010111010101111101101111010101101 <
b11 Z"
1V"
b0 W"
b1 I"
1E"
b10 F"
b1 ."
1*"
b10 +"
b1 q
1m
b10 n
b1 V
1R
b10 S
b1011101010111110110111101010110110111110101011111100101011111110 %
1!
#52000000000000
0!
#53000000000000
b1011111010101111 F
b1011111010101111 M
b1101111010101101 a
b1101111010101101 h
b1011101010111110 |
b1011101010111110 %"
b1100101011111110 9"
b1100101011111110 @"
b1011101010111110110111101010110110111110101011111100101011111110 0
b1011111010101111110010101111111010111010101111101101111010101101 ,
b1100101011111110 E
b1100101011111110 N
1G
b1011111010101111 `
b1011111010101111 i
1b
b1101111010101101 {
b1101111010101101 &"
1}
b1011101010111110110111101010110110111110101011111100101011111110 9
b1011101010111110 8"
b1011101010111110 A"
1:"
b10111110101011111100101011111110101110101011111011011110101011011111 R"
1K"
b1100101011111110101110101011111011011110101011011011111010101111 %
b10 V
1R
b11 S
b10 q
1m
b11 n
b10 ."
1*"
b11 +"
b10 I"
1E"
b11 F"
b0 Z"
1V"
b1 W"
b11011110101011011011111010101111110010101111111010111010101111101111 Q"
b1101111010101101101111101010111111001010111111101011101010111110 <
1!
#54000000000000
0!
#55000000000000
b1011111010101111 9"
b1011111010101111 @"
b1100101011111110 |
b1100101011111110 %"
b1011101010111110 a
b1011101010111110 h
b1101111010101101 F
b1101111010101101 M
b1100101011111110101110101011111011011110101011011011111010101111 0
b1101111010101101101111101010111111001010111111101011101010111110 ,
b11011110101011011011111010101111110010101111111010111010101111101111 R"
1K"
b1100101011111110 8"
b1100101011111110 A"
1:"
b1011101010111110 {
b1011101010111110 &"
1}
b1101111010101101 `
b1101111010101101 i
1b
b1100101011111110101110101011111011011110101011011011111010101111 9
b1011111010101111 E
b1011111010101111 N
1G
b10111010101111101101111010101101101111101010111111001010111111101111 Q"
b1011101010111110110111101010110110111110101011111100101011111110 <
b1 Z"
1V"
b10 W"
b11 I"
1E"
b0 F"
b11 ."
1*"
b0 +"
b11 q
1m
b0 n
b11 V
1R
b0 S
b1011111010101111110010101111111010111010101111101101111010101101 %
1!
#56000000000000
0!
#57000000000000
b1011101010111110 F
b1011101010111110 M
b1100101011111110 a
b1100101011111110 h
b1011111010101111 |
b1011111010101111 %"
b1101111010101101 9"
b1101111010101101 @"
b1011111010101111110010101111111010111010101111101101111010101101 0
b1011101010111110110111101010110110111110101011111100101011111110 ,
b1101111010101101 E
b1101111010101101 N
1G
b1011101010111110 `
b1011101010111110 i
1b
b1100101011111110 {
b1100101011111110 &"
1}
b1011111010101111110010101111111010111010101111101101111010101101 9
b1011111010101111 8"
b1011111010101111 A"
1:"
b10111010101111101101111010101101101111101010111111001010111111101111 R"
1K"
b1101111010101101101111101010111111001010111111101011101010111110 %
b0 V
1R
b1 S
b0 q
1m
b1 n
b0 ."
1*"
b1 +"
b0 I"
1E"
b1 F"
b10 Z"
1V"
b11 W"
b11001010111111101011101010111110110111101010110110111110101011111111 Q"
b1100101011111110101110101011111011011110101011011011111010101111 <
1!
#58000000000000
0!
#59000000000000
b1011101010111110 9"
b1011101010111110 @"
b1101111010101101 |
b1101111010101101 %"
b1011111010101111 a
b1011111010101111 h
b1100101011111110 F
b1100101011111110 M
b1101111010101101101111101010111111001010111111101011101010111110 0
b1100101011111110101110101011111011011110101011011011111010101111 ,
b11001010111111101011101010111110110111101010110110111110101011111111 R"
1K"
b1101111010101101 8"
b1101111010101101 A"
1:"
b1011111010101111 {
b1011111010101111 &"
1}
b1100101011111110 `
b1100101011111110 i
1b
b1101111010101101101111101010111111001010111111101011101010111110 9
b1011101010111110 E
b1011101010111110 N
1G
b10111110101011111100101011111110101110101011111011011110101011011111 Q"
b1011111010101111110010101111111010111010101111101101111010101101 <
b11 Z"
1V"
b0 W"
b1 I"
1E"
b10 F"
b1 ."
1*"
b10 +"
b1 q
1m
b10 n
b1 V
1R
b10 S
b1011101010111110110111101010110110111110101011111100101011111110 %
1!
#60000000000000
0!
#61000000000000
b1011111010101111 F
b1011111010101111 M
b1101111010101101 a
b1101111010101101 h
b1011101010111110 |
b1011101010111110 %"
b1100101011111110 9"
b1100101011111110 @"
b1011101010111110110111101010110110111110101011111100101011111110 0
b1011111010101111110010101111111010111010101111101101111010101101 ,
b1100101011111110 E
b1100101011111110 N
1G
b1011111010101111 `
b1011111010101111 i
1b
b1101111010101101 {
b1101111010101101 &"
1}
b1011101010111110110111101010110110111110101011111100101011111110 9
b1011101010111110 8"
b1011101010111110 A"
1:"
b10111110101011111100101011111110101110101011111011011110101011011111 R"
1K"
b1100101011111110101110101011111011011110101011011011111010101111 %
b10 V
1R
b11 S
b10 q
1m
b11 n
b10 ."
1*"
b11 +"
b10 I"
1E"
b11 F"
b0 Z"
1V"
b1 W"
b11011110101011011011111010101111110010101111111010111010101111101111 Q"
b1101111010101101101111101010111111001010111111101011101010111110 <
1!
#62000000000000
0!
#63000000000000
b1011111010101111 9"
b1011111010101111 @"
b1100101011111110 |
b1100101011111110 %"
b1011101010111110 a
b1011101010111110 h
b1101111010101101 F
b1101111010101101 M
b1100101011111110101110101011111011011110101011011011111010101111 0
b1101111010101101101111101010111111001010111111101011101010111110 ,
b11011110101011011011111010101111110010101111111010111010101111101111 R"
1K"
b1100101011111110 8"
b1100101011111110 A"
1:"
b1011101010111110 {
b1011101010111110 &"
1}
b1101111010101101 `
b1101111010101101 i
1b
b1100101011111110101110101011111011011110101011011011111010101111 9
b1011111010101111 E
b1011111010101111 N
1G
b10111010101111101101111010101101101111101010111111001010111111101111 Q"
b1011101010111110110111101010110110111110101011111100101011111110 <
b1 Z"
1V"
b10 W"
b11 I"
1E"
b0 F"
b11 ."
1*"
b0 +"
b11 q
1m
b0 n
b11 V
1R
b0 S
b1011111010101111110010101111111010111010101111101101111010101101 %
1!
#64000000000000
0!
#65000000000000
b1011101010111110 F
b1011101010111110 M
b1100101011111110 a
b1100101011111110 h
b1011111010101111 |
b1011111010101111 %"
b1101111010101101 9"
b1101111010101101 @"
b1011111010101111110010101111111010111010101111101101111010101101 0
b1011101010111110110111101010110110111110101011111100101011111110 ,
b1101111010101101 E
b1101111010101101 N
1G
b1011101010111110 `
b1011101010111110 i
1b
b1100101011111110 {
b1100101011111110 &"
1}
b1011111010101111110010101111111010111010101111101101111010101101 9
b1011111010101111 8"
b1011111010101111 A"
1:"
b10111010101111101101111010101101101111101010111111001010111111101111 R"
1K"
b1101111010101101101111101010111111001010111111101011101010111110 %
b0 V
1R
b1 S
b0 q
1m
b1 n
b0 ."
1*"
b1 +"
b0 I"
1E"
b1 F"
b10 Z"
1V"
b11 W"
b11001010111111101011101010111110110111101010110110111110101011111111 Q"
b1100101011111110101110101011111011011110101011011011111010101111 <
1!
#66000000000000
0!
#67000000000000
b1011101010111110 9"
b1011101010111110 @"
b1101111010101101 |
b1101111010101101 %"
b1011111010101111 a
b1011111010101111 h
b1100101011111110 F
b1100101011111110 M
b1101111010101101101111101010111111001010111111101011101010111110 0
b1100101011111110101110101011111011011110101011011011111010101111 ,
b11001010111111101011101010111110110111101010110110111110101011111111 R"
1K"
b1101111010101101 8"
b1101111010101101 A"
1:"
b1011111010101111 {
b1011111010101111 &"
1}
b1100101011111110 `
b1100101011111110 i
1b
b1101111010101101101111101010111111001010111111101011101010111110 9
b1011101010111110 E
b1011101010111110 N
1G
b10111110101011111100101011111110101110101011111011011110101011011111 Q"
b1011111010101111110010101111111010111010101111101101111010101101 <
b11 Z"
1V"
b0 W"
b1 I"
1E"
b10 F"
b1 ."
1*"
b10 +"
b1 q
1m
b10 n
b1 V
1R
b10 S
b1011101010111110110111101010110110111110101011111100101011111110 %
1!
#68000000000000
0!
#69000000000000
b1011111010101111 F
b1011111010101111 M
b1101111010101101 a
b1101111010101101 h
b1011101010111110 |
b1011101010111110 %"
b1100101011111110 9"
b1100101011111110 @"
b1011101010111110110111101010110110111110101011111100101011111110 0
b1011111010101111110010101111111010111010101111101101111010101101 ,
b1100101011111110 E
b1100101011111110 N
1G
b1011111010101111 `
b1011111010101111 i
1b
b1101111010101101 {
b1101111010101101 &"
1}
b1011101010111110110111101010110110111110101011111100101011111110 9
b1011101010111110 8"
b1011101010111110 A"
1:"
b10111110101011111100101011111110101110101011111011011110101011011111 R"
1K"
b1100101011111110101110101011111011011110101011011011111010101111 %
b10 V
1R
b11 S
b10 q
1m
b11 n
b10 ."
1*"
b11 +"
b10 I"
1E"
b11 F"
b0 Z"
1V"
b1 W"
b11011110101011011011111010101111110010101111111010111010101111101111 Q"
b1101111010101101101111101010111111001010111111101011101010111110 <
1!
#70000000000000
0!
#71000000000000
b1011111010101111 9"
b1011111010101111 @"
b1100101011111110 |
b1100101011111110 %"
b1011101010111110 a
b1011101010111110 h
b1101111010101101 F
b1101111010101101 M
b1100101011111110101110101011111011011110101011011011111010101111 0
b1101111010101101101111101010111111001010111111101011101010111110 ,
b11011110101011011011111010101111110010101111111010111010101111101111 R"
1K"
b1100101011111110 8"
b1100101011111110 A"
1:"
b1011101010111110 {
b1011101010111110 &"
1}
b1101111010101101 `
b1101111010101101 i
1b
b1100101011111110101110101011111011011110101011011011111010101111 9
b1011111010101111 E
b1011111010101111 N
1G
b10111010101111101101111010101101101111101010111111001010111111101111 Q"
b1011101010111110110111101010110110111110101011111100101011111110 <
b1 Z"
1V"
b10 W"
b11 I"
1E"
b0 F"
b11 ."
1*"
b0 +"
b11 q
1m
b0 n
b11 V
1R
b0 S
b1011111010101111110010101111111010111010101111101101111010101101 %
1!
#72000000000000
0!
#73000000000000
b1011101010111110 F
b1011101010111110 M
b1100101011111110 a
b1100101011111110 h
b1011111010101111 |
b1011111010101111 %"
b1101111010101101 9"
b1101111010101101 @"
b1011111010101111110010101111111010111010101111101101111010101101 0
b1011101010111110110111101010110110111110101011111100101011111110 ,
b1101111010101101 E
b1101111010101101 N
1G
b1011101010111110 `
b1011101010111110 i
1b
b1100101011111110 {
b1100101011111110 &"
1}
b1011111010101111110010101111111010111010101111101101111010101101 9
b1011111010101111 8"
b1011111010101111 A"
1:"
b10111010101111101101111010101101101111101010111111001010111111101111 R"
1K"
b1101111010101101101111101010111111001010111111101011101010111110 %
b0 V
1R
b1 S
b0 q
1m
b1 n
b0 ."
1*"
b1 +"
b0 I"
1E"
b1 F"
b10 Z"
1V"
b11 W"
b11001010111111101011101010111110110111101010110110111110101011111111 Q"
b1100101011111110101110101011111011011110101011011011111010101111 <
1!
#74000000000000
0!
