vcd/tb_LinearProcessingArray.vcd
$date
	Thu Nov  7 11:28:31 2024
$end
$version
	Icarus Verilog
$end
$timescale
	1ps
$end
$scope module tb_LinearProcessingArray $end
$scope module uut $end
$var wire 1 ! clk $end
$var wire 1 " core_rst $end
$var wire 1 # int_axis_down_handshake $end
$var wire 1 $ int_axis_left_handshake $end
$var wire 1 % int_axis_right_handshake $end
$var wire 1 & int_axis_right_tready $end
$var wire 1 ' int_axis_up_handshake $end
$var wire 1 ( m_axis_down_tdest $end
$var wire 1 ) m_axis_down_tid $end
$var wire 1 * m_axis_down_tready $end
$var wire 1 + rst $end
$var wire 16 , s_axis_left_tdata [15:0] $end
$var wire 1 - s_axis_left_tdest $end
$var wire 1 . s_axis_left_tid $end
$var wire 1 / s_axis_left_tlast $end
$var wire 8 0 s_axis_left_tuser [7:0] $end
$var wire 1 1 s_axis_left_tvalid $end
$var wire 16 2 s_axis_up_tdata [15:0] $end
$var wire 1 3 s_axis_up_tdest $end
$var wire 1 4 s_axis_up_tid $end
$var wire 1 5 s_axis_up_tlast $end
$var wire 8 6 s_axis_up_tuser [7:0] $end
$var wire 1 7 s_axis_up_tvalid $end
$var wire 1 8 s_axis_up_tready $end
$var wire 1 9 s_axis_left_tready $end
$var wire 1 : rst_int $end
$var wire 1 ; m_axis_down_tvalid $end
$var wire 8 < m_axis_down_tuser [7:0] $end
$var wire 1 = m_axis_down_tlast $end
$var wire 16 > m_axis_down_tdata [15:0] $end
$var wire 1 ? int_axis_up_tvalid $end
$var wire 1 @ int_axis_up_tready $end
$var wire 1 A int_axis_up_tlast $end
$var wire 1 B int_axis_right_tvalid $end
$var wire 1 C int_axis_right_tlast $end
$var wire 1 D int_axis_left_tvalid $end
$var wire 1 E int_axis_left_tready $end
$var wire 1 F int_axis_left_tlast $end
$var wire 1 G int_axis_down_tvalid $end
$var wire 1 H int_axis_down_tready $end
$var wire 1 I int_axis_down_tlast $end
$var wire 1 J err_user_flag_int $end
$var wire 1 K err_user_flag $end
$var wire 1 L err_unalligned_data_int $end
$var wire 1 M err_unalligned_data $end
$var parameter 32 N DATA_WIDTH_OP0 $end
$var parameter 32 O DATA_WIDTH_OP1 $end
$var parameter 32 P DATA_WIDTH_RSLT $end
$var parameter 32 Q DATA_WIDTH_U_D $end
$var parameter 32 R DEST_ENABLE $end
$var parameter 32 S DEST_WIDTH $end
$var parameter 32 T FRACTIONAL_BITS_OP0 $end
$var parameter 32 U FRACTIONAL_BITS_OP1 $end
$var parameter 32 V FRACTIONAL_BITS_RSLT $end
$var parameter 32 W ID_ENABLE $end
$var parameter 32 X ID_WIDTH $end
$var parameter 32 Y INTERNAL_RESET $end
$var parameter 32 Z IS_UNSIGNED_OP0 $end
$var parameter 32 [ IS_UNSIGNED_OP1 $end
$var parameter 10 \ OP1_USER_MASK $end
$var parameter 2 ] OP1_USER_MASK_R $end
$var parameter 32 ^ OUTPUT_DEST $end
$var parameter 32 _ OUTPUT_ID $end
$var parameter 32 ` PE_NUMBER_I $end
$var parameter 32 a PE_NUMBER_J $end
$var parameter 32 b PE_WIDTH_J $end
$var parameter 10 c RSLT_USER_MASK $end
$var parameter 2 d RSLT_USER_MASK_R $end
$var parameter 32 e USER_ENABLE $end
$var parameter 32 f USER_WIDTH $end
$var parameter 34 g USER_WIDTH_INT $end
$var reg 4 h rst_pipeline [3:0] $end
$scope begin genblk1[0] $end
$var parameter 2 i pe_pos_j $end
$scope begin genblk1[0] $end
$var parameter 32 j NODE $end
$var parameter 32 k NODE_D $end
$var parameter 32 l NODE_L $end
$var parameter 32 m NODE_R $end
$var parameter 32 n NODE_U $end
$var parameter 32 o PE_POSITION_I $end
$var parameter 32 p PE_POSITION_J $end
$var parameter 2 q pe_pos_i $end
$scope begin genblk1 $end
$var parameter 32 r LSB $end
$var parameter 32 s MSB $end
$upscope $end
$scope begin genblk2 $end
$upscope $end
$scope begin genblk3 $end
$var parameter 32 t LSB $end
$var parameter 32 u MSB $end
$upscope $end
$scope begin genblk4 $end
$var wire 1 v op1_flag_match $end
$var parameter 32 w LSB $end
$var parameter 32 x MSB $end
$upscope $end
$scope module LPE_ij $end
$var wire 1 ! clk $end
$var wire 1 y int_axis_left_tready $end
$var wire 16 z int_axis_right_tdata [15:0] $end
$var wire 1 { int_axis_right_tlast $end
$var wire 1 | int_axis_right_tvalid $end
$var wire 1 & m_axis_right_tready $end
$var wire 1 : rst $end
$var wire 1 E s_axis_left_tready $end
$var wire 1 @ s_axis_up_tready $end
$var wire 1 } store_u $end
$var wire 1 ~ store_l $end
$var wire 1 ? s_axis_up_tvalid $end
$var wire 10 !" s_axis_up_tuser [9:0] $end
$var wire 1 "" s_axis_up_tready_int $end
$var wire 1 A s_axis_up_tlast $end
$var wire 16 #" s_axis_up_tdata [15:0] $end
$var wire 1 D s_axis_left_tvalid $end
$var wire 1 $" s_axis_left_tready_int $end
$var wire 1 F s_axis_left_tlast $end
$var wire 16 %" s_axis_left_tdata [15:0] $end
$var wire 16 &" rslt [15:0] $end
$var wire 33 '" partial_sum_rslt [32:0] $end
$var wire 33 (" partial_sum_reg_next [32:0] $end
$var wire 33 )" partial_sum_fb [32:0] $end
$var wire 1 *" op_start $end
$var wire 33 +" mult_res [32:0] $end
$var wire 16 ," mult_op1 [15:0] $end
$var wire 16 -" mult_op0 [15:0] $end
$var wire 1 B m_axis_right_tvalid $end
$var wire 1 C m_axis_right_tlast $end
$var wire 16 ." m_axis_right_tdata [15:0] $end
$var wire 1 G m_axis_down_tvalid $end
$var wire 10 /" m_axis_down_tuser [9:0] $end
$var wire 1 H m_axis_down_tready $end
$var wire 1 I m_axis_down_tlast $end
$var wire 16 0" m_axis_down_tdata [15:0] $end
$var wire 1 1" int_axis_up_tvalid $end
$var wire 10 2" int_axis_up_tuser [9:0] $end
$var wire 1 3" int_axis_up_tready $end
$var wire 1 4" int_axis_up_tlast $end
$var wire 16 5" int_axis_up_tdata [15:0] $end
$var wire 1 6" int_axis_right_tready $end
$var wire 1 7" int_axis_left_tvalid $end
$var wire 1 8" int_axis_left_tlast $end
$var wire 16 9" int_axis_left_tdata [15:0] $end
$var wire 1 :" int_axis_down_tvalid $end
$var wire 10 ;" int_axis_down_tuser [9:0] $end
$var wire 1 <" int_axis_down_tready $end
$var wire 1 =" int_axis_down_tlast $end
$var wire 16 >" int_axis_down_tdata [15:0] $end
$var wire 1 ?" forward_u $end
$var wire 1 @" forward_l $end
$var wire 1 A" export_rslt $end
$var wire 1 J err_user_flag $end
$var wire 1 L err_unalligned_data $end
$var wire 1 B" drop_u $end
$var wire 1 C" drop_l $end
$var wire 1 D" bypass_adder $end
$var parameter 32 E" DATA_WIDTH_L_R $end
$var parameter 32 F" DATA_WIDTH_OP0 $end
$var parameter 32 G" DATA_WIDTH_OP1 $end
$var parameter 32 H" DATA_WIDTH_RSLT $end
$var parameter 32 I" DATA_WIDTH_U_D $end
$var parameter 32 J" FRACTIONAL_BITS_OP0 $end
$var parameter 32 K" FRACTIONAL_BITS_OP1 $end
$var parameter 32 L" FRACTIONAL_BITS_RSLT $end
$var parameter 32 M" IS_UNSIGNED_OP0 $end
$var parameter 32 N" IS_UNSIGNED_OP1 $end
$var parameter 35 O" MAC_OP_SIZE $end
$var parameter 34 P" MAC_RSLT_LSB $end
$var parameter 36 Q" MAC_RSLT_MSB $end
$var parameter 35 R" MLT_OP_SIZE $end
$var parameter 40 S" OP1_USER_MASK $end
$var parameter 32 T" OUTPUT_DEST $end
$var parameter 32 U" OUTPUT_ID $end
$var parameter 32 V" PE_NUMBER_I $end
$var parameter 32 W" PE_NUMBER_J $end
$var parameter 32 X" PE_POSITION_I $end
$var parameter 32 Y" PE_POSITION_J $end
$var parameter 41 Z" RSLT_USER_MASK $end
$var parameter 34 [" USER_WIDTH $end
$var reg 33 \" partial_sum_reg [32:0] $end
$scope module axis_register_down_inst $end
$var wire 1 ! clk $end
$var wire 1 ]" m_axis_tdest $end
$var wire 1 ^" m_axis_tid $end
$var wire 1 _" m_axis_tkeep $end
$var wire 1 : rst $end
$var wire 16 `" s_axis_tdata [15:0] $end
$var wire 1 a" s_axis_tdest $end
$var wire 1 b" s_axis_tid $end
$var wire 1 c" s_axis_tkeep $end
$var wire 1 =" s_axis_tlast $end
$var wire 10 d" s_axis_tuser [9:0] $end
$var wire 1 :" s_axis_tvalid $end
$var wire 1 <" s_axis_tready $end
$var wire 1 G m_axis_tvalid $end
$var wire 10 e" m_axis_tuser [9:0] $end
$var wire 1 H m_axis_tready $end
$var wire 1 I m_axis_tlast $end
$var wire 16 f" m_axis_tdata [15:0] $end
$var parameter 32 g" DATA_WIDTH $end
$var parameter 32 h" DEST_ENABLE $end
$var parameter 32 i" DEST_WIDTH $end
$var parameter 32 j" ID_ENABLE $end
$var parameter 32 k" ID_WIDTH $end
$var parameter 32 l" KEEP_ENABLE $end
$var parameter 32 m" KEEP_WIDTH $end
$var parameter 32 n" LAST_ENABLE $end
$var parameter 32 o" REG_TYPE $end
$var parameter 32 p" USER_ENABLE $end
$var parameter 34 q" USER_WIDTH $end
$scope begin genblk1 $end
$upscope $end
$upscope $end
$scope module axis_register_left_inst $end
$var wire 1 ! clk $end
$var wire 1 r" m_axis_tdest $end
$var wire 1 s" m_axis_tid $end
$var wire 1 t" m_axis_tkeep $end
$var wire 1 y m_axis_tready $end
$var wire 1 u" m_axis_tuser $end
$var wire 1 : rst $end
$var wire 1 v" s_axis_tdest $end
$var wire 1 w" s_axis_tid $end
$var wire 1 x" s_axis_tkeep $end
$var wire 1 y" s_axis_tuser $end
$var wire 1 z" s_axis_tvalid $end
$var wire 1 $" s_axis_tready $end
$var wire 1 F s_axis_tlast $end
$var wire 16 {" s_axis_tdata [15:0] $end
$var wire 1 7" m_axis_tvalid $end
$var wire 1 8" m_axis_tlast $end
$var wire 16 |" m_axis_tdata [15:0] $end
$var parameter 32 }" DATA_WIDTH $end
$var parameter 32 ~" DEST_ENABLE $end
$var parameter 32 !# DEST_WIDTH $end
$var parameter 32 "# ID_ENABLE $end
$var parameter 32 ## ID_WIDTH $end
$var parameter 32 $# KEEP_ENABLE $end
$var parameter 32 %# KEEP_WIDTH $end
$var parameter 32 &# LAST_ENABLE $end
$var parameter 32 '# REG_TYPE $end
$var parameter 32 (# USER_ENABLE $end
$var parameter 32 )# USER_WIDTH $end
$scope begin genblk1 $end
$var wire 1 *# s_axis_tready_early $end
$var reg 16 +# m_axis_tdata_reg [15:0] $end
$var reg 1 ,# m_axis_tdest_reg $end
$var reg 1 -# m_axis_tid_reg $end
$var reg 1 .# m_axis_tkeep_reg $end
$var reg 1 8" m_axis_tlast_reg $end
$var reg 1 /# m_axis_tuser_reg $end
$var reg 1 0# m_axis_tvalid_next $end
$var reg 1 1# m_axis_tvalid_reg $end
$var reg 1 $" s_axis_tready_reg $end
$var reg 1 2# store_axis_input_to_output $end
$var reg 1 3# store_axis_input_to_temp $end
$var reg 1 4# store_axis_temp_to_output $end
$var reg 16 5# temp_m_axis_tdata_reg [15:0] $end
$var reg 1 6# temp_m_axis_tdest_reg $end
$var reg 1 7# temp_m_axis_tid_reg $end
$var reg 1 8# temp_m_axis_tkeep_reg $end
$var reg 1 9# temp_m_axis_tlast_reg $end
$var reg 1 :# temp_m_axis_tuser_reg $end
$var reg 1 ;# temp_m_axis_tvalid_next $end
$var reg 1 <# temp_m_axis_tvalid_reg $end
$upscope $end
$upscope $end
$scope module axis_register_right_inst $end
$var wire 1 ! clk $end
$var wire 1 =# m_axis_tdest $end
$var wire 1 ># m_axis_tid $end
$var wire 1 ?# m_axis_tkeep $end
$var wire 1 & m_axis_tready $end
$var wire 1 @# m_axis_tuser $end
$var wire 1 : rst $end
$var wire 16 A# s_axis_tdata [15:0] $end
$var wire 1 B# s_axis_tdest $end
$var wire 1 C# s_axis_tid $end
$var wire 1 D# s_axis_tkeep $end
$var wire 1 { s_axis_tlast $end
$var wire 1 E# s_axis_tuser $end
$var wire 1 | s_axis_tvalid $end
$var wire 1 6" s_axis_tready $end
$var wire 1 B m_axis_tvalid $end
$var wire 1 C m_axis_tlast $end
$var wire 16 F# m_axis_tdata [15:0] $end
$var parameter 32 G# DATA_WIDTH $end
$var parameter 32 H# DEST_ENABLE $end
$var parameter 32 I# DEST_WIDTH $end
$var parameter 32 J# ID_ENABLE $end
$var parameter 32 K# ID_WIDTH $end
$var parameter 32 L# KEEP_ENABLE $end
$var parameter 32 M# KEEP_WIDTH $end
$var parameter 32 N# LAST_ENABLE $end
$var parameter 32 O# REG_TYPE $end
$var parameter 32 P# USER_ENABLE $end
$var parameter 32 Q# USER_WIDTH $end
$scope begin genblk1 $end
$upscope $end
$upscope $end
$scope module axis_register_up_inst $end
$var wire 1 ! clk $end
$var wire 1 R# m_axis_tdest $end
$var wire 1 S# m_axis_tid $end
$var wire 1 T# m_axis_tkeep $end
$var wire 1 3" m_axis_tready $end
$var wire 1 : rst $end
$var wire 1 U# s_axis_tdest $end
$var wire 1 V# s_axis_tid $end
$var wire 1 W# s_axis_tkeep $end
$var wire 1 X# s_axis_tvalid $end
$var wire 10 Y# s_axis_tuser [9:0] $end
$var wire 1 "" s_axis_tready $end
$var wire 1 A s_axis_tlast $end
$var wire 16 Z# s_axis_tdata [15:0] $end
$var wire 1 1" m_axis_tvalid $end
$var wire 10 [# m_axis_tuser [9:0] $end
$var wire 1 4" m_axis_tlast $end
$var wire 16 \# m_axis_tdata [15:0] $end
$var parameter 32 ]# DATA_WIDTH $end
$var parameter 32 ^# DEST_ENABLE $end
$var parameter 32 _# DEST_WIDTH $end
$var parameter 32 `# ID_ENABLE $end
$var parameter 32 a# ID_WIDTH $end
$var parameter 32 b# KEEP_ENABLE $end
$var parameter 32 c# KEEP_WIDTH $end
$var parameter 32 d# LAST_ENABLE $end
$var parameter 32 e# REG_TYPE $end
$var parameter 32 f# USER_ENABLE $end
$var parameter 34 g# USER_WIDTH $end
$scope begin genblk1 $end
$var wire 1 h# s_axis_tready_early $end
$var reg 16 i# m_axis_tdata_reg [15:0] $end
$var reg 1 j# m_axis_tdest_reg $end
$var reg 1 k# m_axis_tid_reg $end
$var reg 1 l# m_axis_tkeep_reg $end
$var reg 1 4" m_axis_tlast_reg $end
$var reg 10 m# m_axis_tuser_reg [9:0] $end
$var reg 1 n# m_axis_tvalid_next $end
$var reg 1 o# m_axis_tvalid_reg $end
$var reg 1 "" s_axis_tready_reg $end
$var reg 1 p# store_axis_input_to_output $end
$var reg 1 q# store_axis_input_to_temp $end
$var reg 1 r# store_axis_temp_to_output $end
$var reg 16 s# temp_m_axis_tdata_reg [15:0] $end
$var reg 1 t# temp_m_axis_tdest_reg $end
$var reg 1 u# temp_m_axis_tid_reg $end
$var reg 1 v# temp_m_axis_tkeep_reg $end
$var reg 1 w# temp_m_axis_tlast_reg $end
$var reg 10 x# temp_m_axis_tuser_reg [9:0] $end
$var reg 1 y# temp_m_axis_tvalid_next $end
$var reg 1 z# temp_m_axis_tvalid_reg $end
$upscope $end
$upscope $end
$scope module control_unit $end
$var wire 1 D" bypass_adder $end
$var wire 1 ! clk $end
$var wire 1 B" drop_u $end
$var wire 1 {# err_unalligned_data_int $end
$var wire 1 |# err_user_flag_int $end
$var wire 1 A" export_rslt $end
$var wire 1 }# export_rslt_int $end
$var wire 1 ~# handshake_down $end
$var wire 1 !$ handshake_right $end
$var wire 1 <" int_axis_down_tready $end
$var wire 1 :" int_axis_down_tvalid $end
$var wire 1 8" int_axis_left_tlast $end
$var wire 1 y int_axis_left_tready $end
$var wire 1 7" int_axis_left_tvalid $end
$var wire 1 6" int_axis_right_tready $end
$var wire 1 | int_axis_right_tvalid $end
$var wire 1 4" int_axis_up_tlast $end
$var wire 1 3" int_axis_up_tready $end
$var wire 10 "$ int_axis_up_tuser [9:0] $end
$var wire 1 1" int_axis_up_tvalid $end
$var wire 1 #$ op0_flag $end
$var wire 1 $$ op0_last_flag $end
$var wire 1 %$ op1_flag $end
$var wire 1 &$ op1_last_flag $end
$var wire 1 '$ op_valid $end
$var wire 1 ($ rslt_flag $end
$var wire 1 : rst $end
$var wire 1 } store_u $end
$var wire 1 ~ store_l $end
$var wire 1 )$ partial_sum_last_reg_next $end
$var wire 1 *" op_start $end
$var wire 1 ?" forward_u $end
$var wire 1 @" forward_l $end
$var wire 1 J err_user_flag $end
$var wire 1 L err_unalligned_data $end
$var wire 1 C" drop_l $end
$var parameter 3 *$ FSM_END $end
$var parameter 3 +$ FSM_ERR $end
$var parameter 3 ,$ FSM_MAC $end
$var parameter 32 -$ FSM_STATE_WIDTH $end
$var parameter 3 .$ FSM_STRL $end
$var parameter 3 /$ FSM_STRT $end
$var parameter 3 0$ FSM_STRU $end
$var parameter 40 1$ OP1_USER_MASK $end
$var parameter 32 2$ OUTPUT_DEST $end
$var parameter 32 3$ OUTPUT_ID $end
$var parameter 32 4$ PE_J_WIDTH $end
$var parameter 32 5$ PE_NUMBER_J $end
$var parameter 32 6$ PE_POSITION_J $end
$var parameter 41 7$ RSLT_USER_MASK $end
$var parameter 34 8$ USER_WIDTH $end
$var reg 1 9$ bypass_adder_reg $end
$var reg 1 C" drop_l_reg $end
$var reg 1 :$ drop_u_reg $end
$var reg 1 L err_unalligned_data_reg $end
$var reg 1 J err_user_flag_reg $end
$var reg 1 @" forward_l_reg $end
$var reg 1 ?" forward_u_reg $end
$var reg 3 ;$ fsm_state [2:0] $end
$var reg 3 <$ fsm_state_next [2:0] $end
$var reg 1 *" op_start_reg $end
$var reg 1 =$ partial_sum_last_reg $end
$var reg 1 >$ push_d_reg $end
$var reg 1 ~ store_l_reg $end
$var reg 1 } store_u_reg $end
$var reg 2 ?$ timer [-1:0] $end
$upscope $end
$upscope $end
$upscope $end
$upscope $end
$upscope $end
$upscope $end
$enddefinitions $end
$comment Show the parameter values. $end
$dumpall
b1010 8$
b1000000000 7$
b0 6$
b1 5$
b0 4$
b1 3$
b1 2$
b100000000 1$
b10 0$
b0 /$
b1 .$
b11 -$
b11 ,$
b100 +$
b101 *$
b1010 g#
b1 f#
b10 e#
b1 d#
b1 c#
b0 b#
b1 a#
b0 `#
b1 _#
b0 ^#
b10000 ]#
b1 Q#
b0 P#
b0 O#
b1 N#
b1 M#
b0 L#
b1 K#
b0 J#
b1 I#
b0 H#
b10000 G#
b1 )#
b0 (#
b10 '#
b1 &#
b1 %#
b0 $#
b1 ##
b0 "#
b1 !#
b0 ~"
b10000 }"
b1010 q"
b1 p"
b0 o"
b1 n"
b1 m"
b0 l"
b1 k"
b0 j"
b1 i"
b0 h"
b10000 g"
b1010 ["
b1000000000 Z"
b0 Y"
b0 X"
b1 W"
b1 V"
b1 U"
b1 T"
b100000000 S"
b100001 R"
b11110 Q"
b1111 P"
b100001 O"
b0 N"
b1 M"
b1101 L"
b1111 K"
b1101 J"
b10000 I"
b10000 H"
b10000 G"
b10000 F"
b10000 E"
b1111 x
b0 w
b1111 u
b0 t
b1111 s
b0 r
b0 q
b0 p
b0 o
b11111111111111111111111111111111 n
b1 m
b11111111111111111111111111111111 l
b1 k
b0 j
b0 i
b1010 g
b1000 f
b1 e
b10 d
b1000000000 c
b0 b
b1 a
b1 `
b1 _
b0 ^
b1 ]
b100000000 \
b0 [
b1 Z
b0 Y
b1 X
b0 W
b1101 V
b1111 U
b1101 T
b1 S
b0 R
b10000 Q
b10000 P
b10000 O
b10000 N
$end
#0
$dumpvars
bx ?$
x>$
0=$
b0 <$
bx ;$
x:$
09$
0)$
0($
0'$
0&$
0%$
0$$
0#$
b0 "$
0!$
0~#
x}#
0|#
0{#
0z#
0y#
b0 x#
0w#
0v#
0u#
0t#
b0 s#
0r#
0q#
0p#
0o#
0n#
b0 m#
0l#
0k#
0j#
b0 i#
1h#
b0 \#
b0 [#
b0 Z#
b1xxxxxxxx Y#
0X#
1W#
0V#
0U#
1T#
0S#
0R#
b0 F#
0E#
1D#
0C#
0B#
b0 A#
0@#
1?#
0>#
0=#
0<#
0;#
0:#
09#
08#
07#
06#
b0 5#
04#
03#
02#
01#
00#
0/#
0.#
0-#
0,#
b0 +#
1*#
b0 |"
b0 {"
0z"
0y"
1x"
0w"
0v"
0u"
1t"
0s"
0r"
b0 f"
bx000000000 e"
bx000000000 d"
1c"
0b"
0a"
b0 `"
1_"
0^"
0]"
b0 \"
1D"
xC"
xB"
xA"
x@"
1?"
b0 >"
x="
0<"
bx000000000 ;"
x:"
b0 9"
08"
07"
16"
b0 5"
04"
x3"
b0 2"
01"
b0 0"
bx000000000 /"
b0 ."
b0 -"
b0 ,"
b0 +"
x*"
b0 )"
b0 ("
b0 '"
b0 &"
b0 %"
0$"
b0 #"
0""
b1xxxxxxxx !"
x~
x}
0|
0{
b0 z
xy
0v
bx0 h
xM
xL
xK
xJ
xI
0H
xG
0F
0E
0D
0C
0B
0A
0@
0?
b0 >
x=
b0 <
x;
x:
09
08
07
bx 6
05
z4
z3
b0 2
01
bz 0
0/
z.
z-
b0 ,
0+
0*
0)
0(
0'
1&
0%
0$
0#
x"
0!
$end
#1000
1y
1@"
b0 /"
b0 e"
b0 ;"
b0 d"
0;
0=
0I
0="
03"
0G
0:"
0A"
0}#
0B"
1p#
18
1@
12#
19
1E
0K
0J
0M
0L
1*"
0>$
0:$
0C"
1}
1~
b0 ;$
1""
1$"
bx00 h
1!
#2000
0!
#3000
1v
bx <
b1xxxxxxxx /"
b1xxxxxxxx e"
b1xxxxxxxx ;"
b1xxxxxxxx d"
bx000 h
1.#
b1xxxxxxxx 2"
b1xxxxxxxx [#
b1xxxxxxxx m#
b1xxxxxxxx "$
1l#
1!
#4000
0!
#5000
0"
0:
b0 h
1!
#6000
0!
#7000
1!
#8000
0!
#9000
1!
#10000
b1 h
0!
1+
#11000
1"
1:
b1011 h
1!
#12000
0!
#13000
1r#
13"
1B"
0p#
08
0@
14#
02#
09
0E
b0 ?$
1:$
1C"
0}
0~
0""
0$"
b1111 h
1!
#14000
0!
#15000
0v
b0 <
b0 /"
b0 e"
b0 ;"
b0 d"
14#
1r#
0.#
0$"
b0 2"
b0 [#
b0 m#
b0 "$
0l#
0""
1!
#16000
0!
#17000
1r#
14#
0""
0$"
1!
#18000
0!
#19000
14#
1r#
0$"
0""
1!
#20000
b1110 h
0!
0+
#21000
1r#
14#
0""
0$"
b1100 h
1!
#22000
0!
#23000
14#
1r#
b1000 h
0$"
0""
1!
#24000
0!
#25000
1r#
14#
0"
0:
0""
0$"
b0 h
1!
#26000
0!
#27000
03"
12#
04#
1p#
0r#
0B"
18
1@
19
1E
1$"
1""
0:$
0C"
1}
1~
1!
#28000
0!
#29000
1v
bx <
b1xxxxxxxx /"
b1xxxxxxxx e"
b1xxxxxxxx ;"
b1xxxxxxxx d"
b1xxxxxxxx 2"
b1xxxxxxxx [#
b1xxxxxxxx m#
b1xxxxxxxx "$
1l#
1.#
1!
#30000
13"
10#
12#
1n#
1p#
1<"
1H
1z"
1$
1X#
1'
1*
b1000000000000000 #"
b1000000000000000 Z#
b1000000000000000 2
b1000000000000000 %"
b1000000000000000 {"
b1000000000000000 ,
1D
11
1?
17
0!
b110111110 !"
b110111110 Y#
b10111110 6
#31000
b11 <$
1~#
1#
b1111000000000000000000000000000 ("
1%
1!$
b10111110 <
1h#
1G
1:"
0D"
1B
1|
b110111110 /"
b110111110 e"
b110111110 ;"
b110111110 d"
b1 >
b1111000000000000000000000000000 '"
b1111000000000000000000000000000 +"
b1111000000000000 -"
12#
1'$
b1000000000000000 0"
b1000000000000000 f"
b1000000000000000 >"
b1000000000000000 `"
0q#
0y#
1%$
b1111000000000000 ."
b1111000000000000 F#
b1111000000000000 z
b1111000000000000 A#
b1111000000000000 9"
b1111000000000000 |"
b1111000000000000 +#
1#$
17"
11#
b110111110 2"
b110111110 [#
b110111110 m#
b110111110 "$
b1000000000000000 ,"
b1000000000000000 5"
b1000000000000000 \#
b1000000000000000 i#
11"
1o#
1p#
1n#
13"
1<"
1H
0*
b1111000000000000 %"
b1111000000000000 {"
b1111000000000000 ,
1!
#32000
0!
#33000
b1111000000000001000000000000000 ("
b1111000000000000000000000000000 )"
b1111000000000001000000000000000 '"
b1000000000000000 +"
b1 -"
b1111000000000000 &"
0*"
b11 ;$
b1 ."
b1 F#
b1 z
b1 A#
b1 9"
b1 |"
b1 +#
b1111000000000000000000000000000 \"
1*
b1 %"
b1 {"
b1 ,
1!
#34000
0!
#35000
b10000000000000001000000000000000 ("
b1111000000000001000000000000000 )"
b1111000000000001 &"
b10000000000000001000000000000000 '"
b1000000000000000000000000000 +"
b1000000000000 -"
b1111000000000001000000000000000 \"
b1000000000000 ."
b1000000000000 F#
b1000000000000 z
b1000000000000 A#
b1000000000000 9"
b1000000000000 |"
b1000000000000 +#
0*
b1000000000000 %"
b1000000000000 {"
b1000000000000 ,
1!
#36000
0!
#37000
b11000000000000001000000000000000 ("
b1000000000000000000000000000000 +"
b1000000000000000 -"
b11000000000000001000000000000000 '"
b10000000000000001000000000000000 )"
b1 &"
b1000000000000000 ."
b1000000000000000 F#
b1000000000000000 z
b1000000000000000 A#
b1000000000000000 9"
b1000000000000000 |"
b1000000000000000 +#
b10000000000000001000000000000000 \"
1*
b1000000000000000 %"
b1000000000000000 {"
b1000000000000000 ,
1!
#38000
0!
#39000
b11000000000000001000000000000000 )"
b1000000000000001 &"
b1111000000000000 0"
b1111000000000000 f"
b1111000000000000 >"
b1111000000000000 `"
b100111000000000001000000000000000 ("
b11000000000000001000000000000000 \"
b100111000000000001000000000000000 '"
b1111000000000000000000000000000 +"
b1111000000000000 ,"
b1111000000000000 5"
b1111000000000000 \#
b1111000000000000 i#
0*
b1111000000000000 #"
b1111000000000000 Z#
b1111000000000000 2
1!
#40000
0!
#41000
b11001000000001000000000000000 ("
b11100001000000000000000000000000 +"
b1111000000000000 -"
b11001000000001000000000000000 '"
b100111000000000001000000000000000 )"
b111000000000001 &"
b1111000000000000 ."
b1111000000000000 F#
b1111000000000000 z
b1111000000000000 A#
b1111000000000000 9"
b1111000000000000 |"
b1111000000000000 +#
b100111000000000001000000000000000 \"
1*
b1111000000000000 %"
b1111000000000000 {"
b1111000000000000 ,
1!
#42000
0!
#43000
b11001000000010111000000000000 ("
b11001000000001000000000000000 )"
b11001000000001 &"
b11001000000010111000000000000 '"
b1111000000000000 +"
b1 -"
b11001000000001000000000000000 \"
b1 ."
b1 F#
b1 z
b1 A#
b1 9"
b1 |"
b1 +#
0*
b1 %"
b1 {"
b1 ,
1!
#44000
0!
#45000
b101000000000010111000000000000 ("
b1111000000000000000000000000 +"
b1000000000000 -"
b101000000000010111000000000000 '"
b11001000000010111000000000000 )"
b11001000000010 &"
b1000000000000 ."
b1000000000000 F#
b1000000000000 z
b1000000000000 A#
b1000000000000 9"
b1000000000000 |"
b1000000000000 +#
b11001000000010111000000000000 \"
1*
b1000000000000 %"
b1000000000000 {"
b1000000000000 ,
1!
#46000
0!
#47000
b10100000000000010111000000000000 ("
b101000000000010111000000000000 )"
b101000000000010 &"
b10100000000000010111000000000000 '"
b1111000000000000000000000000000 +"
b1000000000000000 -"
b101000000000010111000000000000 \"
b1000000000000000 ."
b1000000000000000 F#
b1000000000000000 z
b1000000000000000 A#
b1000000000000000 9"
b1000000000000000 |"
b1000000000000000 +#
0*
b1000000000000000 %"
b1000000000000000 {"
b1000000000000000 ,
1!
#48000
0!
#49000
b0 >
b1 0"
b1 f"
b1 >"
b1 `"
b10100000000000011111000000000000 ("
b10100000000000010111000000000000 )"
b100000000000010 &"
b10100000000000011111000000000000 '"
b1000000000000000 +"
b1 ,"
b1 5"
b1 \#
b1 i#
b10100000000000010111000000000000 \"
1*
b1 #"
b1 Z#
b1 2
1!
#50000
0!
#51000
b10100000000000101110000000000000 ("
b10100000000000011111000000000000 )"
b100000000000011 &"
b10100000000000101110000000000000 '"
b1111000000000000 +"
b1111000000000000 -"
b10100000000000011111000000000000 \"
b1111000000000000 ."
b1111000000000000 F#
b1111000000000000 z
b1111000000000000 A#
b1111000000000000 9"
b1111000000000000 |"
b1111000000000000 +#
0*
b1111000000000000 %"
b1111000000000000 {"
b1111000000000000 ,
1!
#52000
0!
#53000
b10100000000000101110000000000001 ("
b1 +"
b1 -"
b10100000000000101110000000000001 '"
b10100000000000101110000000000000 )"
b100000000000101 &"
b1 ."
b1 F#
b1 z
b1 A#
b1 9"
b1 |"
b1 +#
b10100000000000101110000000000000 \"
1*
b1 %"
b1 {"
b1 ,
1!
#54000
0!
#55000
b10100000000000101111000000000001 ("
b10100000000000101110000000000001 )"
b10100000000000101111000000000001 '"
b1000000000000 +"
b1000000000000 -"
b10100000000000101110000000000001 \"
b1000000000000 ."
b1000000000000 F#
b1000000000000 z
b1000000000000 A#
b1000000000000 9"
b1000000000000 |"
b1000000000000 +#
0*
b1000000000000 %"
b1000000000000 {"
b1000000000000 ,
1!
#56000
0!
#57000
b10100000000000110111000000000001 ("
b1000000000000000 +"
b1000000000000000 -"
b10100000000000110111000000000001 '"
b10100000000000101111000000000001 )"
b1000000000000000 ."
b1000000000000000 F#
b1000000000000000 z
b1000000000000000 A#
b1000000000000000 9"
b1000000000000000 |"
b1000000000000000 +#
b10100000000000101111000000000001 \"
1*
b1000000000000000 %"
b1000000000000000 {"
b1000000000000000 ,
1!
#58000
0!
#59000
b10100000000000110111000000000001 )"
b100000000000110 &"
b1000000000000 0"
b1000000000000 f"
b1000000000000 >"
b1000000000000 `"
b10101000000000110111000000000001 ("
b10100000000000110111000000000001 \"
b10101000000000110111000000000001 '"
b1000000000000000000000000000 +"
b1000000000000 ,"
b1000000000000 5"
b1000000000000 \#
b1000000000000 i#
0*
b1000000000000 #"
b1000000000000 Z#
b1000000000000 2
1!
#60000
0!
