vcd/tb_LinearProcessingArray.vcd
$date
	Tue Nov  5 14:22:04 2024
$end
$version
	Icarus Verilog
$end
$timescale
	1ps
$end
$scope module tb_LinearProcessingArray $end
$scope module uut $end
$var wire 1 ! clk $end
$var wire 1 " core_rst $end
$var wire 1 # int_axis_down_handshake $end
$var wire 1 $ int_axis_left_handshake $end
$var wire 1 % int_axis_right_handshake $end
$var wire 1 & int_axis_right_tready $end
$var wire 1 ' int_axis_up_handshake $end
$var wire 1 ( m_axis_down_tdest $end
$var wire 1 ) m_axis_down_tid $end
$var wire 1 * m_axis_down_tready $end
$var wire 1 + rst $end
$var wire 16 , s_axis_left_tdata [15:0] $end
$var wire 1 - s_axis_left_tdest $end
$var wire 1 . s_axis_left_tid $end
$var wire 1 / s_axis_left_tlast $end
$var wire 8 0 s_axis_left_tuser [7:0] $end
$var wire 1 1 s_axis_left_tvalid $end
$var wire 16 2 s_axis_up_tdata [15:0] $end
$var wire 1 3 s_axis_up_tdest $end
$var wire 1 4 s_axis_up_tid $end
$var wire 1 5 s_axis_up_tlast $end
$var wire 8 6 s_axis_up_tuser [7:0] $end
$var wire 1 7 s_axis_up_tvalid $end
$var wire 1 8 s_axis_up_tready $end
$var wire 1 9 s_axis_left_tready $end
$var wire 1 : rst_int $end
$var wire 1 ; m_axis_down_tvalid $end
$var wire 8 < m_axis_down_tuser [7:0] $end
$var wire 1 = m_axis_down_tlast $end
$var wire 16 > m_axis_down_tdata [15:0] $end
$var wire 1 ? int_axis_up_tvalid $end
$var wire 1 @ int_axis_up_tready $end
$var wire 1 A int_axis_up_tlast $end
$var wire 1 B int_axis_right_tvalid $end
$var wire 1 C int_axis_right_tlast $end
$var wire 1 D int_axis_left_tvalid $end
$var wire 1 E int_axis_left_tready $end
$var wire 1 F int_axis_left_tlast $end
$var wire 1 G int_axis_down_tvalid $end
$var wire 1 H int_axis_down_tready $end
$var wire 1 I int_axis_down_tlast $end
$var wire 1 J err_user_flag_int $end
$var wire 1 K err_user_flag $end
$var wire 1 L err_unalligned_data_int $end
$var wire 1 M err_unalligned_data $end
$var parameter 32 N DATA_WIDTH_L_R $end
$var parameter 32 O DATA_WIDTH_OP0 $end
$var parameter 32 P DATA_WIDTH_OP1 $end
$var parameter 32 Q DATA_WIDTH_RSLT $end
$var parameter 32 R DATA_WIDTH_U_D $end
$var parameter 32 S DEST_ENABLE $end
$var parameter 32 T DEST_WIDTH $end
$var parameter 32 U FRACTIONAL_BITS_OP0 $end
$var parameter 32 V FRACTIONAL_BITS_OP1 $end
$var parameter 32 W FRACTIONAL_BITS_RSLT $end
$var parameter 32 X ID_ENABLE $end
$var parameter 32 Y ID_WIDTH $end
$var parameter 32 Z INTERNAL_RESET $end
$var parameter 32 [ IS_UNSIGNED_OP0 $end
$var parameter 32 \ IS_UNSIGNED_OP1 $end
$var parameter 10 ] OP1_USER_MASK $end
$var parameter 2 ^ OP1_USER_MASK_R $end
$var parameter 32 _ OUTPUT_DEST $end
$var parameter 32 ` OUTPUT_ID $end
$var parameter 32 a PE_NUMBER_I $end
$var parameter 32 b PE_NUMBER_J $end
$var parameter 32 c PE_WIDTH_J $end
$var parameter 10 d RSLT_USER_MASK $end
$var parameter 2 e RSLT_USER_MASK_R $end
$var parameter 32 f USER_ENABLE $end
$var parameter 32 g USER_WIDTH $end
$var parameter 34 h USER_WIDTH_INT $end
$var reg 4 i rst_pipeline [3:0] $end
$scope begin genblk1[0] $end
$var parameter 2 j pe_pos_j $end
$scope begin genblk1[0] $end
$var parameter 32 k NODE $end
$var parameter 32 l NODE_D $end
$var parameter 32 m NODE_L $end
$var parameter 32 n NODE_R $end
$var parameter 32 o NODE_U $end
$var parameter 32 p PE_POSITION_I $end
$var parameter 32 q PE_POSITION_J $end
$var parameter 2 r pe_pos_i $end
$scope begin genblk1 $end
$upscope $end
$scope begin genblk2 $end
$upscope $end
$scope begin genblk3 $end
$upscope $end
$scope begin genblk4 $end
$var wire 1 s op1_flag_match $end
$upscope $end
$scope module LPE_ij $end
$var wire 1 ! clk $end
$var wire 1 t int_axis_left_tready $end
$var wire 16 u int_axis_right_tdata [15:0] $end
$var wire 1 v int_axis_right_tlast $end
$var wire 1 w int_axis_right_tvalid $end
$var wire 1 & m_axis_right_tready $end
$var wire 1 : rst $end
$var wire 1 E s_axis_left_tready $end
$var wire 1 @ s_axis_up_tready $end
$var wire 1 x store_u $end
$var wire 1 y store_l $end
$var wire 1 ? s_axis_up_tvalid $end
$var wire 10 z s_axis_up_tuser [9:0] $end
$var wire 1 { s_axis_up_tready_int $end
$var wire 1 A s_axis_up_tlast $end
$var wire 16 | s_axis_up_tdata [15:0] $end
$var wire 1 D s_axis_left_tvalid $end
$var wire 1 } s_axis_left_tready_int $end
$var wire 1 F s_axis_left_tlast $end
$var wire 16 ~ s_axis_left_tdata [15:0] $end
$var wire 16 !" rslt [15:0] $end
$var wire 33 "" partial_sum_rslt [32:0] $end
$var wire 33 #" partial_sum_reg_next [32:0] $end
$var wire 33 $" partial_sum_fb [32:0] $end
$var wire 1 %" op_start $end
$var wire 33 &" mult_res [32:0] $end
$var wire 16 '" mult_op1 [15:0] $end
$var wire 16 (" mult_op0 [15:0] $end
$var wire 1 B m_axis_right_tvalid $end
$var wire 1 C m_axis_right_tlast $end
$var wire 16 )" m_axis_right_tdata [15:0] $end
$var wire 1 G m_axis_down_tvalid $end
$var wire 10 *" m_axis_down_tuser [9:0] $end
$var wire 1 H m_axis_down_tready $end
$var wire 1 I m_axis_down_tlast $end
$var wire 16 +" m_axis_down_tdata [15:0] $end
$var wire 1 ," int_axis_up_tvalid $end
$var wire 10 -" int_axis_up_tuser [9:0] $end
$var wire 1 ." int_axis_up_tready $end
$var wire 1 /" int_axis_up_tlast $end
$var wire 16 0" int_axis_up_tdata [15:0] $end
$var wire 1 1" int_axis_right_tready $end
$var wire 1 2" int_axis_left_tvalid $end
$var wire 1 3" int_axis_left_tlast $end
$var wire 16 4" int_axis_left_tdata [15:0] $end
$var wire 1 5" int_axis_down_tvalid $end
$var wire 10 6" int_axis_down_tuser [9:0] $end
$var wire 1 7" int_axis_down_tready $end
$var wire 1 8" int_axis_down_tlast $end
$var wire 16 9" int_axis_down_tdata [15:0] $end
$var wire 1 :" forward_u $end
$var wire 1 ;" forward_l $end
$var wire 1 <" export_rslt $end
$var wire 1 J err_user_flag $end
$var wire 1 L err_unalligned_data $end
$var wire 1 =" drop_u $end
$var wire 1 >" drop_l $end
$var wire 1 ?" bypass_adder $end
$var parameter 32 @" DATA_WIDTH_L_R $end
$var parameter 32 A" DATA_WIDTH_OP0 $end
$var parameter 32 B" DATA_WIDTH_OP1 $end
$var parameter 32 C" DATA_WIDTH_RSLT $end
$var parameter 32 D" DATA_WIDTH_U_D $end
$var parameter 32 E" FRACTIONAL_BITS_OP0 $end
$var parameter 32 F" FRACTIONAL_BITS_OP1 $end
$var parameter 32 G" FRACTIONAL_BITS_RSLT $end
$var parameter 32 H" IS_UNSIGNED_OP0 $end
$var parameter 32 I" IS_UNSIGNED_OP1 $end
$var parameter 35 J" MAC_OP_SIZE $end
$var parameter 34 K" MAC_RSLT_LSB $end
$var parameter 36 L" MAC_RSLT_MSB $end
$var parameter 35 M" MLT_OP_SIZE $end
$var parameter 40 N" OP1_USER_MASK $end
$var parameter 32 O" OUTPUT_DEST $end
$var parameter 32 P" OUTPUT_ID $end
$var parameter 32 Q" PE_NUMBER_I $end
$var parameter 32 R" PE_NUMBER_J $end
$var parameter 32 S" PE_POSITION_I $end
$var parameter 32 T" PE_POSITION_J $end
$var parameter 41 U" RSLT_USER_MASK $end
$var parameter 34 V" USER_WIDTH $end
$var reg 33 W" partial_sum_reg [32:0] $end
$scope module axis_register_down_inst $end
$var wire 1 ! clk $end
$var wire 1 X" m_axis_tdest $end
$var wire 1 Y" m_axis_tid $end
$var wire 1 Z" m_axis_tkeep $end
$var wire 1 : rst $end
$var wire 16 [" s_axis_tdata [15:0] $end
$var wire 1 \" s_axis_tdest $end
$var wire 1 ]" s_axis_tid $end
$var wire 1 ^" s_axis_tkeep $end
$var wire 1 8" s_axis_tlast $end
$var wire 10 _" s_axis_tuser [9:0] $end
$var wire 1 5" s_axis_tvalid $end
$var wire 1 7" s_axis_tready $end
$var wire 1 G m_axis_tvalid $end
$var wire 10 `" m_axis_tuser [9:0] $end
$var wire 1 H m_axis_tready $end
$var wire 1 I m_axis_tlast $end
$var wire 16 a" m_axis_tdata [15:0] $end
$var parameter 32 b" DATA_WIDTH $end
$var parameter 32 c" DEST_ENABLE $end
$var parameter 32 d" DEST_WIDTH $end
$var parameter 32 e" ID_ENABLE $end
$var parameter 32 f" ID_WIDTH $end
$var parameter 32 g" KEEP_ENABLE $end
$var parameter 32 h" KEEP_WIDTH $end
$var parameter 32 i" LAST_ENABLE $end
$var parameter 32 j" REG_TYPE $end
$var parameter 32 k" USER_ENABLE $end
$var parameter 34 l" USER_WIDTH $end
$scope begin genblk1 $end
$upscope $end
$upscope $end
$scope module axis_register_left_inst $end
$var wire 1 ! clk $end
$var wire 1 m" m_axis_tdest $end
$var wire 1 n" m_axis_tid $end
$var wire 1 o" m_axis_tkeep $end
$var wire 1 t m_axis_tready $end
$var wire 1 p" m_axis_tuser $end
$var wire 1 : rst $end
$var wire 1 q" s_axis_tdest $end
$var wire 1 r" s_axis_tid $end
$var wire 1 s" s_axis_tkeep $end
$var wire 1 t" s_axis_tuser $end
$var wire 1 u" s_axis_tvalid $end
$var wire 1 } s_axis_tready $end
$var wire 1 F s_axis_tlast $end
$var wire 16 v" s_axis_tdata [15:0] $end
$var wire 1 2" m_axis_tvalid $end
$var wire 1 3" m_axis_tlast $end
$var wire 16 w" m_axis_tdata [15:0] $end
$var parameter 32 x" DATA_WIDTH $end
$var parameter 32 y" DEST_ENABLE $end
$var parameter 32 z" DEST_WIDTH $end
$var parameter 32 {" ID_ENABLE $end
$var parameter 32 |" ID_WIDTH $end
$var parameter 32 }" KEEP_ENABLE $end
$var parameter 32 ~" KEEP_WIDTH $end
$var parameter 32 !# LAST_ENABLE $end
$var parameter 32 "# REG_TYPE $end
$var parameter 32 ## USER_ENABLE $end
$var parameter 32 $# USER_WIDTH $end
$scope begin genblk1 $end
$var wire 1 %# s_axis_tready_early $end
$var reg 16 &# m_axis_tdata_reg [15:0] $end
$var reg 1 '# m_axis_tdest_reg $end
$var reg 1 (# m_axis_tid_reg $end
$var reg 1 )# m_axis_tkeep_reg $end
$var reg 1 3" m_axis_tlast_reg $end
$var reg 1 *# m_axis_tuser_reg $end
$var reg 1 +# m_axis_tvalid_next $end
$var reg 1 ,# m_axis_tvalid_reg $end
$var reg 1 } s_axis_tready_reg $end
$var reg 1 -# store_axis_input_to_output $end
$var reg 1 .# store_axis_input_to_temp $end
$var reg 1 /# store_axis_temp_to_output $end
$var reg 16 0# temp_m_axis_tdata_reg [15:0] $end
$var reg 1 1# temp_m_axis_tdest_reg $end
$var reg 1 2# temp_m_axis_tid_reg $end
$var reg 1 3# temp_m_axis_tkeep_reg $end
$var reg 1 4# temp_m_axis_tlast_reg $end
$var reg 1 5# temp_m_axis_tuser_reg $end
$var reg 1 6# temp_m_axis_tvalid_next $end
$var reg 1 7# temp_m_axis_tvalid_reg $end
$upscope $end
$upscope $end
$scope module axis_register_right_inst $end
$var wire 1 ! clk $end
$var wire 1 8# m_axis_tdest $end
$var wire 1 9# m_axis_tid $end
$var wire 1 :# m_axis_tkeep $end
$var wire 1 & m_axis_tready $end
$var wire 1 ;# m_axis_tuser $end
$var wire 1 : rst $end
$var wire 16 <# s_axis_tdata [15:0] $end
$var wire 1 =# s_axis_tdest $end
$var wire 1 ># s_axis_tid $end
$var wire 1 ?# s_axis_tkeep $end
$var wire 1 v s_axis_tlast $end
$var wire 1 @# s_axis_tuser $end
$var wire 1 w s_axis_tvalid $end
$var wire 1 1" s_axis_tready $end
$var wire 1 B m_axis_tvalid $end
$var wire 1 C m_axis_tlast $end
$var wire 16 A# m_axis_tdata [15:0] $end
$var parameter 32 B# DATA_WIDTH $end
$var parameter 32 C# DEST_ENABLE $end
$var parameter 32 D# DEST_WIDTH $end
$var parameter 32 E# ID_ENABLE $end
$var parameter 32 F# ID_WIDTH $end
$var parameter 32 G# KEEP_ENABLE $end
$var parameter 32 H# KEEP_WIDTH $end
$var parameter 32 I# LAST_ENABLE $end
$var parameter 32 J# REG_TYPE $end
$var parameter 32 K# USER_ENABLE $end
$var parameter 32 L# USER_WIDTH $end
$scope begin genblk1 $end
$upscope $end
$upscope $end
$scope module axis_register_up_inst $end
$var wire 1 ! clk $end
$var wire 1 M# m_axis_tdest $end
$var wire 1 N# m_axis_tid $end
$var wire 1 O# m_axis_tkeep $end
$var wire 1 ." m_axis_tready $end
$var wire 1 : rst $end
$var wire 1 P# s_axis_tdest $end
$var wire 1 Q# s_axis_tid $end
$var wire 1 R# s_axis_tkeep $end
$var wire 1 S# s_axis_tvalid $end
$var wire 10 T# s_axis_tuser [9:0] $end
$var wire 1 { s_axis_tready $end
$var wire 1 A s_axis_tlast $end
$var wire 16 U# s_axis_tdata [15:0] $end
$var wire 1 ," m_axis_tvalid $end
$var wire 10 V# m_axis_tuser [9:0] $end
$var wire 1 /" m_axis_tlast $end
$var wire 16 W# m_axis_tdata [15:0] $end
$var parameter 32 X# DATA_WIDTH $end
$var parameter 32 Y# DEST_ENABLE $end
$var parameter 32 Z# DEST_WIDTH $end
$var parameter 32 [# ID_ENABLE $end
$var parameter 32 \# ID_WIDTH $end
$var parameter 32 ]# KEEP_ENABLE $end
$var parameter 32 ^# KEEP_WIDTH $end
$var parameter 32 _# LAST_ENABLE $end
$var parameter 32 `# REG_TYPE $end
$var parameter 32 a# USER_ENABLE $end
$var parameter 34 b# USER_WIDTH $end
$scope begin genblk1 $end
$var wire 1 c# s_axis_tready_early $end
$var reg 16 d# m_axis_tdata_reg [15:0] $end
$var reg 1 e# m_axis_tdest_reg $end
$var reg 1 f# m_axis_tid_reg $end
$var reg 1 g# m_axis_tkeep_reg $end
$var reg 1 /" m_axis_tlast_reg $end
$var reg 10 h# m_axis_tuser_reg [9:0] $end
$var reg 1 i# m_axis_tvalid_next $end
$var reg 1 j# m_axis_tvalid_reg $end
$var reg 1 { s_axis_tready_reg $end
$var reg 1 k# store_axis_input_to_output $end
$var reg 1 l# store_axis_input_to_temp $end
$var reg 1 m# store_axis_temp_to_output $end
$var reg 16 n# temp_m_axis_tdata_reg [15:0] $end
$var reg 1 o# temp_m_axis_tdest_reg $end
$var reg 1 p# temp_m_axis_tid_reg $end
$var reg 1 q# temp_m_axis_tkeep_reg $end
$var reg 1 r# temp_m_axis_tlast_reg $end
$var reg 10 s# temp_m_axis_tuser_reg [9:0] $end
$var reg 1 t# temp_m_axis_tvalid_next $end
$var reg 1 u# temp_m_axis_tvalid_reg $end
$upscope $end
$upscope $end
$scope module control_unit $end
$var wire 1 ?" bypass_adder $end
$var wire 1 ! clk $end
$var wire 1 =" drop_u $end
$var wire 1 v# err_unalligned_data_int $end
$var wire 1 w# err_user_flag_int $end
$var wire 1 <" export_rslt $end
$var wire 1 x# export_rslt_int $end
$var wire 1 y# handshake_down $end
$var wire 1 z# handshake_right $end
$var wire 1 7" int_axis_down_tready $end
$var wire 1 5" int_axis_down_tvalid $end
$var wire 1 3" int_axis_left_tlast $end
$var wire 1 t int_axis_left_tready $end
$var wire 1 2" int_axis_left_tvalid $end
$var wire 1 1" int_axis_right_tready $end
$var wire 1 w int_axis_right_tvalid $end
$var wire 1 /" int_axis_up_tlast $end
$var wire 1 ." int_axis_up_tready $end
$var wire 10 {# int_axis_up_tuser [9:0] $end
$var wire 1 ," int_axis_up_tvalid $end
$var wire 1 |# op0_flag $end
$var wire 1 }# op0_last_flag $end
$var wire 1 ~# op1_flag $end
$var wire 1 !$ op1_last_flag $end
$var wire 1 "$ op_valid $end
$var wire 1 #$ rslt_flag $end
$var wire 1 : rst $end
$var wire 1 x store_u $end
$var wire 1 y store_l $end
$var wire 1 $$ partial_sum_last_reg_next $end
$var wire 1 %" op_start $end
$var wire 1 :" forward_u $end
$var wire 1 ;" forward_l $end
$var wire 1 J err_user_flag $end
$var wire 1 L err_unalligned_data $end
$var wire 1 >" drop_l $end
$var parameter 3 %$ FSM_END $end
$var parameter 3 &$ FSM_ERR $end
$var parameter 3 '$ FSM_MAC $end
$var parameter 32 ($ FSM_STATE_WIDTH $end
$var parameter 3 )$ FSM_STRL $end
$var parameter 3 *$ FSM_STRT $end
$var parameter 3 +$ FSM_STRU $end
$var parameter 40 ,$ OP1_USER_MASK $end
$var parameter 32 -$ OUTPUT_DEST $end
$var parameter 32 .$ OUTPUT_ID $end
$var parameter 32 /$ PE_J_WIDTH $end
$var parameter 32 0$ PE_NUMBER_J $end
$var parameter 32 1$ PE_POSITION_J $end
$var parameter 41 2$ RSLT_USER_MASK $end
$var parameter 34 3$ USER_WIDTH $end
$var reg 1 4$ bypass_adder_reg $end
$var reg 1 >" drop_l_reg $end
$var reg 1 5$ drop_u_reg $end
$var reg 1 L err_unalligned_data_reg $end
$var reg 1 J err_user_flag_reg $end
$var reg 1 ;" forward_l_reg $end
$var reg 1 :" forward_u_reg $end
$var reg 3 6$ fsm_state [2:0] $end
$var reg 3 7$ fsm_state_next [2:0] $end
$var reg 1 %" op_start_reg $end
$var reg 1 8$ partial_sum_last_reg $end
$var reg 1 9$ push_d_reg $end
$var reg 1 y store_l_reg $end
$var reg 1 x store_u_reg $end
$var reg 2 :$ timer [-1:0] $end
$upscope $end
$upscope $end
$upscope $end
$upscope $end
$upscope $end
$upscope $end
$enddefinitions $end
$comment Show the parameter values. $end
$dumpall
b1010 3$
b1000000000 2$
b0 1$
b1 0$
b0 /$
b1 .$
b1 -$
b100000000 ,$
b10 +$
b0 *$
b1 )$
b11 ($
b11 '$
b100 &$
b101 %$
b1010 b#
b1 a#
b10 `#
b1 _#
b1 ^#
b0 ]#
b1 \#
b0 [#
b1 Z#
b0 Y#
b10000 X#
b1 L#
b0 K#
b0 J#
b1 I#
b1 H#
b0 G#
b1 F#
b0 E#
b1 D#
b0 C#
b10000 B#
b1 $#
b0 ##
b10 "#
b1 !#
b1 ~"
b0 }"
b1 |"
b0 {"
b1 z"
b0 y"
b10000 x"
b1010 l"
b1 k"
b0 j"
b1 i"
b1 h"
b0 g"
b1 f"
b0 e"
b1 d"
b0 c"
b10000 b"
b1010 V"
b1000000000 U"
b0 T"
b0 S"
b1 R"
b1 Q"
b1 P"
b1 O"
b100000000 N"
b100001 M"
b11110 L"
b1111 K"
b100001 J"
b0 I"
b1 H"
b1101 G"
b1111 F"
b1101 E"
b10000 D"
b10000 C"
b10000 B"
b10000 A"
b10000 @"
b0 r
b0 q
b0 p
b11111111111111111111111111111111 o
b1 n
b11111111111111111111111111111111 m
b1 l
b0 k
b0 j
b1010 h
b1000 g
b1 f
b10 e
b1000000000 d
b0 c
b1 b
b1 a
b1 `
b0 _
b1 ^
b100000000 ]
b0 \
b1 [
b0 Z
b1 Y
b0 X
b1101 W
b1111 V
b1101 U
b1 T
b0 S
b10000 R
b10000 Q
b10000 P
b10000 O
b10000 N
$end
#0
$dumpvars
bx :$
x9$
08$
b0 7$
bx 6$
x5$
04$
0$$
0#$
0"$
0!$
0~#
0}#
0|#
b0 {#
0z#
0y#
xx#
0w#
0v#
0u#
0t#
b0 s#
0r#
0q#
0p#
0o#
b0 n#
0m#
0l#
0k#
0j#
0i#
b0 h#
0g#
0f#
0e#
b0 d#
1c#
b0 W#
b0 V#
b0 U#
b1xxxxxxxx T#
0S#
1R#
0Q#
0P#
1O#
0N#
0M#
b0 A#
0@#
1?#
0>#
0=#
b0 <#
0;#
1:#
09#
08#
07#
06#
05#
04#
03#
02#
01#
b0 0#
0/#
0.#
0-#
0,#
0+#
0*#
0)#
0(#
0'#
b0 &#
1%#
b0 w"
b0 v"
0u"
0t"
1s"
0r"
0q"
0p"
1o"
0n"
0m"
b0 a"
bx000000000 `"
bx000000000 _"
1^"
0]"
0\"
b0 ["
1Z"
0Y"
0X"
b0 W"
1?"
x>"
x="
x<"
x;"
1:"
b0 9"
x8"
07"
bx000000000 6"
x5"
b0 4"
03"
02"
11"
b0 0"
0/"
x."
b0 -"
0,"
b0 +"
bx000000000 *"
b0 )"
b0 ("
b0 '"
b0 &"
x%"
b0 $"
b0 #"
b0 ""
b0 !"
b0 ~
0}
b0 |
0{
b1xxxxxxxx z
xy
xx
0w
0v
b0 u
xt
0s
bx0 i
xM
xL
xK
xJ
xI
0H
xG
0F
0E
0D
0C
0B
0A
0@
0?
b0 >
x=
b0 <
x;
x:
09
08
07
bx 6
05
z4
z3
b0 2
01
bz 0
0/
z.
z-
b0 ,
0+
0*
0)
0(
0'
1&
0%
0$
0#
x"
0!
$end
#1000
1t
1;"
b0 *"
b0 `"
b0 6"
b0 _"
0;
0=
0I
08"
0."
0G
05"
0<"
0x#
0="
1k#
18
1@
1-#
19
1E
0K
0J
0M
0L
1%"
09$
05$
0>"
1x
1y
b0 6$
1{
1}
bx00 i
1!
#2000
0!
#3000
1s
bx <
b1xxxxxxxx *"
b1xxxxxxxx `"
b1xxxxxxxx 6"
b1xxxxxxxx _"
bx000 i
1)#
b1xxxxxxxx -"
b1xxxxxxxx V#
b1xxxxxxxx h#
b1xxxxxxxx {#
1g#
1!
#4000
0!
#5000
0"
0:
b0 i
1!
#6000
0!
#7000
1!
#8000
0!
#9000
1!
#10000
b1 i
0!
1+
#11000
1"
1:
b1011 i
1!
#12000
0!
#13000
1m#
1."
1="
0k#
08
0@
1/#
0-#
09
0E
b0 :$
15$
1>"
0x
0y
0{
0}
b1111 i
1!
#14000
0!
#15000
0s
b0 <
b0 *"
b0 `"
b0 6"
b0 _"
1/#
1m#
0)#
0}
b0 -"
b0 V#
b0 h#
b0 {#
0g#
0{
1!
#16000
0!
#17000
1m#
1/#
0{
0}
1!
#18000
0!
#19000
1/#
1m#
0}
0{
1!
#20000
b1110 i
0!
0+
#21000
1m#
1/#
0{
0}
b1100 i
1!
#22000
0!
#23000
1/#
1m#
b1000 i
0}
0{
1!
#24000
0!
#25000
1m#
1/#
0"
0:
0{
0}
b0 i
1!
#26000
0!
#27000
0."
1-#
0/#
1k#
0m#
0="
18
1@
19
1E
1}
1{
05$
0>"
1x
1y
1!
#28000
0!
#29000
1s
bx <
b1xxxxxxxx *"
b1xxxxxxxx `"
b1xxxxxxxx 6"
b1xxxxxxxx _"
b1xxxxxxxx -"
b1xxxxxxxx V#
b1xxxxxxxx h#
b1xxxxxxxx {#
1g#
1)#
1!
#30000
1."
1+#
1-#
1i#
1k#
17"
1H
1u"
1$
1S#
1'
1*
b1000000000000000 |
b1000000000000000 U#
b1000000000000000 2
b1000000000000000 ~
b1000000000000000 v"
b1000000000000000 ,
1D
11
1?
17
0!
b110111110 z
b110111110 T#
b10111110 6
#31000
b11 7$
1y#
1#
b1111000000000000000000000000000 #"
1%
1z#
b10111110 <
1c#
1G
15"
0?"
1B
1w
b110111110 *"
b110111110 `"
b110111110 6"
b110111110 _"
b1111000000000000000000000000000 ""
b1111000000000000000000000000000 &"
b1111000000000000 ("
1-#
1"$
b1000000000000000 >
b1000000000000000 +"
b1000000000000000 a"
b1000000000000000 9"
b1000000000000000 ["
0l#
0t#
1~#
b1111000000000000 )"
b1111000000000000 A#
b1111000000000000 u
b1111000000000000 <#
b1111000000000000 4"
b1111000000000000 w"
b1111000000000000 &#
1|#
12"
1,#
b110111110 -"
b110111110 V#
b110111110 h#
b110111110 {#
b1000000000000000 '"
b1000000000000000 0"
b1000000000000000 W#
b1000000000000000 d#
1,"
1j#
1k#
1i#
1."
17"
1H
0*
b1111000000000000 ~
b1111000000000000 v"
b1111000000000000 ,
1!
#32000
0!
#33000
b1111000000000001000000000000000 #"
b1111000000000000000000000000000 $"
b1111000000000001000000000000000 ""
b1000000000000000 &"
b1 ("
b1111000000000000 !"
0%"
b11 6$
b1 )"
b1 A#
b1 u
b1 <#
b1 4"
b1 w"
b1 &#
b1111000000000000000000000000000 W"
1*
b1 ~
b1 v"
b1 ,
1!
#34000
0!
#35000
b10000000000000001000000000000000 #"
b1111000000000001000000000000000 $"
b1111000000000001 !"
b10000000000000001000000000000000 ""
b1000000000000000000000000000 &"
b1000000000000 ("
b1111000000000001000000000000000 W"
b1000000000000 )"
b1000000000000 A#
b1000000000000 u
b1000000000000 <#
b1000000000000 4"
b1000000000000 w"
b1000000000000 &#
0*
b1000000000000 ~
b1000000000000 v"
b1000000000000 ,
1!
#36000
0!
#37000
b11000000000000001000000000000000 #"
b1000000000000000000000000000000 &"
b1000000000000000 ("
b11000000000000001000000000000000 ""
b10000000000000001000000000000000 $"
b1 !"
b1000000000000000 )"
b1000000000000000 A#
b1000000000000000 u
b1000000000000000 <#
b1000000000000000 4"
b1000000000000000 w"
b1000000000000000 &#
b10000000000000001000000000000000 W"
1*
b1000000000000000 ~
b1000000000000000 v"
b1000000000000000 ,
1!
#38000
0!
#39000
b11000000000000001000000000000000 $"
b1000000000000001 !"
b1111000000000000 >
b1111000000000000 +"
b1111000000000000 a"
b1111000000000000 9"
b1111000000000000 ["
b100111000000000001000000000000000 #"
b11000000000000001000000000000000 W"
b100111000000000001000000000000000 ""
b1111000000000000000000000000000 &"
b1111000000000000 '"
b1111000000000000 0"
b1111000000000000 W#
b1111000000000000 d#
0*
b1111000000000000 |
b1111000000000000 U#
b1111000000000000 2
1!
#40000
0!
#41000
b11001000000001000000000000000 #"
b11100001000000000000000000000000 &"
b1111000000000000 ("
b11001000000001000000000000000 ""
b100111000000000001000000000000000 $"
b111000000000001 !"
b1111000000000000 )"
b1111000000000000 A#
b1111000000000000 u
b1111000000000000 <#
b1111000000000000 4"
b1111000000000000 w"
b1111000000000000 &#
b100111000000000001000000000000000 W"
1*
b1111000000000000 ~
b1111000000000000 v"
b1111000000000000 ,
1!
#42000
0!
#43000
b11001000000010111000000000000 #"
b11001000000001000000000000000 $"
b11001000000001 !"
b11001000000010111000000000000 ""
b1111000000000000 &"
b1 ("
b11001000000001000000000000000 W"
b1 )"
b1 A#
b1 u
b1 <#
b1 4"
b1 w"
b1 &#
0*
b1 ~
b1 v"
b1 ,
1!
#44000
0!
#45000
b101000000000010111000000000000 #"
b1111000000000000000000000000 &"
b1000000000000 ("
b101000000000010111000000000000 ""
b11001000000010111000000000000 $"
b11001000000010 !"
b1000000000000 )"
b1000000000000 A#
b1000000000000 u
b1000000000000 <#
b1000000000000 4"
b1000000000000 w"
b1000000000000 &#
b11001000000010111000000000000 W"
1*
b1000000000000 ~
b1000000000000 v"
b1000000000000 ,
1!
#46000
0!
#47000
b10100000000000010111000000000000 #"
b101000000000010111000000000000 $"
b101000000000010 !"
b10100000000000010111000000000000 ""
b1111000000000000000000000000000 &"
b1000000000000000 ("
b101000000000010111000000000000 W"
b1000000000000000 )"
b1000000000000000 A#
b1000000000000000 u
b1000000000000000 <#
b1000000000000000 4"
b1000000000000000 w"
b1000000000000000 &#
0*
b1000000000000000 ~
b1000000000000000 v"
b1000000000000000 ,
1!
#48000
0!
#49000
b1 >
b1 +"
b1 a"
b1 9"
b1 ["
b10100000000000011111000000000000 #"
b10100000000000010111000000000000 $"
b100000000000010 !"
b10100000000000011111000000000000 ""
b1000000000000000 &"
b1 '"
b1 0"
b1 W#
b1 d#
b10100000000000010111000000000000 W"
1*
b1 |
b1 U#
b1 2
1!
#50000
0!
#51000
b10100000000000101110000000000000 #"
b10100000000000011111000000000000 $"
b100000000000011 !"
b10100000000000101110000000000000 ""
b1111000000000000 &"
b1111000000000000 ("
b10100000000000011111000000000000 W"
b1111000000000000 )"
b1111000000000000 A#
b1111000000000000 u
b1111000000000000 <#
b1111000000000000 4"
b1111000000000000 w"
b1111000000000000 &#
0*
b1111000000000000 ~
b1111000000000000 v"
b1111000000000000 ,
1!
#52000
0!
#53000
b10100000000000101110000000000001 #"
b1 &"
b1 ("
b10100000000000101110000000000001 ""
b10100000000000101110000000000000 $"
b100000000000101 !"
b1 )"
b1 A#
b1 u
b1 <#
b1 4"
b1 w"
b1 &#
b10100000000000101110000000000000 W"
1*
b1 ~
b1 v"
b1 ,
1!
#54000
0!
#55000
b10100000000000101111000000000001 #"
b10100000000000101110000000000001 $"
b10100000000000101111000000000001 ""
b1000000000000 &"
b1000000000000 ("
b10100000000000101110000000000001 W"
b1000000000000 )"
b1000000000000 A#
b1000000000000 u
b1000000000000 <#
b1000000000000 4"
b1000000000000 w"
b1000000000000 &#
0*
b1000000000000 ~
b1000000000000 v"
b1000000000000 ,
1!
#56000
0!
#57000
b10100000000000110111000000000001 #"
b1000000000000000 &"
b1000000000000000 ("
b10100000000000110111000000000001 ""
b10100000000000101111000000000001 $"
b1000000000000000 )"
b1000000000000000 A#
b1000000000000000 u
b1000000000000000 <#
b1000000000000000 4"
b1000000000000000 w"
b1000000000000000 &#
b10100000000000101111000000000001 W"
1*
b1000000000000000 ~
b1000000000000000 v"
b1000000000000000 ,
1!
#58000
0!
#59000
b10100000000000110111000000000001 $"
b100000000000110 !"
b1000000000000 >
b1000000000000 +"
b1000000000000 a"
b1000000000000 9"
b1000000000000 ["
b10101000000000110111000000000001 #"
b10100000000000110111000000000001 W"
b10101000000000110111000000000001 ""
b1000000000000000000000000000 &"
b1000000000000 '"
b1000000000000 0"
b1000000000000 W#
b1000000000000 d#
0*
b1000000000000 |
b1000000000000 U#
b1000000000000 2
1!
#60000
0!
