vcd/tb_SubMultAbs.vcd
$date
	Tue Oct 15 18:01:31 2024
$end
$version
	Icarus Verilog
$end
$timescale
	1ps
$end
$scope module tb_SubMultAbs $end
$scope module uut $end
$var wire 1 ! clk $end
$var wire 16 " m_axis_data_tdata [15:0] $end
$var wire 1 # m_axis_data_tready $end
$var wire 1 $ rst $end
$var wire 16 % s_axis_data_tdata [15:0] $end
$var wire 8 & s_axis_data_tdest [7:0] $end
$var wire 8 ' s_axis_data_tid [7:0] $end
$var wire 1 ( s_axis_data_tlast $end
$var wire 1 ) s_axis_data_tuser $end
$var wire 1 * s_axis_data_tvalid $end
$var wire 16 + s_axis_grid_tdata [15:0] $end
$var wire 8 , s_axis_grid_tdest [7:0] $end
$var wire 8 - s_axis_grid_tid [7:0] $end
$var wire 1 . s_axis_grid_tlast $end
$var wire 1 / s_axis_grid_tuser $end
$var wire 1 0 s_axis_grid_tvalid $end
$var wire 16 1 s_axis_scale_tdata [15:0] $end
$var wire 8 2 s_axis_scale_tdest [7:0] $end
$var wire 8 3 s_axis_scale_tid [7:0] $end
$var wire 1 4 s_axis_scale_tlast $end
$var wire 1 5 s_axis_scale_tuser $end
$var wire 1 6 s_axis_scale_tvalid $end
$var wire 17 7 signed_rslt [16:0] $end
$var wire 1 8 s_axis_scale_tready $end
$var wire 1 9 s_axis_grid_tready $end
$var wire 1 : s_axis_data_tready $end
$var wire 1 ; m_axis_data_tvalid $end
$var wire 1 < m_axis_data_tuser $end
$var wire 1 = m_axis_data_tlast $end
$var wire 2 > m_axis_data_tkeep [1:0] $end
$var wire 8 ? m_axis_data_tid [7:0] $end
$var wire 8 @ m_axis_data_tdest [7:0] $end
$var wire 16 A abs_rslt_corr [15:0] $end
$var wire 17 B abs_rslt [16:0] $end
$var parameter 32 C DATA_WIDTH_DATA $end
$var parameter 32 D DATA_WIDTH_RSLT $end
$var parameter 32 E DATA_WIDTH_SCALE $end
$var parameter 32 F DEST_ENABLE $end
$var parameter 32 G DEST_WIDTH $end
$var parameter 32 H FRACTIONAL_BITS_DATA $end
$var parameter 32 I FRACTIONAL_BITS_RSLT $end
$var parameter 32 J FRACTIONAL_BITS_SCALE $end
$var parameter 32 K ID_ENABLE $end
$var parameter 32 L ID_WIDTH $end
$var parameter 1 M KEEP_ENABLE $end
$var parameter 33 N KEEP_WIDTH $end
$var parameter 32 O USER_ENABLE $end
$var parameter 32 P USER_WIDTH $end
$scope module uut $end
$var wire 1 ! clk $end
$var wire 1 Q data_halt $end
$var wire 1 R data_lock $end
$var wire 1 S grid_halt $end
$var wire 1 T grid_lock $end
$var wire 17 U m_axis_data_tdata [16:0] $end
$var wire 8 V m_axis_data_tdest [7:0] $end
$var wire 8 W m_axis_data_tid [7:0] $end
$var wire 2 X m_axis_data_tkeep [1:0] $end
$var wire 1 = m_axis_data_tlast $end
$var wire 1 # m_axis_data_tready $end
$var wire 1 < m_axis_data_tuser $end
$var wire 1 ; m_axis_data_tvalid $end
$var wire 1 $ rst $end
$var wire 16 Y s_axis_data_tdata [15:0] $end
$var wire 8 Z s_axis_data_tdest [7:0] $end
$var wire 8 [ s_axis_data_tid [7:0] $end
$var wire 1 ( s_axis_data_tlast $end
$var wire 1 ) s_axis_data_tuser $end
$var wire 1 * s_axis_data_tvalid $end
$var wire 16 \ s_axis_grid_tdata [15:0] $end
$var wire 8 ] s_axis_grid_tdest [7:0] $end
$var wire 8 ^ s_axis_grid_tid [7:0] $end
$var wire 1 . s_axis_grid_tlast $end
$var wire 1 / s_axis_grid_tuser $end
$var wire 1 0 s_axis_grid_tvalid $end
$var wire 16 _ s_axis_scale_tdata [15:0] $end
$var wire 8 ` s_axis_scale_tdest [7:0] $end
$var wire 8 a s_axis_scale_tid [7:0] $end
$var wire 1 4 s_axis_scale_tlast $end
$var wire 1 5 s_axis_scale_tuser $end
$var wire 1 6 s_axis_scale_tvalid $end
$var wire 1 b scale_halt $end
$var wire 1 c scale_lock $end
$var wire 16 d stage_1_fb_axis_data_tdata [15:0] $end
$var wire 8 e stage_1_fb_axis_data_tdest [7:0] $end
$var wire 8 f stage_1_fb_axis_data_tid [7:0] $end
$var wire 1 g stage_1_fb_axis_data_tlast $end
$var wire 1 h stage_1_fb_axis_data_tready $end
$var wire 1 i stage_1_fb_axis_data_tuser $end
$var wire 1 j stage_1_fb_axis_data_tvalid $end
$var wire 16 k stage_1_fb_axis_grid_tdata [15:0] $end
$var wire 8 l stage_1_fb_axis_grid_tdest [7:0] $end
$var wire 8 m stage_1_fb_axis_grid_tid [7:0] $end
$var wire 1 n stage_1_fb_axis_grid_tlast $end
$var wire 1 o stage_1_fb_axis_grid_tready $end
$var wire 1 p stage_1_fb_axis_grid_tuser $end
$var wire 1 q stage_1_fb_axis_grid_tvalid $end
$var wire 16 r stage_1_fb_axis_scale_tdata [15:0] $end
$var wire 8 s stage_1_fb_axis_scale_tdest [7:0] $end
$var wire 8 t stage_1_fb_axis_scale_tid [7:0] $end
$var wire 1 u stage_1_fb_axis_scale_tlast $end
$var wire 1 v stage_1_fb_axis_scale_tready $end
$var wire 1 w stage_1_fb_axis_scale_tuser $end
$var wire 1 x stage_1_fb_axis_scale_tvalid $end
$var wire 8 y stage_1_out_axis_data_tdest [7:0] $end
$var wire 8 z stage_1_out_axis_data_tid [7:0] $end
$var wire 1 { stage_1_out_axis_data_tready $end
$var wire 1 | stage_1_out_axis_data_tuser $end
$var wire 8 } stage_1_out_axis_grid_tdest [7:0] $end
$var wire 8 ~ stage_1_out_axis_grid_tid [7:0] $end
$var wire 1 !" stage_1_out_axis_grid_tready $end
$var wire 1 "" stage_1_out_axis_grid_tuser $end
$var wire 8 #" stage_1_out_axis_scale_tdest [7:0] $end
$var wire 8 $" stage_1_out_axis_scale_tid [7:0] $end
$var wire 1 %" stage_1_out_axis_scale_tready $end
$var wire 1 &" stage_1_out_axis_scale_tuser $end
$var wire 17 '" stage_2_in_axis_data_tdata [16:0] $end
$var wire 8 (" stage_2_in_axis_data_tdest [7:0] $end
$var wire 8 )" stage_2_in_axis_data_tid [7:0] $end
$var wire 2 *" stage_2_in_axis_data_tkeep [1:0] $end
$var wire 1 +" stage_2_in_axis_data_tlast $end
$var wire 1 ," stage_2_in_axis_data_tuser $end
$var wire 1 -" stage_2_in_axis_data_tvalid $end
$var wire 1 ." stage_2_in_handshake $end
$var wire 8 /" stage_2_out_axis_data_tdest [7:0] $end
$var wire 8 0" stage_2_out_axis_data_tid [7:0] $end
$var wire 1 1" stage_2_out_axis_data_tready $end
$var wire 1 2" stage_2_out_axis_data_tuser $end
$var wire 1 3" unlock_int $end
$var wire 1 4" stage_2_out_axis_data_tvalid $end
$var wire 1 5" stage_2_out_axis_data_tlast $end
$var wire 2 6" stage_2_out_axis_data_tkeep [1:0] $end
$var wire 17 7" stage_2_out_axis_data_tdata [16:0] $end
$var wire 1 8" stage_2_in_axis_data_tready $end
$var wire 1 9" stage_1_out_axis_scale_tvalid $end
$var wire 1 :" stage_1_out_axis_scale_tlast $end
$var wire 16 ;" stage_1_out_axis_scale_tdata [15:0] $end
$var wire 1 <" stage_1_out_axis_grid_tvalid $end
$var wire 1 =" stage_1_out_axis_grid_tlast $end
$var wire 16 >" stage_1_out_axis_grid_tdata [15:0] $end
$var wire 1 ?" stage_1_out_axis_data_tvalid $end
$var wire 1 @" stage_1_out_axis_data_tlast $end
$var wire 16 A" stage_1_out_axis_data_tdata [15:0] $end
$var wire 1 B" stage_1_in_axis_scale_tvalid $end
$var wire 1 C" stage_1_in_axis_scale_tuser $end
$var wire 1 D" stage_1_in_axis_scale_tready $end
$var wire 1 E" stage_1_in_axis_scale_tlast $end
$var wire 8 F" stage_1_in_axis_scale_tid [7:0] $end
$var wire 8 G" stage_1_in_axis_scale_tdest [7:0] $end
$var wire 16 H" stage_1_in_axis_scale_tdata [15:0] $end
$var wire 1 I" stage_1_in_axis_grid_tvalid $end
$var wire 1 J" stage_1_in_axis_grid_tuser $end
$var wire 1 K" stage_1_in_axis_grid_tready $end
$var wire 1 L" stage_1_in_axis_grid_tlast $end
$var wire 8 M" stage_1_in_axis_grid_tid [7:0] $end
$var wire 8 N" stage_1_in_axis_grid_tdest [7:0] $end
$var wire 16 O" stage_1_in_axis_grid_tdata [15:0] $end
$var wire 1 P" stage_1_in_axis_data_tvalid $end
$var wire 1 Q" stage_1_in_axis_data_tuser $end
$var wire 1 R" stage_1_in_axis_data_tready $end
$var wire 1 S" stage_1_in_axis_data_tlast $end
$var wire 8 T" stage_1_in_axis_data_tid [7:0] $end
$var wire 8 U" stage_1_in_axis_data_tdest [7:0] $end
$var wire 16 V" stage_1_in_axis_data_tdata [15:0] $end
$var wire 32 W" scale_ext [31:0] $end
$var wire 1 8 s_axis_scale_tready $end
$var wire 1 9 s_axis_grid_tready $end
$var wire 1 : s_axis_data_tready $end
$var wire 32 X" res_ext [31:0] $end
$var wire 17 Y" res [16:0] $end
$var wire 32 Z" diff_ext [31:0] $end
$var wire 16 [" diff [15:0] $end
$var parameter 32 \" DATA_WIDTH_DATA $end
$var parameter 33 ]" DATA_WIDTH_RSLT $end
$var parameter 32 ^" DATA_WIDTH_SCALE $end
$var parameter 32 _" DEST_ENABLE $end
$var parameter 32 `" DEST_WIDTH $end
$var parameter 32 a" FRACTIONAL_BITS_DATA $end
$var parameter 32 b" FRACTIONAL_BITS_RSLT $end
$var parameter 32 c" FRACTIONAL_BITS_SCALE $end
$var parameter 32 d" ID_ENABLE $end
$var parameter 32 e" ID_WIDTH $end
$var parameter 1 f" KEEP_ENABLE $end
$var parameter 33 g" KEEP_WIDTH $end
$var parameter 33 h" OP_SIZE $end
$var parameter 34 i" RSLT_LSB $end
$var parameter 36 j" RSLT_MSB $end
$var parameter 32 k" USER_ENABLE $end
$var parameter 32 l" USER_WIDTH $end
$scope module axis_register_data_inst $end
$var wire 1 ! clk $end
$var wire 8 m" m_axis_tdest [7:0] $end
$var wire 8 n" m_axis_tid [7:0] $end
$var wire 1 o" m_axis_tkeep $end
$var wire 1 { m_axis_tready $end
$var wire 1 | m_axis_tuser $end
$var wire 1 $ rst $end
$var wire 16 p" s_axis_tdata [15:0] $end
$var wire 8 q" s_axis_tdest [7:0] $end
$var wire 8 r" s_axis_tid [7:0] $end
$var wire 1 s" s_axis_tkeep $end
$var wire 1 S" s_axis_tlast $end
$var wire 1 Q" s_axis_tuser $end
$var wire 1 P" s_axis_tvalid $end
$var wire 1 R" s_axis_tready $end
$var wire 1 ?" m_axis_tvalid $end
$var wire 1 @" m_axis_tlast $end
$var wire 16 t" m_axis_tdata [15:0] $end
$var parameter 32 u" DATA_WIDTH $end
$var parameter 32 v" DEST_ENABLE $end
$var parameter 32 w" DEST_WIDTH $end
$var parameter 32 x" ID_ENABLE $end
$var parameter 32 y" ID_WIDTH $end
$var parameter 32 z" KEEP_ENABLE $end
$var parameter 32 {" KEEP_WIDTH $end
$var parameter 32 |" LAST_ENABLE $end
$var parameter 32 }" REG_TYPE $end
$var parameter 32 ~" USER_ENABLE $end
$var parameter 32 !# USER_WIDTH $end
$scope begin genblk1 $end
$var wire 1 "# s_axis_tready_early $end
$var reg 16 ## m_axis_tdata_reg [15:0] $end
$var reg 8 $# m_axis_tdest_reg [7:0] $end
$var reg 8 %# m_axis_tid_reg [7:0] $end
$var reg 1 &# m_axis_tkeep_reg $end
$var reg 1 @" m_axis_tlast_reg $end
$var reg 1 '# m_axis_tuser_reg $end
$var reg 1 (# m_axis_tvalid_next $end
$var reg 1 )# m_axis_tvalid_reg $end
$var reg 1 R" s_axis_tready_reg $end
$var reg 1 *# store_axis_input_to_output $end
$var reg 1 +# store_axis_input_to_temp $end
$var reg 1 ,# store_axis_temp_to_output $end
$var reg 16 -# temp_m_axis_tdata_reg [15:0] $end
$var reg 8 .# temp_m_axis_tdest_reg [7:0] $end
$var reg 8 /# temp_m_axis_tid_reg [7:0] $end
$var reg 1 0# temp_m_axis_tkeep_reg $end
$var reg 1 1# temp_m_axis_tlast_reg $end
$var reg 1 2# temp_m_axis_tuser_reg $end
$var reg 1 3# temp_m_axis_tvalid_next $end
$var reg 1 4# temp_m_axis_tvalid_reg $end
$upscope $end
$upscope $end
$scope module axis_register_grid_inst $end
$var wire 1 ! clk $end
$var wire 8 5# m_axis_tdest [7:0] $end
$var wire 8 6# m_axis_tid [7:0] $end
$var wire 1 7# m_axis_tkeep $end
$var wire 1 !" m_axis_tready $end
$var wire 1 "" m_axis_tuser $end
$var wire 1 $ rst $end
$var wire 16 8# s_axis_tdata [15:0] $end
$var wire 8 9# s_axis_tdest [7:0] $end
$var wire 8 :# s_axis_tid [7:0] $end
$var wire 1 ;# s_axis_tkeep $end
$var wire 1 L" s_axis_tlast $end
$var wire 1 J" s_axis_tuser $end
$var wire 1 I" s_axis_tvalid $end
$var wire 1 K" s_axis_tready $end
$var wire 1 <" m_axis_tvalid $end
$var wire 1 =" m_axis_tlast $end
$var wire 16 <# m_axis_tdata [15:0] $end
$var parameter 32 =# DATA_WIDTH $end
$var parameter 32 ># DEST_ENABLE $end
$var parameter 32 ?# DEST_WIDTH $end
$var parameter 32 @# ID_ENABLE $end
$var parameter 32 A# ID_WIDTH $end
$var parameter 32 B# KEEP_ENABLE $end
$var parameter 32 C# KEEP_WIDTH $end
$var parameter 32 D# LAST_ENABLE $end
$var parameter 32 E# REG_TYPE $end
$var parameter 32 F# USER_ENABLE $end
$var parameter 32 G# USER_WIDTH $end
$scope begin genblk1 $end
$var wire 1 H# s_axis_tready_early $end
$var reg 16 I# m_axis_tdata_reg [15:0] $end
$var reg 8 J# m_axis_tdest_reg [7:0] $end
$var reg 8 K# m_axis_tid_reg [7:0] $end
$var reg 1 L# m_axis_tkeep_reg $end
$var reg 1 =" m_axis_tlast_reg $end
$var reg 1 M# m_axis_tuser_reg $end
$var reg 1 N# m_axis_tvalid_next $end
$var reg 1 O# m_axis_tvalid_reg $end
$var reg 1 K" s_axis_tready_reg $end
$var reg 1 P# store_axis_input_to_output $end
$var reg 1 Q# store_axis_input_to_temp $end
$var reg 1 R# store_axis_temp_to_output $end
$var reg 16 S# temp_m_axis_tdata_reg [15:0] $end
$var reg 8 T# temp_m_axis_tdest_reg [7:0] $end
$var reg 8 U# temp_m_axis_tid_reg [7:0] $end
$var reg 1 V# temp_m_axis_tkeep_reg $end
$var reg 1 W# temp_m_axis_tlast_reg $end
$var reg 1 X# temp_m_axis_tuser_reg $end
$var reg 1 Y# temp_m_axis_tvalid_next $end
$var reg 1 Z# temp_m_axis_tvalid_reg $end
$upscope $end
$upscope $end
$scope module axis_register_output_inst $end
$var wire 1 ! clk $end
$var wire 8 [# m_axis_tdest [7:0] $end
$var wire 8 \# m_axis_tid [7:0] $end
$var wire 1 1" m_axis_tready $end
$var wire 1 2" m_axis_tuser $end
$var wire 1 $ rst $end
$var wire 17 ]# s_axis_tdata [16:0] $end
$var wire 8 ^# s_axis_tdest [7:0] $end
$var wire 8 _# s_axis_tid [7:0] $end
$var wire 2 `# s_axis_tkeep [1:0] $end
$var wire 1 +" s_axis_tlast $end
$var wire 1 ," s_axis_tuser $end
$var wire 1 -" s_axis_tvalid $end
$var wire 1 8" s_axis_tready $end
$var wire 1 4" m_axis_tvalid $end
$var wire 1 5" m_axis_tlast $end
$var wire 2 a# m_axis_tkeep [1:0] $end
$var wire 17 b# m_axis_tdata [16:0] $end
$var parameter 33 c# DATA_WIDTH $end
$var parameter 32 d# DEST_ENABLE $end
$var parameter 32 e# DEST_WIDTH $end
$var parameter 32 f# ID_ENABLE $end
$var parameter 32 g# ID_WIDTH $end
$var parameter 1 h# KEEP_ENABLE $end
$var parameter 33 i# KEEP_WIDTH $end
$var parameter 32 j# LAST_ENABLE $end
$var parameter 32 k# REG_TYPE $end
$var parameter 32 l# USER_ENABLE $end
$var parameter 32 m# USER_WIDTH $end
$scope begin genblk1 $end
$var wire 1 n# s_axis_tready_early $end
$var reg 17 o# m_axis_tdata_reg [16:0] $end
$var reg 8 p# m_axis_tdest_reg [7:0] $end
$var reg 8 q# m_axis_tid_reg [7:0] $end
$var reg 2 r# m_axis_tkeep_reg [1:0] $end
$var reg 1 5" m_axis_tlast_reg $end
$var reg 1 s# m_axis_tuser_reg $end
$var reg 1 t# m_axis_tvalid_next $end
$var reg 1 u# m_axis_tvalid_reg $end
$var reg 1 8" s_axis_tready_reg $end
$var reg 1 v# store_axis_input_to_output $end
$var reg 1 w# store_axis_input_to_temp $end
$var reg 1 x# store_axis_temp_to_output $end
$var reg 17 y# temp_m_axis_tdata_reg [16:0] $end
$var reg 8 z# temp_m_axis_tdest_reg [7:0] $end
$var reg 8 {# temp_m_axis_tid_reg [7:0] $end
$var reg 2 |# temp_m_axis_tkeep_reg [1:0] $end
$var reg 1 }# temp_m_axis_tlast_reg $end
$var reg 1 ~# temp_m_axis_tuser_reg $end
$var reg 1 !$ temp_m_axis_tvalid_next $end
$var reg 1 "$ temp_m_axis_tvalid_reg $end
$upscope $end
$upscope $end
$scope module axis_register_scale_inst $end
$var wire 1 ! clk $end
$var wire 8 #$ m_axis_tdest [7:0] $end
$var wire 8 $$ m_axis_tid [7:0] $end
$var wire 1 %$ m_axis_tkeep $end
$var wire 1 %" m_axis_tready $end
$var wire 1 &" m_axis_tuser $end
$var wire 1 $ rst $end
$var wire 16 &$ s_axis_tdata [15:0] $end
$var wire 8 '$ s_axis_tdest [7:0] $end
$var wire 8 ($ s_axis_tid [7:0] $end
$var wire 1 )$ s_axis_tkeep $end
$var wire 1 E" s_axis_tlast $end
$var wire 1 C" s_axis_tuser $end
$var wire 1 B" s_axis_tvalid $end
$var wire 1 D" s_axis_tready $end
$var wire 1 9" m_axis_tvalid $end
$var wire 1 :" m_axis_tlast $end
$var wire 16 *$ m_axis_tdata [15:0] $end
$var parameter 32 +$ DATA_WIDTH $end
$var parameter 32 ,$ DEST_ENABLE $end
$var parameter 32 -$ DEST_WIDTH $end
$var parameter 32 .$ ID_ENABLE $end
$var parameter 32 /$ ID_WIDTH $end
$var parameter 32 0$ KEEP_ENABLE $end
$var parameter 32 1$ KEEP_WIDTH $end
$var parameter 32 2$ LAST_ENABLE $end
$var parameter 32 3$ REG_TYPE $end
$var parameter 32 4$ USER_ENABLE $end
$var parameter 32 5$ USER_WIDTH $end
$scope begin genblk1 $end
$var wire 1 6$ s_axis_tready_early $end
$var reg 16 7$ m_axis_tdata_reg [15:0] $end
$var reg 8 8$ m_axis_tdest_reg [7:0] $end
$var reg 8 9$ m_axis_tid_reg [7:0] $end
$var reg 1 :$ m_axis_tkeep_reg $end
$var reg 1 :" m_axis_tlast_reg $end
$var reg 1 ;$ m_axis_tuser_reg $end
$var reg 1 <$ m_axis_tvalid_next $end
$var reg 1 =$ m_axis_tvalid_reg $end
$var reg 1 D" s_axis_tready_reg $end
$var reg 1 >$ store_axis_input_to_output $end
$var reg 1 ?$ store_axis_input_to_temp $end
$var reg 1 @$ store_axis_temp_to_output $end
$var reg 16 A$ temp_m_axis_tdata_reg [15:0] $end
$var reg 8 B$ temp_m_axis_tdest_reg [7:0] $end
$var reg 8 C$ temp_m_axis_tid_reg [7:0] $end
$var reg 1 D$ temp_m_axis_tkeep_reg $end
$var reg 1 E$ temp_m_axis_tlast_reg $end
$var reg 1 F$ temp_m_axis_tuser_reg $end
$var reg 1 G$ temp_m_axis_tvalid_next $end
$var reg 1 H$ temp_m_axis_tvalid_reg $end
$upscope $end
$upscope $end
$upscope $end
$upscope $end
$upscope $end
$enddefinitions $end
$comment Show the parameter values. $end
$dumpall
b1 5$
b0 4$
b10 3$
b1 2$
b1 1$
b0 0$
b1000 /$
b0 .$
b1000 -$
b0 ,$
b10000 +$
b1 m#
b0 l#
b10 k#
b1 j#
b10 i#
1h#
b1000 g#
b0 f#
b1000 e#
b0 d#
b10001 c#
b1 G#
b0 F#
b10 E#
b1 D#
b1 C#
b0 B#
b1000 A#
b0 @#
b1000 ?#
b0 >#
b10000 =#
b1 !#
b0 ~"
b10 }"
b1 |"
b1 {"
b0 z"
b1000 y"
b0 x"
b1000 w"
b0 v"
b10000 u"
b1 l"
b0 k"
b11011 j"
b1011 i"
b100000 h"
b10 g"
1f"
b1000 e"
b0 d"
b1100 c"
b1101 b"
b1100 a"
b1000 `"
b0 _"
b10000 ^"
b10001 ]"
b10000 \"
b1 P
b0 O
b10 N
1M
b1000 L
b0 K
b1100 J
b1101 I
b1100 H
b1000 G
b0 F
b10000 E
b10000 D
b10000 C
$end
#0
$dumpvars
0H$
0G$
0F$
0E$
0D$
b0 C$
b0 B$
b0 A$
0@$
0?$
0>$
0=$
0<$
0;$
0:$
b0 9$
b0 8$
b0 7$
16$
b0 *$
z)$
bx ($
bx '$
b0 &$
1%$
b0 $$
b0 #$
0"$
0!$
0~#
0}#
b0 |#
b0 {#
b0 z#
b0 y#
0x#
0w#
0v#
0u#
0t#
0s#
b0 r#
b0 q#
b0 p#
b0 o#
1n#
b0 b#
b0 a#
b11 `#
b0 _#
b0 ^#
b0 ]#
b0 \#
b0 [#
0Z#
0Y#
0X#
0W#
0V#
b0 U#
b0 T#
b0 S#
0R#
0Q#
0P#
0O#
0N#
0M#
0L#
b0 K#
b0 J#
b0 I#
1H#
b0 <#
z;#
bx :#
bx 9#
b0 8#
17#
b0 6#
b0 5#
04#
03#
02#
01#
00#
b0 /#
b0 .#
b0 -#
0,#
0+#
0*#
0)#
0(#
0'#
0&#
b0 %#
b0 $#
b0 ##
1"#
b0 t"
zs"
bx r"
bx q"
b0 p"
1o"
b0 n"
b0 m"
b0 ["
b0 Z"
b0 Y"
b0 X"
b0 W"
b0 V"
bx U"
bx T"
0S"
0R"
xQ"
0P"
b0 O"
bx N"
bx M"
0L"
0K"
xJ"
0I"
b0 H"
bx G"
bx F"
0E"
0D"
xC"
0B"
b0 A"
0@"
0?"
b0 >"
0="
0<"
b0 ;"
0:"
09"
08"
b0 7"
b0 6"
05"
04"
03"
02"
01"
b0 0"
b0 /"
0."
0-"
0,"
0+"
b11 *"
b0 )"
b0 ("
b0 '"
0&"
0%"
b0 $"
b0 #"
0""
0!"
b0 ~
b0 }
0|
0{
b0 z
b0 y
0x
0w
0v
0u
b0 t
b0 s
b0 r
0q
0p
0o
0n
b0 m
b0 l
b0 k
0j
0i
0h
0g
b0 f
b0 e
b0 d
0c
0b
bx a
bx `
b0 _
bx ^
bx ]
b0 \
bx [
bx Z
b0 Y
b0 X
b0 W
b0 V
b0 U
0T
0S
0R
0Q
b0 B
b0 A
b0 @
b0 ?
b0 >
0=
0<
0;
0:
09
08
b0 7
06
x5
04
bx 3
bx 2
b0 1
00
x/
0.
bx -
bx ,
b0 +
0*
x)
0(
bx '
bx &
b0 %
0$
0#
b0 "
0!
$end
#1000
1*#
1:
1P#
19
1>$
18
1v#
1R"
1K"
1D"
18"
1!
#2000
0!
#3000
b11 >
b11 X
b11 6"
b11 a#
b11 r#
x;$
bx 8$
bx 9$
z:$
xM#
bx J#
bx K#
zL#
x'#
bx $#
bx %#
z&#
1!
#4000
0!
#5000
1!
#6000
0!
#7000
1!
#8000
0!
#9000
1!
#10000
0!
1$
#11000
0v#
0>$
08
0P#
09
0*#
0:
08"
0D"
0K"
0R"
1!
#12000
0!
#13000
0R"
0K"
0D"
08"
1!
#14000
0!
#15000
08"
0D"
0K"
0R"
1!
#16000
0!
#17000
0R"
0K"
0D"
08"
1!
#18000
0!
#19000
08"
0D"
0K"
0R"
1!
#20000
0!
0$
#21000
1*#
1:
1P#
19
1>$
18
1v#
1R"
1K"
1D"
18"
1!
#22000
0!
#23000
1!
#24000
0!
#25000
1!
#26000
0!
#27000
1!
#28000
0!
#29000
1!
#30000
0!
#31000
1N#
1P#
1(#
1*#
1<$
1>$
1I"
1P"
b1100000000000000 O"
b1100000000000000 8#
b1100000000000000 V"
b1100000000000000 p"
1B"
1E"
b1000000000000 H"
b1000000000000 &$
10
1*
b1100000000000000 +
b1100000000000000 \
b1100000000000000 %
b1100000000000000 Y
16
14
b1000000000000 1
b1000000000000 _
1!
#32000
1v#
11"
1#
0!
#33000
1:
bx T"
bx r"
bx U"
bx q"
xQ"
1."
1t#
1v#
19
bx M"
bx :#
bx N"
bx 9#
xJ"
08
b0 F"
b0 ($
b0 G"
b0 '$
0C"
1%"
1!"
0Q
1{
1-"
0S
1b
1c
0+#
03#
1*#
0Q#
0Y#
1P#
0?$
0G$
1>$
b1100000000000000 d
b1100000000000000 A"
b1100000000000000 t"
b1100000000000000 ##
1j
1?"
1)#
b0 X"
b0 Z"
b0 ["
b1100000000000000 k
b1100000000000000 >"
b1100000000000000 <#
b1100000000000000 I#
1q
1<"
1O#
1u
1:"
b1000000000000 W"
b1000000000000 r
b1000000000000 ;"
b1000000000000 *$
b1000000000000 7$
1x
19"
1=$
1!
#34000
0!
#35000
1v#
b101000000000000 1
b101000000000000 _
1;
14"
1u#
0;$
b0 8$
b0 9$
1!
#36000
0!
#37000
b1111100000000000 O"
b1111100000000000 8#
b1111100000000000 +
b1111100000000000 \
1!
#38000
0!
#39000
b0 O"
b0 8#
b11001000000000000 '"
b11001000000000000 ]#
b11001000000000000 Y"
b0 +
b0 \
b11111100100000000000000000000000 X"
b11111111111111111100100000000000 Z"
b1100100000000000 ["
b1111100000000000 k
b1111100000000000 >"
b1111100000000000 <#
b1111100000000000 I#
1!
#40000
0!
#41000
b111000000000000 "
b111000000000000 A
b11000000000000000 '"
b11000000000000000 ]#
b11000000000000000 Y"
b100000000000 O"
b100000000000 8#
b11111100000000000000000000000000 X"
b11111111111111111100000000000000 Z"
b1100000000000000 ["
b0 k
b0 >"
b0 <#
b0 I#
b111000000000000 B
b11001000000000000 7
b11001000000000000 U
b11001000000000000 7"
b11001000000000000 b#
b11001000000000000 o#
b100000000000 +
b100000000000 \
1!
#42000
0!
#43000
b1000000000000000 "
b1000000000000000 A
b100000000000000 O"
b100000000000000 8#
b10111000000000000 '"
b10111000000000000 ]#
b10111000000000000 Y"
b100000000000000 +
b100000000000000 \
b1000000000000000 B
b11000000000000000 7
b11000000000000000 U
b11000000000000000 7"
b11000000000000000 b#
b11000000000000000 o#
b11111011100000000000000000000000 X"
b11111111111111111011100000000000 Z"
b1011100000000000 ["
b100000000000 k
b100000000000 >"
b100000000000 <#
b100000000000 I#
1!
#44000
0!
#45000
b1001000000000000 "
b1001000000000000 A
b10000000000000000 '"
b10000000000000000 ]#
b10000000000000000 Y"
b1100000000000000 O"
b1100000000000000 8#
b1111100000000000 V"
b1111100000000000 p"
b11111000000000000000000000000000 X"
b11111111111111111000000000000000 Z"
b1000000000000000 ["
b100000000000000 k
b100000000000000 >"
b100000000000000 <#
b100000000000000 I#
b1001000000000000 B
b10111000000000000 7
b10111000000000000 U
b10111000000000000 7"
b10111000000000000 b#
b10111000000000000 o#
b1100000000000000 +
b1100000000000000 \
b1111100000000000 %
b1111100000000000 Y
1!
#46000
0!
#47000
b1111100000000000 O"
b1111100000000000 8#
b1111111111111111 "
b1111111111111111 A
b111000000000000 '"
b111000000000000 ]#
b111000000000000 Y"
b1111100000000000 +
b1111100000000000 \
b10000000000000000 B
b10000000000000000 7
b10000000000000000 U
b10000000000000000 7"
b10000000000000000 b#
b10000000000000000 o#
b1100000000000000 k
b1100000000000000 >"
b1100000000000000 <#
b1100000000000000 I#
b11100000000000000000000000 X"
b11100000000000 Z"
b11100000000000 ["
b1111100000000000 d
b1111100000000000 A"
b1111100000000000 t"
b1111100000000000 ##
1!
#48000
0!
#49000
b0 '"
b0 ]#
b0 Y"
b0 "
b0 A
b0 O"
b0 8#
b0 X"
b0 Z"
b0 ["
b1111100000000000 k
b1111100000000000 >"
b1111100000000000 <#
b1111100000000000 I#
b111000000000000 B
b111000000000000 7
b111000000000000 U
b111000000000000 7"
b111000000000000 b#
b111000000000000 o#
b0 +
b0 \
1!
#50000
0!
#51000
b100000000000 O"
b100000000000 8#
b11111000000000000 '"
b11111000000000000 ]#
b11111000000000000 Y"
b100000000000 +
b100000000000 \
b0 B
b0 7
b0 U
b0 7"
b0 b#
b0 o#
b11111111100000000000000000000000 X"
b11111111111111111111100000000000 Z"
b1111100000000000 ["
b0 k
b0 >"
b0 <#
b0 I#
1!
#52000
0!
#53000
b1000000000000 "
b1000000000000 A
b11110000000000000 '"
b11110000000000000 ]#
b11110000000000000 Y"
b100000000000000 O"
b100000000000000 8#
b11111111000000000000000000000000 X"
b11111111111111111111000000000000 Z"
b1111000000000000 ["
b100000000000 k
b100000000000 >"
b100000000000 <#
b100000000000 I#
b1000000000000 B
b11111000000000000 7
b11111000000000000 U
b11111000000000000 7"
b11111000000000000 b#
b11111000000000000 o#
b100000000000000 +
b100000000000000 \
1!
#54000
0!
#55000
b10000000000000 "
b10000000000000 A
b1100000000000000 O"
b1100000000000000 8#
b0 V"
b0 p"
b10111000000000000 '"
b10111000000000000 ]#
b10111000000000000 Y"
b1100000000000000 +
b1100000000000000 \
b0 %
b0 Y
b10000000000000 B
b11110000000000000 7
b11110000000000000 U
b11110000000000000 7"
b11110000000000000 b#
b11110000000000000 o#
b11111011100000000000000000000000 X"
b11111111111111111011100000000000 Z"
b1011100000000000 ["
b100000000000000 k
b100000000000000 >"
b100000000000000 <#
b100000000000000 I#
1!
#56000
0!
