vcd/tb_SubMult.vcd
$date
	Tue Oct 15 15:56:22 2024
$end
$version
	Icarus Verilog
$end
$timescale
	1ps
$end
$scope module tb_SubMult $end
$scope module uut $end
$var wire 1 ! clk $end
$var wire 1 " data_lock $end
$var wire 1 # grid_lock $end
$var wire 16 $ m_axis_data_tdata [15:0] $end
$var wire 8 % m_axis_data_tdest [7:0] $end
$var wire 8 & m_axis_data_tid [7:0] $end
$var wire 2 ' m_axis_data_tkeep [1:0] $end
$var wire 1 ( m_axis_data_tlast $end
$var wire 1 ) m_axis_data_tready $end
$var wire 1 * m_axis_data_tuser $end
$var wire 1 + m_axis_data_tvalid $end
$var wire 1 , rst $end
$var wire 16 - s_axis_data_tdata [15:0] $end
$var wire 8 . s_axis_data_tdest [7:0] $end
$var wire 8 / s_axis_data_tid [7:0] $end
$var wire 1 0 s_axis_data_tlast $end
$var wire 1 1 s_axis_data_tuser $end
$var wire 1 2 s_axis_data_tvalid $end
$var wire 16 3 s_axis_grid_tdata [15:0] $end
$var wire 8 4 s_axis_grid_tdest [7:0] $end
$var wire 8 5 s_axis_grid_tid [7:0] $end
$var wire 1 6 s_axis_grid_tlast $end
$var wire 1 7 s_axis_grid_tuser $end
$var wire 1 8 s_axis_grid_tvalid $end
$var wire 16 9 s_axis_scale_tdata [15:0] $end
$var wire 8 : s_axis_scale_tdest [7:0] $end
$var wire 8 ; s_axis_scale_tid [7:0] $end
$var wire 1 < s_axis_scale_tlast $end
$var wire 1 = s_axis_scale_tuser $end
$var wire 1 > s_axis_scale_tvalid $end
$var wire 1 ? scale_lock $end
$var wire 16 @ stage_1_fb_axis_data_tdata [15:0] $end
$var wire 8 A stage_1_fb_axis_data_tdest [7:0] $end
$var wire 8 B stage_1_fb_axis_data_tid [7:0] $end
$var wire 1 C stage_1_fb_axis_data_tlast $end
$var wire 1 D stage_1_fb_axis_data_tready $end
$var wire 1 E stage_1_fb_axis_data_tuser $end
$var wire 1 F stage_1_fb_axis_data_tvalid $end
$var wire 16 G stage_1_fb_axis_grid_tdata [15:0] $end
$var wire 8 H stage_1_fb_axis_grid_tdest [7:0] $end
$var wire 8 I stage_1_fb_axis_grid_tid [7:0] $end
$var wire 1 J stage_1_fb_axis_grid_tlast $end
$var wire 1 K stage_1_fb_axis_grid_tready $end
$var wire 1 L stage_1_fb_axis_grid_tuser $end
$var wire 1 M stage_1_fb_axis_grid_tvalid $end
$var wire 16 N stage_1_fb_axis_scale_tdata [15:0] $end
$var wire 8 O stage_1_fb_axis_scale_tdest [7:0] $end
$var wire 8 P stage_1_fb_axis_scale_tid [7:0] $end
$var wire 1 Q stage_1_fb_axis_scale_tlast $end
$var wire 1 R stage_1_fb_axis_scale_tready $end
$var wire 1 S stage_1_fb_axis_scale_tuser $end
$var wire 1 T stage_1_fb_axis_scale_tvalid $end
$var wire 8 U stage_1_out_axis_data_tdest [7:0] $end
$var wire 8 V stage_1_out_axis_data_tid [7:0] $end
$var wire 1 W stage_1_out_axis_data_tready $end
$var wire 1 X stage_1_out_axis_data_tuser $end
$var wire 8 Y stage_1_out_axis_grid_tdest [7:0] $end
$var wire 8 Z stage_1_out_axis_grid_tid [7:0] $end
$var wire 1 [ stage_1_out_axis_grid_tready $end
$var wire 1 \ stage_1_out_axis_grid_tuser $end
$var wire 8 ] stage_1_out_axis_scale_tdest [7:0] $end
$var wire 8 ^ stage_1_out_axis_scale_tid [7:0] $end
$var wire 1 _ stage_1_out_axis_scale_tready $end
$var wire 1 ` stage_1_out_axis_scale_tuser $end
$var wire 16 a stage_2_in_axis_data_tdata [15:0] $end
$var wire 8 b stage_2_in_axis_data_tdest [7:0] $end
$var wire 8 c stage_2_in_axis_data_tid [7:0] $end
$var wire 2 d stage_2_in_axis_data_tkeep [1:0] $end
$var wire 1 e stage_2_in_axis_data_tlast $end
$var wire 1 f stage_2_in_axis_data_tuser $end
$var wire 1 g stage_2_in_axis_data_tvalid $end
$var wire 1 h stage_2_in_handshake $end
$var wire 8 i stage_2_out_axis_data_tdest [7:0] $end
$var wire 8 j stage_2_out_axis_data_tid [7:0] $end
$var wire 1 k stage_2_out_axis_data_tready $end
$var wire 1 l stage_2_out_axis_data_tuser $end
$var wire 1 m unlock_int $end
$var wire 1 n stage_2_out_axis_data_tvalid $end
$var wire 1 o stage_2_out_axis_data_tlast $end
$var wire 2 p stage_2_out_axis_data_tkeep [1:0] $end
$var wire 16 q stage_2_out_axis_data_tdata [15:0] $end
$var wire 1 r stage_2_in_axis_data_tready $end
$var wire 1 s stage_1_out_axis_scale_tvalid $end
$var wire 1 t stage_1_out_axis_scale_tlast $end
$var wire 16 u stage_1_out_axis_scale_tdata [15:0] $end
$var wire 1 v stage_1_out_axis_grid_tvalid $end
$var wire 1 w stage_1_out_axis_grid_tlast $end
$var wire 16 x stage_1_out_axis_grid_tdata [15:0] $end
$var wire 1 y stage_1_out_axis_data_tvalid $end
$var wire 1 z stage_1_out_axis_data_tlast $end
$var wire 16 { stage_1_out_axis_data_tdata [15:0] $end
$var wire 1 | stage_1_in_axis_scale_tvalid $end
$var wire 1 } stage_1_in_axis_scale_tuser $end
$var wire 1 ~ stage_1_in_axis_scale_tready $end
$var wire 1 !" stage_1_in_axis_scale_tlast $end
$var wire 8 "" stage_1_in_axis_scale_tid [7:0] $end
$var wire 8 #" stage_1_in_axis_scale_tdest [7:0] $end
$var wire 16 $" stage_1_in_axis_scale_tdata [15:0] $end
$var wire 1 %" stage_1_in_axis_grid_tvalid $end
$var wire 1 &" stage_1_in_axis_grid_tuser $end
$var wire 1 '" stage_1_in_axis_grid_tready $end
$var wire 1 (" stage_1_in_axis_grid_tlast $end
$var wire 8 )" stage_1_in_axis_grid_tid [7:0] $end
$var wire 8 *" stage_1_in_axis_grid_tdest [7:0] $end
$var wire 16 +" stage_1_in_axis_grid_tdata [15:0] $end
$var wire 1 ," stage_1_in_axis_data_tvalid $end
$var wire 1 -" stage_1_in_axis_data_tuser $end
$var wire 1 ." stage_1_in_axis_data_tready $end
$var wire 1 /" stage_1_in_axis_data_tlast $end
$var wire 8 0" stage_1_in_axis_data_tid [7:0] $end
$var wire 8 1" stage_1_in_axis_data_tdest [7:0] $end
$var wire 16 2" stage_1_in_axis_data_tdata [15:0] $end
$var wire 32 3" scale_ext [31:0] $end
$var wire 1 4" s_axis_scale_tready $end
$var wire 1 5" s_axis_grid_tready $end
$var wire 1 6" s_axis_data_tready $end
$var wire 32 7" res_ext [31:0] $end
$var wire 16 8" res [15:0] $end
$var wire 32 9" diff_ext [31:0] $end
$var wire 16 :" diff [15:0] $end
$var parameter 32 ;" DATA_WIDTH_DATA $end
$var parameter 32 <" DATA_WIDTH_RSLT $end
$var parameter 32 =" DATA_WIDTH_SCALE $end
$var parameter 32 >" DEST_ENABLE $end
$var parameter 32 ?" DEST_WIDTH $end
$var parameter 32 @" FRACTIONAL_BITS_DATA $end
$var parameter 32 A" FRACTIONAL_BITS_RSLT $end
$var parameter 32 B" FRACTIONAL_BITS_SCALE $end
$var parameter 32 C" ID_ENABLE $end
$var parameter 32 D" ID_WIDTH $end
$var parameter 1 E" KEEP_ENABLE $end
$var parameter 33 F" KEEP_WIDTH $end
$var parameter 33 G" OP_SIZE $end
$var parameter 34 H" RSLT_LSB $end
$var parameter 36 I" RSLT_MSB $end
$var parameter 32 J" USER_ENABLE $end
$var parameter 32 K" USER_WIDTH $end
$scope module axis_register_data_inst $end
$var wire 1 ! clk $end
$var wire 8 L" m_axis_tdest [7:0] $end
$var wire 8 M" m_axis_tid [7:0] $end
$var wire 1 N" m_axis_tkeep $end
$var wire 1 W m_axis_tready $end
$var wire 1 X m_axis_tuser $end
$var wire 1 , rst $end
$var wire 16 O" s_axis_tdata [15:0] $end
$var wire 8 P" s_axis_tdest [7:0] $end
$var wire 8 Q" s_axis_tid [7:0] $end
$var wire 1 R" s_axis_tkeep $end
$var wire 1 /" s_axis_tlast $end
$var wire 1 -" s_axis_tuser $end
$var wire 1 ," s_axis_tvalid $end
$var wire 1 ." s_axis_tready $end
$var wire 1 y m_axis_tvalid $end
$var wire 1 z m_axis_tlast $end
$var wire 16 S" m_axis_tdata [15:0] $end
$var parameter 32 T" DATA_WIDTH $end
$var parameter 32 U" DEST_ENABLE $end
$var parameter 32 V" DEST_WIDTH $end
$var parameter 32 W" ID_ENABLE $end
$var parameter 32 X" ID_WIDTH $end
$var parameter 32 Y" KEEP_ENABLE $end
$var parameter 32 Z" KEEP_WIDTH $end
$var parameter 32 [" LAST_ENABLE $end
$var parameter 32 \" REG_TYPE $end
$var parameter 32 ]" USER_ENABLE $end
$var parameter 32 ^" USER_WIDTH $end
$scope begin genblk1 $end
$var wire 1 _" s_axis_tready_early $end
$var reg 16 `" m_axis_tdata_reg [15:0] $end
$var reg 8 a" m_axis_tdest_reg [7:0] $end
$var reg 8 b" m_axis_tid_reg [7:0] $end
$var reg 1 c" m_axis_tkeep_reg $end
$var reg 1 z m_axis_tlast_reg $end
$var reg 1 d" m_axis_tuser_reg $end
$var reg 1 e" m_axis_tvalid_next $end
$var reg 1 f" m_axis_tvalid_reg $end
$var reg 1 ." s_axis_tready_reg $end
$var reg 1 g" store_axis_input_to_output $end
$var reg 1 h" store_axis_input_to_temp $end
$var reg 1 i" store_axis_temp_to_output $end
$var reg 16 j" temp_m_axis_tdata_reg [15:0] $end
$var reg 8 k" temp_m_axis_tdest_reg [7:0] $end
$var reg 8 l" temp_m_axis_tid_reg [7:0] $end
$var reg 1 m" temp_m_axis_tkeep_reg $end
$var reg 1 n" temp_m_axis_tlast_reg $end
$var reg 1 o" temp_m_axis_tuser_reg $end
$var reg 1 p" temp_m_axis_tvalid_next $end
$var reg 1 q" temp_m_axis_tvalid_reg $end
$upscope $end
$upscope $end
$scope module axis_register_grid_inst $end
$var wire 1 ! clk $end
$var wire 8 r" m_axis_tdest [7:0] $end
$var wire 8 s" m_axis_tid [7:0] $end
$var wire 1 t" m_axis_tkeep $end
$var wire 1 [ m_axis_tready $end
$var wire 1 \ m_axis_tuser $end
$var wire 1 , rst $end
$var wire 16 u" s_axis_tdata [15:0] $end
$var wire 8 v" s_axis_tdest [7:0] $end
$var wire 8 w" s_axis_tid [7:0] $end
$var wire 1 x" s_axis_tkeep $end
$var wire 1 (" s_axis_tlast $end
$var wire 1 &" s_axis_tuser $end
$var wire 1 %" s_axis_tvalid $end
$var wire 1 '" s_axis_tready $end
$var wire 1 v m_axis_tvalid $end
$var wire 1 w m_axis_tlast $end
$var wire 16 y" m_axis_tdata [15:0] $end
$var parameter 32 z" DATA_WIDTH $end
$var parameter 32 {" DEST_ENABLE $end
$var parameter 32 |" DEST_WIDTH $end
$var parameter 32 }" ID_ENABLE $end
$var parameter 32 ~" ID_WIDTH $end
$var parameter 32 !# KEEP_ENABLE $end
$var parameter 32 "# KEEP_WIDTH $end
$var parameter 32 ## LAST_ENABLE $end
$var parameter 32 $# REG_TYPE $end
$var parameter 32 %# USER_ENABLE $end
$var parameter 32 &# USER_WIDTH $end
$scope begin genblk1 $end
$var wire 1 '# s_axis_tready_early $end
$var reg 16 (# m_axis_tdata_reg [15:0] $end
$var reg 8 )# m_axis_tdest_reg [7:0] $end
$var reg 8 *# m_axis_tid_reg [7:0] $end
$var reg 1 +# m_axis_tkeep_reg $end
$var reg 1 w m_axis_tlast_reg $end
$var reg 1 ,# m_axis_tuser_reg $end
$var reg 1 -# m_axis_tvalid_next $end
$var reg 1 .# m_axis_tvalid_reg $end
$var reg 1 '" s_axis_tready_reg $end
$var reg 1 /# store_axis_input_to_output $end
$var reg 1 0# store_axis_input_to_temp $end
$var reg 1 1# store_axis_temp_to_output $end
$var reg 16 2# temp_m_axis_tdata_reg [15:0] $end
$var reg 8 3# temp_m_axis_tdest_reg [7:0] $end
$var reg 8 4# temp_m_axis_tid_reg [7:0] $end
$var reg 1 5# temp_m_axis_tkeep_reg $end
$var reg 1 6# temp_m_axis_tlast_reg $end
$var reg 1 7# temp_m_axis_tuser_reg $end
$var reg 1 8# temp_m_axis_tvalid_next $end
$var reg 1 9# temp_m_axis_tvalid_reg $end
$upscope $end
$upscope $end
$scope module axis_register_output_inst $end
$var wire 1 ! clk $end
$var wire 8 :# m_axis_tdest [7:0] $end
$var wire 8 ;# m_axis_tid [7:0] $end
$var wire 1 k m_axis_tready $end
$var wire 1 l m_axis_tuser $end
$var wire 1 , rst $end
$var wire 16 <# s_axis_tdata [15:0] $end
$var wire 8 =# s_axis_tdest [7:0] $end
$var wire 8 ># s_axis_tid [7:0] $end
$var wire 2 ?# s_axis_tkeep [1:0] $end
$var wire 1 e s_axis_tlast $end
$var wire 1 f s_axis_tuser $end
$var wire 1 g s_axis_tvalid $end
$var wire 1 r s_axis_tready $end
$var wire 1 n m_axis_tvalid $end
$var wire 1 o m_axis_tlast $end
$var wire 2 @# m_axis_tkeep [1:0] $end
$var wire 16 A# m_axis_tdata [15:0] $end
$var parameter 32 B# DATA_WIDTH $end
$var parameter 32 C# DEST_ENABLE $end
$var parameter 32 D# DEST_WIDTH $end
$var parameter 32 E# ID_ENABLE $end
$var parameter 32 F# ID_WIDTH $end
$var parameter 1 G# KEEP_ENABLE $end
$var parameter 33 H# KEEP_WIDTH $end
$var parameter 32 I# LAST_ENABLE $end
$var parameter 32 J# REG_TYPE $end
$var parameter 32 K# USER_ENABLE $end
$var parameter 32 L# USER_WIDTH $end
$scope begin genblk1 $end
$var wire 1 M# s_axis_tready_early $end
$var reg 16 N# m_axis_tdata_reg [15:0] $end
$var reg 8 O# m_axis_tdest_reg [7:0] $end
$var reg 8 P# m_axis_tid_reg [7:0] $end
$var reg 2 Q# m_axis_tkeep_reg [1:0] $end
$var reg 1 o m_axis_tlast_reg $end
$var reg 1 R# m_axis_tuser_reg $end
$var reg 1 S# m_axis_tvalid_next $end
$var reg 1 T# m_axis_tvalid_reg $end
$var reg 1 r s_axis_tready_reg $end
$var reg 1 U# store_axis_input_to_output $end
$var reg 1 V# store_axis_input_to_temp $end
$var reg 1 W# store_axis_temp_to_output $end
$var reg 16 X# temp_m_axis_tdata_reg [15:0] $end
$var reg 8 Y# temp_m_axis_tdest_reg [7:0] $end
$var reg 8 Z# temp_m_axis_tid_reg [7:0] $end
$var reg 2 [# temp_m_axis_tkeep_reg [1:0] $end
$var reg 1 \# temp_m_axis_tlast_reg $end
$var reg 1 ]# temp_m_axis_tuser_reg $end
$var reg 1 ^# temp_m_axis_tvalid_next $end
$var reg 1 _# temp_m_axis_tvalid_reg $end
$upscope $end
$upscope $end
$scope module axis_register_scale_inst $end
$var wire 1 ! clk $end
$var wire 8 `# m_axis_tdest [7:0] $end
$var wire 8 a# m_axis_tid [7:0] $end
$var wire 1 b# m_axis_tkeep $end
$var wire 1 _ m_axis_tready $end
$var wire 1 ` m_axis_tuser $end
$var wire 1 , rst $end
$var wire 16 c# s_axis_tdata [15:0] $end
$var wire 8 d# s_axis_tdest [7:0] $end
$var wire 8 e# s_axis_tid [7:0] $end
$var wire 1 f# s_axis_tkeep $end
$var wire 1 !" s_axis_tlast $end
$var wire 1 } s_axis_tuser $end
$var wire 1 | s_axis_tvalid $end
$var wire 1 ~ s_axis_tready $end
$var wire 1 s m_axis_tvalid $end
$var wire 1 t m_axis_tlast $end
$var wire 16 g# m_axis_tdata [15:0] $end
$var parameter 32 h# DATA_WIDTH $end
$var parameter 32 i# DEST_ENABLE $end
$var parameter 32 j# DEST_WIDTH $end
$var parameter 32 k# ID_ENABLE $end
$var parameter 32 l# ID_WIDTH $end
$var parameter 32 m# KEEP_ENABLE $end
$var parameter 32 n# KEEP_WIDTH $end
$var parameter 32 o# LAST_ENABLE $end
$var parameter 32 p# REG_TYPE $end
$var parameter 32 q# USER_ENABLE $end
$var parameter 32 r# USER_WIDTH $end
$scope begin genblk1 $end
$var wire 1 s# s_axis_tready_early $end
$var reg 16 t# m_axis_tdata_reg [15:0] $end
$var reg 8 u# m_axis_tdest_reg [7:0] $end
$var reg 8 v# m_axis_tid_reg [7:0] $end
$var reg 1 w# m_axis_tkeep_reg $end
$var reg 1 t m_axis_tlast_reg $end
$var reg 1 x# m_axis_tuser_reg $end
$var reg 1 y# m_axis_tvalid_next $end
$var reg 1 z# m_axis_tvalid_reg $end
$var reg 1 ~ s_axis_tready_reg $end
$var reg 1 {# store_axis_input_to_output $end
$var reg 1 |# store_axis_input_to_temp $end
$var reg 1 }# store_axis_temp_to_output $end
$var reg 16 ~# temp_m_axis_tdata_reg [15:0] $end
$var reg 8 !$ temp_m_axis_tdest_reg [7:0] $end
$var reg 8 "$ temp_m_axis_tid_reg [7:0] $end
$var reg 1 #$ temp_m_axis_tkeep_reg $end
$var reg 1 $$ temp_m_axis_tlast_reg $end
$var reg 1 %$ temp_m_axis_tuser_reg $end
$var reg 1 &$ temp_m_axis_tvalid_next $end
$var reg 1 '$ temp_m_axis_tvalid_reg $end
$upscope $end
$upscope $end
$upscope $end
$upscope $end
$enddefinitions $end
$comment Show the parameter values. $end
$dumpall
b1 r#
b0 q#
b10 p#
b1 o#
b1 n#
b0 m#
b1000 l#
b0 k#
b1000 j#
b0 i#
b10000 h#
b1 L#
b0 K#
b10 J#
b1 I#
b10 H#
1G#
b1000 F#
b0 E#
b1000 D#
b0 C#
b10000 B#
b1 &#
b0 %#
b10 $#
b1 ##
b1 "#
b0 !#
b1000 ~"
b0 }"
b1000 |"
b0 {"
b10000 z"
b1 ^"
b0 ]"
b10 \"
b1 ["
b1 Z"
b0 Y"
b1000 X"
b0 W"
b1000 V"
b0 U"
b10000 T"
b1 K"
b0 J"
b11011 I"
b1100 H"
b100000 G"
b10 F"
1E"
b1000 D"
b0 C"
b1100 B"
b1100 A"
b1100 @"
b1000 ?"
b0 >"
b10000 ="
b10000 <"
b10000 ;"
$end
#0
$dumpvars
0'$
0&$
0%$
0$$
0#$
b0 "$
b0 !$
b0 ~#
0}#
0|#
0{#
0z#
0y#
0x#
0w#
b0 v#
b0 u#
b0 t#
1s#
b0 g#
zf#
bx e#
bx d#
b0 c#
1b#
b0 a#
b0 `#
0_#
0^#
0]#
0\#
b0 [#
b0 Z#
b0 Y#
b0 X#
0W#
0V#
0U#
0T#
0S#
0R#
b0 Q#
b0 P#
b0 O#
b0 N#
1M#
b0 A#
b0 @#
b11 ?#
b0 >#
b0 =#
b0 <#
b0 ;#
b0 :#
09#
08#
07#
06#
05#
b0 4#
b0 3#
b0 2#
01#
00#
0/#
0.#
0-#
0,#
0+#
b0 *#
b0 )#
b0 (#
1'#
b0 y"
zx"
bx w"
bx v"
b0 u"
1t"
b0 s"
b0 r"
0q"
0p"
0o"
0n"
0m"
b0 l"
b0 k"
b0 j"
0i"
0h"
0g"
0f"
0e"
0d"
0c"
b0 b"
b0 a"
b0 `"
1_"
b0 S"
zR"
bx Q"
bx P"
b0 O"
1N"
b0 M"
b0 L"
b0 :"
b0 9"
b0 8"
b0 7"
06"
05"
04"
b0 3"
b0 2"
bx 1"
bx 0"
0/"
0."
x-"
0,"
b0 +"
bx *"
bx )"
0("
0'"
x&"
0%"
b0 $"
bx #"
bx ""
0!"
0~
x}
0|
b0 {
0z
0y
b0 x
0w
0v
b0 u
0t
0s
0r
b0 q
b0 p
0o
0n
0m
0l
0k
b0 j
b0 i
0h
0g
0f
0e
b11 d
b0 c
b0 b
b0 a
0`
0_
b0 ^
b0 ]
0\
0[
b0 Z
b0 Y
0X
0W
b0 V
b0 U
0T
0S
0R
0Q
b0 P
b0 O
b0 N
0M
0L
0K
0J
b0 I
b0 H
b0 G
0F
0E
0D
0C
b0 B
b0 A
b0 @
0?
0>
x=
0<
bx ;
bx :
b0 9
08
x7
06
bx 5
bx 4
b0 3
02
x1
00
bx /
bx .
b0 -
0,
0+
0*
0)
0(
b0 '
b0 &
b0 %
b0 $
0#
0"
0!
$end
#1000
1g"
16"
1/#
15"
1{#
14"
1U#
1."
1'"
1~
1r
1!
#2000
0!
#3000
b11 '
b11 p
b11 @#
b11 Q#
xx#
bx u#
bx v#
zw#
x,#
bx )#
bx *#
z+#
xd"
bx a"
bx b"
zc"
1!
#4000
0!
#5000
1!
#6000
0!
#7000
1!
#8000
0!
#9000
1!
#10000
0!
1,
#11000
0U#
0{#
04"
0/#
05"
0g"
06"
0r
0~
0'"
0."
1!
#12000
0!
#13000
0."
0'"
0~
0r
1!
#14000
0!
#15000
0r
0~
0'"
0."
1!
#16000
0!
#17000
0."
0'"
0~
0r
1!
#18000
0!
#19000
0r
0~
0'"
0."
1!
#20000
0!
0,
#21000
1g"
16"
1/#
15"
1{#
14"
1U#
1."
1'"
1~
1r
1!
#22000
0!
#23000
1!
#24000
0!
#25000
1!
#26000
0!
#27000
1!
#28000
0!
#29000
1!
#30000
0!
#31000
1-#
1/#
1e"
1g"
1y#
1{#
1%"
1,"
b1100000000000000 +"
b1100000000000000 u"
b1100000000000000 2"
b1100000000000000 O"
1|
1!"
b1000000000000 $"
b1000000000000 c#
18
12
b1100000000000000 3
b1100000000000000 -
1>
1<
b1000000000000 9
1!
#32000
1U#
1k
1)
0!
#33000
1h
1S#
1U#
04"
b0 ""
b0 e#
b0 #"
b0 d#
0}
1_
1[
1W
1g
1?
0h"
0p"
1g"
00#
08#
1/#
0|#
0&$
1{#
b1100000000000000 @
b1100000000000000 {
b1100000000000000 S"
b1100000000000000 `"
1F
1y
1f"
b0 7"
b0 9"
b0 :"
b1100000000000000 G
b1100000000000000 x
b1100000000000000 y"
b1100000000000000 (#
1M
1v
1.#
1Q
1t
b1000000000000 3"
b1000000000000 N
b1000000000000 u
b1000000000000 g#
b1000000000000 t#
1T
1s
1z#
1!
#34000
0!
#35000
1U#
b101000000000000 9
1+
1n
1T#
0x#
b0 u#
b0 v#
1!
#36000
0!
#37000
b1111100000000000 +"
b1111100000000000 u"
b1111100000000000 3
1!
#38000
0!
#39000
b0 +"
b0 u"
b1100100000000000 a
b1100100000000000 <#
b1100100000000000 8"
b0 3
b11111100100000000000000000000000 7"
b11111111111111111100100000000000 9"
b1100100000000000 :"
b1111100000000000 G
b1111100000000000 x
b1111100000000000 y"
b1111100000000000 (#
1!
#40000
0!
#41000
b1100000000000000 a
b1100000000000000 <#
b1100000000000000 8"
b100000000000 +"
b100000000000 u"
b11111100000000000000000000000000 7"
b11111111111111111100000000000000 9"
b1100000000000000 :"
b0 G
b0 x
b0 y"
b0 (#
b1100100000000000 $
b1100100000000000 q
b1100100000000000 A#
b1100100000000000 N#
b100000000000 3
1!
#42000
0!
#43000
b100000000000000 +"
b100000000000000 u"
b1011100000000000 a
b1011100000000000 <#
b1011100000000000 8"
b100000000000000 3
b1100000000000000 $
b1100000000000000 q
b1100000000000000 A#
b1100000000000000 N#
b11111011100000000000000000000000 7"
b11111111111111111011100000000000 9"
b1011100000000000 :"
b100000000000 G
b100000000000 x
b100000000000 y"
b100000000000 (#
1!
#44000
0!
#45000
b1000000000000000 a
b1000000000000000 <#
b1000000000000000 8"
b1100000000000000 +"
b1100000000000000 u"
b1111100000000000 2"
b1111100000000000 O"
b11111000000000000000000000000000 7"
b11111111111111111000000000000000 9"
b1000000000000000 :"
b100000000000000 G
b100000000000000 x
b100000000000000 y"
b100000000000000 (#
b1011100000000000 $
b1011100000000000 q
b1011100000000000 A#
b1011100000000000 N#
b1100000000000000 3
b1111100000000000 -
1!
#46000
0!
#47000
b1111100000000000 +"
b1111100000000000 u"
b11100000000000 a
b11100000000000 <#
b11100000000000 8"
b1111100000000000 3
b1000000000000000 $
b1000000000000000 q
b1000000000000000 A#
b1000000000000000 N#
b1100000000000000 G
b1100000000000000 x
b1100000000000000 y"
b1100000000000000 (#
b11100000000000000000000000 7"
b11100000000000 9"
b11100000000000 :"
b1111100000000000 @
b1111100000000000 {
b1111100000000000 S"
b1111100000000000 `"
1!
#48000
0!
#49000
b0 a
b0 <#
b0 8"
b0 +"
b0 u"
b0 7"
b0 9"
b0 :"
b1111100000000000 G
b1111100000000000 x
b1111100000000000 y"
b1111100000000000 (#
b11100000000000 $
b11100000000000 q
b11100000000000 A#
b11100000000000 N#
b0 3
1!
#50000
0!
#51000
b100000000000 +"
b100000000000 u"
b1111100000000000 a
b1111100000000000 <#
b1111100000000000 8"
b100000000000 3
b0 $
b0 q
b0 A#
b0 N#
b11111111100000000000000000000000 7"
b11111111111111111111100000000000 9"
b1111100000000000 :"
b0 G
b0 x
b0 y"
b0 (#
1!
#52000
0!
#53000
b1111000000000000 a
b1111000000000000 <#
b1111000000000000 8"
b100000000000000 +"
b100000000000000 u"
b11111111000000000000000000000000 7"
b11111111111111111111000000000000 9"
b1111000000000000 :"
b100000000000 G
b100000000000 x
b100000000000 y"
b100000000000 (#
b1111100000000000 $
b1111100000000000 q
b1111100000000000 A#
b1111100000000000 N#
b100000000000000 3
1!
#54000
0!
#55000
b1100000000000000 +"
b1100000000000000 u"
b0 2"
b0 O"
b1011100000000000 a
b1011100000000000 <#
b1011100000000000 8"
b1100000000000000 3
b0 -
b1111000000000000 $
b1111000000000000 q
b1111000000000000 A#
b1111000000000000 N#
b11111011100000000000000000000000 7"
b11111111111111111011100000000000 9"
b1011100000000000 :"
b100000000000000 G
b100000000000000 x
b100000000000000 y"
b100000000000000 (#
1!
#56000
0!
#57000
b100000000000000 a
b100000000000000 <#
b100000000000000 8"
b1111100000000000 +"
b1111100000000000 u"
b0 @
b0 {
b0 S"
b0 `"
b100000000000000000000000000 7"
b100000000000000 9"
b100000000000000 :"
b1100000000000000 G
b1100000000000000 x
b1100000000000000 y"
b1100000000000000 (#
b1011100000000000 $
b1011100000000000 q
b1011100000000000 A#
b1011100000000000 N#
b1111100000000000 3
1!
#58000
0!
#59000
b0 +"
b0 u"
b100000000000 a
b100000000000 <#
b100000000000 8"
b0 3
b100000000000000 $
b100000000000000 q
b100000000000000 A#
b100000000000000 N#
b100000000000000000000000 7"
b100000000000 9"
b100000000000 :"
b1111100000000000 G
b1111100000000000 x
b1111100000000000 y"
b1111100000000000 (#
1!
#60000
0!
#61000
b0 a
b0 <#
b0 8"
b100000000000 +"
b100000000000 u"
b0 7"
b0 9"
b0 :"
b0 G
b0 x
b0 y"
b0 (#
b100000000000 $
b100000000000 q
b100000000000 A#
b100000000000 N#
b100000000000 3
1!
#62000
0!
#63000
b100000000000000 +"
b100000000000000 u"
b1111100000000000 a
b1111100000000000 <#
b1111100000000000 8"
b100000000000000 3
b0 $
b0 q
b0 A#
b0 N#
b11111111100000000000000000000000 7"
b11111111111111111111100000000000 9"
b1111100000000000 :"
b100000000000 G
b100000000000 x
b100000000000 y"
b100000000000 (#
1!
#64000
0!
#65000
b1100000000000000 a
b1100000000000000 <#
b1100000000000000 8"
b1100000000000000 +"
b1100000000000000 u"
b100000000000 2"
b100000000000 O"
b11111100000000000000000000000000 7"
b11111111111111111100000000000000 9"
b1100000000000000 :"
b100000000000000 G
b100000000000000 x
b100000000000000 y"
b100000000000000 (#
b1111100000000000 $
b1111100000000000 q
b1111100000000000 A#
b1111100000000000 N#
b1100000000000000 3
b100000000000 -
1!
#66000
0!
#67000
b1111100000000000 +"
b1111100000000000 u"
b100100000000000 a
b100100000000000 <#
b100100000000000 8"
b1111100000000000 3
b1100000000000000 $
b1100000000000000 q
b1100000000000000 A#
b1100000000000000 N#
b1100000000000000 G
b1100000000000000 x
b1100000000000000 y"
b1100000000000000 (#
b100100000000000000000000000 7"
b100100000000000 9"
b100100000000000 :"
b100000000000 @
b100000000000 {
b100000000000 S"
b100000000000 `"
1!
#68000
0!
#69000
b1000000000000 a
b1000000000000 <#
b1000000000000 8"
b0 +"
b0 u"
b1000000000000000000000000 7"
b1000000000000 9"
b1000000000000 :"
b1111100000000000 G
b1111100000000000 x
b1111100000000000 y"
b1111100000000000 (#
b100100000000000 $
b100100000000000 q
b100100000000000 A#
b100100000000000 N#
b0 3
1!
#70000
0!
#71000
b100000000000 +"
b100000000000 u"
b100000000000 a
b100000000000 <#
b100000000000 8"
b100000000000 3
b1000000000000 $
b1000000000000 q
b1000000000000 A#
b1000000000000 N#
b100000000000000000000000 7"
b100000000000 9"
b100000000000 :"
b0 G
b0 x
b0 y"
b0 (#
1!
#72000
0!
#73000
b0 a
b0 <#
b0 8"
b100000000000000 +"
b100000000000000 u"
b0 7"
b0 9"
b0 :"
b100000000000 G
b100000000000 x
b100000000000 y"
b100000000000 (#
b100000000000 $
b100000000000 q
b100000000000 A#
b100000000000 N#
b100000000000000 3
1!
#74000
0!
#75000
b1100000000000000 +"
b1100000000000000 u"
b100000000000000 2"
b100000000000000 O"
b1100100000000000 a
b1100100000000000 <#
b1100100000000000 8"
b1100000000000000 3
b100000000000000 -
b0 $
b0 q
b0 A#
b0 N#
b11111100100000000000000000000000 7"
b11111111111111111100100000000000 9"
b1100100000000000 :"
b100000000000000 G
b100000000000000 x
b100000000000000 y"
b100000000000000 (#
1!
#76000
0!
#77000
b1000000000000000 a
b1000000000000000 <#
b1000000000000000 8"
b1111100000000000 +"
b1111100000000000 u"
b100000000000000 @
b100000000000000 {
b100000000000000 S"
b100000000000000 `"
b11111000000000000000000000000000 7"
b11111111111111111000000000000000 9"
b1000000000000000 :"
b1100000000000000 G
b1100000000000000 x
b1100000000000000 y"
b1100000000000000 (#
b1100100000000000 $
b1100100000000000 q
b1100100000000000 A#
b1100100000000000 N#
b1111100000000000 3
1!
#78000
0!
#79000
b0 +"
b0 u"
b100100000000000 a
b100100000000000 <#
b100100000000000 8"
b0 3
b1000000000000000 $
b1000000000000000 q
b1000000000000000 A#
b1000000000000000 N#
b100100000000000000000000000 7"
b100100000000000 9"
b100100000000000 :"
b1111100000000000 G
b1111100000000000 x
b1111100000000000 y"
b1111100000000000 (#
1!
#80000
0!
