vcd/tbv2_LinearProcessingElement.vcd
$date
	Wed Dec 11 19:28:01 2024
$end
$version
	Icarus Verilog
$end
$timescale
	1ps
$end
$scope module tbv2_LinearProcessingElement $end
$scope module uut $end
$var wire 1 ! clk $end
$var wire 1 " int_axis_left_tready $end
$var wire 16 # int_axis_right_tdata [15:0] $end
$var wire 1 $ int_axis_right_tlast $end
$var wire 1 % int_axis_right_tvalid $end
$var wire 1 & m_axis_down_tready $end
$var wire 1 ' m_axis_right_tready $end
$var wire 1 ( rst $end
$var wire 16 ) s_axis_left_tdata [15:0] $end
$var wire 1 * s_axis_left_tlast $end
$var wire 1 + s_axis_left_tready $end
$var wire 1 , s_axis_left_tvalid $end
$var wire 16 - s_axis_up_tdata [15:0] $end
$var wire 1 . s_axis_up_tlast $end
$var wire 1 / s_axis_up_tready $end
$var wire 8 0 s_axis_up_tuser [7:0] $end
$var wire 1 1 s_axis_up_tvalid $end
$var wire 1 2 store_u $end
$var wire 1 3 store_l $end
$var wire 1 4 s_axis_up_tready_int $end
$var wire 1 5 s_axis_left_tready_int $end
$var wire 16 6 rslt [15:0] $end
$var wire 32 7 partial_sum_rslt [31:0] $end
$var wire 32 8 partial_sum_reg_next [31:0] $end
$var wire 32 9 partial_sum_fb [31:0] $end
$var wire 1 : op_start $end
$var wire 32 ; mult_res [31:0] $end
$var wire 16 < mult_op1 [15:0] $end
$var wire 16 = mult_op0 [15:0] $end
$var wire 1 > m_axis_right_tvalid $end
$var wire 1 ? m_axis_right_tlast $end
$var wire 16 @ m_axis_right_tdata [15:0] $end
$var wire 1 A m_axis_down_tvalid $end
$var wire 8 B m_axis_down_tuser [7:0] $end
$var wire 1 C m_axis_down_tlast $end
$var wire 16 D m_axis_down_tdata [15:0] $end
$var wire 1 E int_axis_up_tvalid $end
$var wire 8 F int_axis_up_tuser [7:0] $end
$var wire 1 G int_axis_up_tready $end
$var wire 1 H int_axis_up_tlast $end
$var wire 16 I int_axis_up_tdata [15:0] $end
$var wire 1 J int_axis_right_tready $end
$var wire 1 K int_axis_left_tvalid $end
$var wire 1 L int_axis_left_tlast $end
$var wire 16 M int_axis_left_tdata [15:0] $end
$var wire 1 N int_axis_down_tvalid $end
$var wire 8 O int_axis_down_tuser [7:0] $end
$var wire 1 P int_axis_down_tready $end
$var wire 1 Q int_axis_down_tlast $end
$var wire 16 R int_axis_down_tdata [15:0] $end
$var wire 1 S forward_u $end
$var wire 1 T forward_l $end
$var wire 1 U export_rslt $end
$var wire 1 V err_user_flag $end
$var wire 1 W err_unalligned_data $end
$var wire 1 X drop_u $end
$var wire 1 Y drop_l $end
$var wire 1 Z bypass_adder $end
$var parameter 32 [ DATA_WIDTH_L_R $end
$var parameter 32 \ DATA_WIDTH_OP0 $end
$var parameter 32 ] DATA_WIDTH_OP1 $end
$var parameter 32 ^ DATA_WIDTH_RSLT $end
$var parameter 32 _ DATA_WIDTH_U_D $end
$var parameter 32 ` FRACTIONAL_BITS_OP0 $end
$var parameter 32 a FRACTIONAL_BITS_OP1 $end
$var parameter 32 b FRACTIONAL_BITS_RSLT $end
$var parameter 32 c IS_UNSIGNED_OP0 $end
$var parameter 32 d IS_UNSIGNED_OP1 $end
$var parameter 35 e MAC_OP_SIZE $end
$var parameter 34 f MAC_RSLT_LSB $end
$var parameter 36 g MAC_RSLT_MSB $end
$var parameter 35 h MLT_OP_SIZE $end
$var parameter 38 i OP1_USER_MASK $end
$var parameter 32 j OUTPUT_DEST $end
$var parameter 32 k OUTPUT_ID $end
$var parameter 32 l PE_NUMBER_I $end
$var parameter 32 m PE_NUMBER_J $end
$var parameter 32 n PE_POSITION_I $end
$var parameter 32 o PE_POSITION_J $end
$var parameter 39 p RSLT_USER_MASK $end
$var parameter 32 q USER_WIDTH $end
$var reg 32 r partial_sum_reg [31:0] $end
$scope module axis_register_down_inst $end
$var wire 1 ! clk $end
$var wire 1 s m_axis_tdest $end
$var wire 1 t m_axis_tid $end
$var wire 1 u m_axis_tkeep $end
$var wire 1 & m_axis_tready $end
$var wire 1 ( rst $end
$var wire 16 v s_axis_tdata [15:0] $end
$var wire 1 w s_axis_tdest $end
$var wire 1 x s_axis_tid $end
$var wire 1 y s_axis_tkeep $end
$var wire 1 Q s_axis_tlast $end
$var wire 8 z s_axis_tuser [7:0] $end
$var wire 1 N s_axis_tvalid $end
$var wire 1 P s_axis_tready $end
$var wire 1 A m_axis_tvalid $end
$var wire 8 { m_axis_tuser [7:0] $end
$var wire 1 C m_axis_tlast $end
$var wire 16 | m_axis_tdata [15:0] $end
$var parameter 32 } DATA_WIDTH $end
$var parameter 32 ~ DEST_ENABLE $end
$var parameter 32 !" DEST_WIDTH $end
$var parameter 32 "" ID_ENABLE $end
$var parameter 32 #" ID_WIDTH $end
$var parameter 32 $" KEEP_ENABLE $end
$var parameter 32 %" KEEP_WIDTH $end
$var parameter 32 &" LAST_ENABLE $end
$var parameter 32 '" REG_TYPE $end
$var parameter 32 (" USER_ENABLE $end
$var parameter 32 )" USER_WIDTH $end
$scope begin genblk1 $end
$upscope $end
$upscope $end
$scope module axis_register_left_inst $end
$var wire 1 ! clk $end
$var wire 1 *" m_axis_tdest $end
$var wire 1 +" m_axis_tid $end
$var wire 1 ," m_axis_tkeep $end
$var wire 1 " m_axis_tready $end
$var wire 1 -" m_axis_tuser $end
$var wire 1 ( rst $end
$var wire 16 ." s_axis_tdata [15:0] $end
$var wire 1 /" s_axis_tdest $end
$var wire 1 0" s_axis_tid $end
$var wire 1 1" s_axis_tkeep $end
$var wire 1 * s_axis_tlast $end
$var wire 1 2" s_axis_tuser $end
$var wire 1 3" s_axis_tvalid $end
$var wire 1 5 s_axis_tready $end
$var wire 1 K m_axis_tvalid $end
$var wire 1 L m_axis_tlast $end
$var wire 16 4" m_axis_tdata [15:0] $end
$var parameter 32 5" DATA_WIDTH $end
$var parameter 32 6" DEST_ENABLE $end
$var parameter 32 7" DEST_WIDTH $end
$var parameter 32 8" ID_ENABLE $end
$var parameter 32 9" ID_WIDTH $end
$var parameter 32 :" KEEP_ENABLE $end
$var parameter 32 ;" KEEP_WIDTH $end
$var parameter 32 <" LAST_ENABLE $end
$var parameter 32 =" REG_TYPE $end
$var parameter 32 >" USER_ENABLE $end
$var parameter 32 ?" USER_WIDTH $end
$scope begin genblk1 $end
$var wire 1 @" s_axis_tready_early $end
$var reg 16 A" m_axis_tdata_reg [15:0] $end
$var reg 1 B" m_axis_tdest_reg $end
$var reg 1 C" m_axis_tid_reg $end
$var reg 1 D" m_axis_tkeep_reg $end
$var reg 1 L m_axis_tlast_reg $end
$var reg 1 E" m_axis_tuser_reg $end
$var reg 1 F" m_axis_tvalid_next $end
$var reg 1 G" m_axis_tvalid_reg $end
$var reg 1 5 s_axis_tready_reg $end
$var reg 1 H" store_axis_input_to_output $end
$var reg 1 I" store_axis_input_to_temp $end
$var reg 1 J" store_axis_temp_to_output $end
$var reg 16 K" temp_m_axis_tdata_reg [15:0] $end
$var reg 1 L" temp_m_axis_tdest_reg $end
$var reg 1 M" temp_m_axis_tid_reg $end
$var reg 1 N" temp_m_axis_tkeep_reg $end
$var reg 1 O" temp_m_axis_tlast_reg $end
$var reg 1 P" temp_m_axis_tuser_reg $end
$var reg 1 Q" temp_m_axis_tvalid_next $end
$var reg 1 R" temp_m_axis_tvalid_reg $end
$upscope $end
$upscope $end
$scope module axis_register_right_inst $end
$var wire 1 ! clk $end
$var wire 1 S" m_axis_tdest $end
$var wire 1 T" m_axis_tid $end
$var wire 1 U" m_axis_tkeep $end
$var wire 1 ' m_axis_tready $end
$var wire 1 V" m_axis_tuser $end
$var wire 1 ( rst $end
$var wire 16 W" s_axis_tdata [15:0] $end
$var wire 1 X" s_axis_tdest $end
$var wire 1 Y" s_axis_tid $end
$var wire 1 Z" s_axis_tkeep $end
$var wire 1 $ s_axis_tlast $end
$var wire 1 [" s_axis_tuser $end
$var wire 1 % s_axis_tvalid $end
$var wire 1 J s_axis_tready $end
$var wire 1 > m_axis_tvalid $end
$var wire 1 ? m_axis_tlast $end
$var wire 16 \" m_axis_tdata [15:0] $end
$var parameter 32 ]" DATA_WIDTH $end
$var parameter 32 ^" DEST_ENABLE $end
$var parameter 32 _" DEST_WIDTH $end
$var parameter 32 `" ID_ENABLE $end
$var parameter 32 a" ID_WIDTH $end
$var parameter 32 b" KEEP_ENABLE $end
$var parameter 32 c" KEEP_WIDTH $end
$var parameter 32 d" LAST_ENABLE $end
$var parameter 32 e" REG_TYPE $end
$var parameter 32 f" USER_ENABLE $end
$var parameter 32 g" USER_WIDTH $end
$scope begin genblk1 $end
$upscope $end
$upscope $end
$scope module axis_register_up_inst $end
$var wire 1 ! clk $end
$var wire 1 h" m_axis_tdest $end
$var wire 1 i" m_axis_tid $end
$var wire 1 j" m_axis_tkeep $end
$var wire 1 G m_axis_tready $end
$var wire 1 ( rst $end
$var wire 16 k" s_axis_tdata [15:0] $end
$var wire 1 l" s_axis_tdest $end
$var wire 1 m" s_axis_tid $end
$var wire 1 n" s_axis_tkeep $end
$var wire 1 . s_axis_tlast $end
$var wire 8 o" s_axis_tuser [7:0] $end
$var wire 1 p" s_axis_tvalid $end
$var wire 1 4 s_axis_tready $end
$var wire 1 E m_axis_tvalid $end
$var wire 8 q" m_axis_tuser [7:0] $end
$var wire 1 H m_axis_tlast $end
$var wire 16 r" m_axis_tdata [15:0] $end
$var parameter 32 s" DATA_WIDTH $end
$var parameter 32 t" DEST_ENABLE $end
$var parameter 32 u" DEST_WIDTH $end
$var parameter 32 v" ID_ENABLE $end
$var parameter 32 w" ID_WIDTH $end
$var parameter 32 x" KEEP_ENABLE $end
$var parameter 32 y" KEEP_WIDTH $end
$var parameter 32 z" LAST_ENABLE $end
$var parameter 32 {" REG_TYPE $end
$var parameter 32 |" USER_ENABLE $end
$var parameter 32 }" USER_WIDTH $end
$scope begin genblk1 $end
$var wire 1 ~" s_axis_tready_early $end
$var reg 16 !# m_axis_tdata_reg [15:0] $end
$var reg 1 "# m_axis_tdest_reg $end
$var reg 1 ## m_axis_tid_reg $end
$var reg 1 $# m_axis_tkeep_reg $end
$var reg 1 H m_axis_tlast_reg $end
$var reg 8 %# m_axis_tuser_reg [7:0] $end
$var reg 1 &# m_axis_tvalid_next $end
$var reg 1 '# m_axis_tvalid_reg $end
$var reg 1 4 s_axis_tready_reg $end
$var reg 1 (# store_axis_input_to_output $end
$var reg 1 )# store_axis_input_to_temp $end
$var reg 1 *# store_axis_temp_to_output $end
$var reg 16 +# temp_m_axis_tdata_reg [15:0] $end
$var reg 1 ,# temp_m_axis_tdest_reg $end
$var reg 1 -# temp_m_axis_tid_reg $end
$var reg 1 .# temp_m_axis_tkeep_reg $end
$var reg 1 /# temp_m_axis_tlast_reg $end
$var reg 8 0# temp_m_axis_tuser_reg [7:0] $end
$var reg 1 1# temp_m_axis_tvalid_next $end
$var reg 1 2# temp_m_axis_tvalid_reg $end
$upscope $end
$upscope $end
$scope module control_unit $end
$var wire 1 Z bypass_adder $end
$var wire 1 ! clk $end
$var wire 1 X drop_u $end
$var wire 1 W err_unalligned_data $end
$var wire 1 3# err_unalligned_data_int $end
$var wire 1 V err_user_flag $end
$var wire 1 4# err_user_flag_int $end
$var wire 1 U export_rslt $end
$var wire 1 5# export_rslt_int $end
$var wire 1 6# handshake_down $end
$var wire 1 7# handshake_right $end
$var wire 1 P int_axis_down_tready $end
$var wire 1 N int_axis_down_tvalid $end
$var wire 1 L int_axis_left_tlast $end
$var wire 1 " int_axis_left_tready $end
$var wire 1 K int_axis_left_tvalid $end
$var wire 1 J int_axis_right_tready $end
$var wire 1 % int_axis_right_tvalid $end
$var wire 1 H int_axis_up_tlast $end
$var wire 1 G int_axis_up_tready $end
$var wire 8 8# int_axis_up_tuser [7:0] $end
$var wire 1 E int_axis_up_tvalid $end
$var wire 1 9# op0_flag $end
$var wire 1 :# op0_last_flag $end
$var wire 1 ;# op1_flag $end
$var wire 1 <# op1_last_flag $end
$var wire 1 =# op_valid $end
$var wire 1 ># rslt_flag $end
$var wire 1 ( rst $end
$var wire 1 2 store_u $end
$var wire 1 3 store_l $end
$var wire 1 ?# partial_sum_last_reg_next $end
$var wire 1 : op_start $end
$var wire 1 S forward_u $end
$var wire 1 T forward_l $end
$var wire 1 Y drop_l $end
$var parameter 3 @# FSM_END $end
$var parameter 3 A# FSM_ERR $end
$var parameter 3 B# FSM_MAC $end
$var parameter 32 C# FSM_STATE_WIDTH $end
$var parameter 3 D# FSM_STRL $end
$var parameter 3 E# FSM_STRT $end
$var parameter 3 F# FSM_STRU $end
$var parameter 38 G# OP1_USER_MASK $end
$var parameter 32 H# OUTPUT_DEST $end
$var parameter 32 I# OUTPUT_ID $end
$var parameter 32 J# PE_J_WIDTH $end
$var parameter 32 K# PE_NUMBER_J $end
$var parameter 32 L# PE_POSITION_J $end
$var parameter 39 M# RSLT_USER_MASK $end
$var parameter 32 N# USER_WIDTH $end
$var reg 1 O# bypass_adder_reg $end
$var reg 1 Y drop_l_reg $end
$var reg 1 P# drop_u_reg $end
$var reg 1 Q# err_unalligned_data_reg $end
$var reg 1 R# err_user_flag_reg $end
$var reg 1 T forward_l_reg $end
$var reg 1 S forward_u_reg $end
$var reg 3 S# fsm_state [2:0] $end
$var reg 3 T# fsm_state_next [2:0] $end
$var reg 1 : op_start_reg $end
$var reg 1 U# partial_sum_last_reg $end
$var reg 1 V# push_d_reg $end
$var reg 1 3 store_l_reg $end
$var reg 1 2 store_u_reg $end
$var reg 2 W# timer [-1:0] $end
$upscope $end
$upscope $end
$upscope $end
$enddefinitions $end
$comment Show the parameter values. $end
$dumpall
b1000 N#
b10000000 M#
b0 L#
b1 K#
b0 J#
b1 I#
b1 H#
b1000000 G#
b10 F#
b0 E#
b1 D#
b11 C#
b11 B#
b100 A#
b101 @#
b1000 }"
b1 |"
b10 {"
b1 z"
b1 y"
b0 x"
b1 w"
b0 v"
b1 u"
b0 t"
b10000 s"
b1 g"
b0 f"
b0 e"
b1 d"
b1 c"
b0 b"
b1 a"
b0 `"
b1 _"
b0 ^"
b10000 ]"
b1 ?"
b0 >"
b10 ="
b1 <"
b1 ;"
b0 :"
b1 9"
b0 8"
b1 7"
b0 6"
b10000 5"
b1000 )"
b1 ("
b0 '"
b1 &"
b1 %"
b0 $"
b1 #"
b0 ""
b1 !"
b0 ~
b10000 }
b1000 q
b10000000 p
b0 o
b0 n
b1 m
b1 l
b1 k
b1 j
b1000000 i
b100000 h
b11011 g
b1100 f
b100000 e
b0 d
b0 c
b1100 b
b1100 a
b1100 `
b10000 _
b10000 ^
b10000 ]
b10000 \
b10000 [
$end
#0
$dumpvars
bx W#
xV#
0U#
b0 T#
bx S#
xR#
xQ#
xP#
0O#
0?#
0>#
0=#
0<#
0;#
0:#
09#
b0 8#
07#
06#
x5#
04#
03#
02#
01#
b0 0#
0/#
0.#
0-#
0,#
b0 +#
0*#
0)#
0(#
0'#
0&#
b0 %#
0$#
0##
0"#
b0 !#
1~"
b0 r"
b0 q"
0p"
bx o"
1n"
0m"
0l"
b0 k"
1j"
0i"
0h"
b0 \"
0["
1Z"
0Y"
0X"
b0 W"
0V"
1U"
0T"
0S"
0R"
0Q"
0P"
0O"
0N"
0M"
0L"
b0 K"
0J"
0I"
0H"
0G"
0F"
0E"
0D"
0C"
0B"
b0 A"
1@"
b0 4"
03"
02"
11"
00"
0/"
b0 ."
0-"
1,"
0+"
0*"
b0 |
bx0000000 {
bx0000000 z
1y
0x
0w
b0 v
1u
0t
0s
b0 r
1Z
xY
xX
xW
xV
xU
xT
1S
b0 R
xQ
0P
bx0000000 O
xN
b0 M
0L
0K
0J
b0 I
0H
xG
b0 F
0E
b0 D
xC
bx0000000 B
xA
b0 @
0?
0>
b0 =
b0 <
b0 ;
x:
b0 9
b0 8
b0 7
b0 6
05
04
x3
x2
01
bx 0
0/
0.
b0 -
0,
0+
0*
b0 )
0(
0'
0&
0%
0$
b0 #
x"
0!
$end
#1000
1T
b0 B
b0 {
b0 O
b0 z
0C
0Q
0G
0A
0N
0U
05#
0X
0"
1(#
1/
1H"
1+
0V
0R#
0W
0Q#
1:
0V#
0P#
0Y
12
13
b0 S#
14
15
1!
#2000
0!
#3000
bx B
bx {
bx O
bx z
1D"
bx F
bx q"
bx %#
bx 8#
1$#
1!
#4000
0!
#5000
1!
#6000
0!
#7000
1!
#8000
0!
#9000
1!
#10000
0!
1(
#11000
1*#
1G
1J"
0H"
0(#
1X
1"
0/
0+
05
04
b0 W#
1P#
1Y
02
03
1!
#12000
0!
#13000
b0 B
b0 {
b0 O
b0 z
1*#
1J"
b0 F
b0 q"
b0 %#
b0 8#
0$#
04
0D"
05
1!
#14000
0!
#15000
1J"
1*#
05
04
1!
#16000
0!
#17000
1*#
1J"
04
05
1!
#18000
0!
#19000
1J"
1*#
05
04
1!
#20000
0!
0(
#21000
0G
0X
0"
1(#
0*#
1/
1H"
0J"
1+
0P#
0Y
12
13
14
15
1!
#22000
0!
#23000
bx B
bx {
bx O
bx z
1D"
bx F
bx q"
bx %#
bx 8#
1$#
1!
#24000
0!
#25000
1!
#26000
0!
#27000
1!
#28000
0!
#29000
1!
#30000
0!
#31000
1!
#32000
0!
#33000
b1000000 B
b1000000 {
b1000000 O
b1000000 z
b1100000000000000 D
b1100000000000000 |
b1100000000000000 R
b1100000000000000 v
b1000000 F
b1000000 q"
b1000000 %#
b1000000 8#
b10010000000000000000000000000000 7
b10010000000000000000000000000000 ;
b1100000000000000 <
b1100000000000000 I
b1100000000000000 r"
b1100000000000000 !#
b1100000000000000 =
b1100000000000000 @
b1100000000000000 \"
b1100000000000000 #
b1100000000000000 W"
b1100000000000000 M
b1100000000000000 4"
b1100000000000000 A"
1G
1&#
1(#
1"
1F"
1H"
1p"
13"
b1100000000000000 -
b1100000000000000 k"
1P
1&
b1000000 0
b1000000 o"
11
b1100000000000000 )
b1100000000000000 ."
1J
1'
1,
1!
#34000
0!
#35000
b11 T#
16#
b10110100000000000000000000000000 8
17#
1A
1N
0Z
1>
1%
1H"
1=#
1(#
1;#
b10110100000000000000000000000000 7
b10110100000000000000000000000000 ;
b1111000000000000 =
b1111000000000000 @
b1111000000000000 \"
b1111000000000000 #
b1111000000000000 W"
b1111000000000000 M
b1111000000000000 4"
b1111000000000000 A"
19#
1K
1G"
1E
1'#
b1111000000000000 )
b1111000000000000 ."
1!
#36000
0!
#37000
b10110100000000000000000000000000 9
b10110100000000000000000000000000 8
b100000000000000 6
0:
b11 S#
b10110100000000000000000000000000 7
b0 ;
b0 =
b0 @
b0 \"
b0 #
b0 W"
b0 M
b0 4"
b0 A"
b10110100000000000000000000000000 r
b0 )
b0 ."
1!
#38000
0!
#39000
b11000000000000000000000000000000 8
b11000000000000000000000000000000 7
b1100000000000000000000000000 ;
b1000000000000 =
b1000000000000 @
b1000000000000 \"
b1000000000000 #
b1000000000000 W"
b1000000000000 M
b1000000000000 4"
b1000000000000 A"
b1000000000000 )
b1000000000000 ."
1!
#40000
0!
#41000
b11110000000000000000000000000000 8
b11000000000000000000000000000000 9
b0 6
b11110000000000000000000000000000 7
b110000000000000000000000000000 ;
b100000000000000 =
b100000000000000 @
b100000000000000 \"
b100000000000000 #
b100000000000000 W"
b100000000000000 M
b100000000000000 4"
b100000000000000 A"
b11000000000000000000000000000000 r
b100000000000000 )
b100000000000000 ."
1!
#42000
0!
#43000
b11110000000000000000000000000000 9
b1111000000000000 D
b1111000000000000 |
b1111000000000000 R
b1111000000000000 v
b10100100000000000000000000000000 8
b11110000000000000000000000000000 r
b1100000000000000 =
b1100000000000000 @
b1100000000000000 \"
b1100000000000000 #
b1100000000000000 W"
b1100000000000000 M
b1100000000000000 4"
b1100000000000000 A"
b10100100000000000000000000000000 7
b10110100000000000000000000000000 ;
b1111000000000000 <
b1111000000000000 I
b1111000000000000 r"
b1111000000000000 !#
b1111000000000000 -
b1111000000000000 k"
b1100000000000000 )
b1100000000000000 ."
1!
#44000
0!
#45000
b10000101000000000000000000000000 8
b10100100000000000000000000000000 9
b100000000000000 6
b10000101000000000000000000000000 7
b11100001000000000000000000000000 ;
b1111000000000000 =
b1111000000000000 @
b1111000000000000 \"
b1111000000000000 #
b1111000000000000 W"
b1111000000000000 M
b1111000000000000 4"
b1111000000000000 A"
b10100100000000000000000000000000 r
b1111000000000000 )
b1111000000000000 ."
1!
#46000
0!
#47000
b10000101000000000000000000000000 9
b101000000000000 6
b10000101000000000000000000000000 8
b10000101000000000000000000000000 r
b10000101000000000000000000000000 7
b0 ;
b0 =
b0 @
b0 \"
b0 #
b0 W"
b0 M
b0 4"
b0 A"
b0 )
b0 ."
1!
#48000
0!
#49000
b10010100000000000000000000000000 8
b10010100000000000000000000000000 7
b1111000000000000000000000000 ;
b1000000000000 =
b1000000000000 @
b1000000000000 \"
b1000000000000 #
b1000000000000 W"
b1000000000000 M
b1000000000000 4"
b1000000000000 A"
b1000000000000 )
b1000000000000 ."
1!
#50000
0!
#51000
b10010100000000000000000000000000 9
b100000000000000 6
b11010000000000000000000000000000 8
b10010100000000000000000000000000 r
b11010000000000000000000000000000 7
b111100000000000000000000000000 ;
b100000000000000 =
b100000000000000 @
b100000000000000 \"
b100000000000000 #
b100000000000000 W"
b100000000000000 M
b100000000000000 4"
b100000000000000 A"
b100000000000000 )
b100000000000000 ."
1!
#52000
0!
#53000
b0 D
b0 |
b0 R
b0 v
b11010000000000000000000000000000 9
b0 6
b0 <
b0 I
b0 r"
b0 !#
b11010000000000000000000000000000 7
b0 ;
b1100000000000000 =
b1100000000000000 @
b1100000000000000 \"
b1100000000000000 #
b1100000000000000 W"
b1100000000000000 M
b1100000000000000 4"
b1100000000000000 A"
b11010000000000000000000000000000 r
b0 -
b0 k"
b1100000000000000 )
b1100000000000000 ."
1!
#54000
0!
#55000
b1111000000000000 =
b1111000000000000 @
b1111000000000000 \"
b1111000000000000 #
b1111000000000000 W"
b1111000000000000 M
b1111000000000000 4"
b1111000000000000 A"
b1111000000000000 )
b1111000000000000 ."
1!
#56000
0!
#57000
b0 =
b0 @
b0 \"
b0 #
b0 W"
b0 M
b0 4"
b0 A"
b0 )
b0 ."
1!
#58000
0!
#59000
b1000000000000 =
b1000000000000 @
b1000000000000 \"
b1000000000000 #
b1000000000000 W"
b1000000000000 M
b1000000000000 4"
b1000000000000 A"
b1000000000000 )
b1000000000000 ."
1!
#60000
0!
#61000
b100000000000000 =
b100000000000000 @
b100000000000000 \"
b100000000000000 #
b100000000000000 W"
b100000000000000 M
b100000000000000 4"
b100000000000000 A"
b100000000000000 )
b100000000000000 ."
1!
#62000
0!
#63000
b1000000000000 D
b1000000000000 |
b1000000000000 R
b1000000000000 v
b11011100000000000000000000000000 8
b1100000000000000 =
b1100000000000000 @
b1100000000000000 \"
b1100000000000000 #
b1100000000000000 W"
b1100000000000000 M
b1100000000000000 4"
b1100000000000000 A"
b11011100000000000000000000000000 7
b1100000000000000000000000000 ;
b1000000000000 <
b1000000000000 I
b1000000000000 r"
b1000000000000 !#
b1000000000000 -
b1000000000000 k"
b1100000000000000 )
b1100000000000000 ."
1!
#64000
0!
#65000
b11101011000000000000000000000000 8
b11011100000000000000000000000000 9
b1100000000000000 6
b11101011000000000000000000000000 7
b1111000000000000000000000000 ;
b1111000000000000 =
b1111000000000000 @
b1111000000000000 \"
b1111000000000000 #
b1111000000000000 W"
b1111000000000000 M
b1111000000000000 4"
b1111000000000000 A"
b11011100000000000000000000000000 r
b1111000000000000 )
b1111000000000000 ."
1!
#66000
0!
#67000
b11101011000000000000000000000000 9
b1011000000000000 6
b11101011000000000000000000000000 8
b11101011000000000000000000000000 r
b11101011000000000000000000000000 7
b0 ;
b0 =
b0 @
b0 \"
b0 #
b0 W"
b0 M
b0 4"
b0 A"
b0 )
b0 ."
1!
#68000
0!
#69000
b11101100000000000000000000000000 8
b11101100000000000000000000000000 7
b1000000000000000000000000 ;
b1000000000000 =
b1000000000000 @
b1000000000000 \"
b1000000000000 #
b1000000000000 W"
b1000000000000 M
b1000000000000 4"
b1000000000000 A"
b1000000000000 )
b1000000000000 ."
1!
#70000
0!
#71000
b11101100000000000000000000000000 9
b1100000000000000 6
b11110000000000000000000000000000 8
b11101100000000000000000000000000 r
b11110000000000000000000000000000 7
b100000000000000000000000000 ;
b100000000000000 =
b100000000000000 @
b100000000000000 \"
b100000000000000 #
b100000000000000 W"
b100000000000000 M
b100000000000000 4"
b100000000000000 A"
b100000000000000 )
b100000000000000 ."
1!
#72000
0!
#73000
b100000000000000 D
b100000000000000 |
b100000000000000 R
b100000000000000 v
b100000000000000000000000000000 8
b11110000000000000000000000000000 9
b0 6
b100000000000000 <
b100000000000000 I
b100000000000000 r"
b100000000000000 !#
b100000000000000000000000000000 7
b110000000000000000000000000000 ;
b1100000000000000 =
b1100000000000000 @
b1100000000000000 \"
b1100000000000000 #
b1100000000000000 W"
b1100000000000000 M
b1100000000000000 4"
b1100000000000000 A"
b11110000000000000000000000000000 r
b100000000000000 -
b100000000000000 k"
b1100000000000000 )
b1100000000000000 ."
1!
#74000
0!
#75000
b100000000000000000000000000000 9
b1011100000000000000000000000000 8
b100000000000000000000000000000 r
b1011100000000000000000000000000 7
b111100000000000000000000000000 ;
b1111000000000000 =
b1111000000000000 @
b1111000000000000 \"
b1111000000000000 #
b1111000000000000 W"
b1111000000000000 M
b1111000000000000 4"
b1111000000000000 A"
b1111000000000000 )
b1111000000000000 ."
1!
#76000
0!
#77000
b1011100000000000000000000000000 9
b1100000000000000 6
b1011100000000000000000000000000 7
b0 ;
b0 =
b0 @
b0 \"
b0 #
b0 W"
b0 M
b0 4"
b0 A"
b1011100000000000000000000000000 r
b0 )
b0 ."
1!
#78000
0!
#79000
b1100000000000000000000000000000 8
b1100000000000000000000000000000 7
b100000000000000000000000000 ;
b1000000000000 =
b1000000000000 @
b1000000000000 \"
b1000000000000 #
b1000000000000 W"
b1000000000000 M
b1000000000000 4"
b1000000000000 A"
b1000000000000 )
b1000000000000 ."
1!
#80000
0!
#81000
b101 T#
1?#
1<#
1C
1Q
1:#
b1110000000000000000000000000000 8
b1100000000000000000000000000000 9
b0 6
1H
1?
1$
1L
b1110000000000000000000000000000 7
b10000000000000000000000000000 ;
b100000000000000 =
b100000000000000 @
b100000000000000 \"
b100000000000000 #
b100000000000000 W"
b100000000000000 M
b100000000000000 4"
b100000000000000 A"
b1100000000000000000000000000000 r
1.
1*
b100000000000000 )
b100000000000000 ."
1!
#82000
0!
#83000
1I"
07#
0"
0>
0%
0T
0Z
b0 T#
0O#
b10000000 B
b10000000 {
b10000000 O
b10000000 z
0~"
1)#
11#
0(#
0G
1F"
0H"
1X
b1110000000000000000000000000000 9
0:#
0<#
b0 D
b0 |
b0 R
b0 v
b0 8
1U
15#
03"
0+
b1110000000000000000000000000000 r
0?
0$
0L
b1100000000000000 =
b1100000000000000 @
b1100000000000000 \"
b1100000000000000 #
b1100000000000000 W"
b1100000000000000 M
b1100000000000000 4"
b1100000000000000 A"
0H
b0 7
b10010000000000000000000000000000 ;
b1100000000000000 <
b1100000000000000 I
b1100000000000000 r"
b1100000000000000 !#
1U#
1V#
03
b101 S#
0.
b1100000000000000 -
b1100000000000000 k"
0*
b1100000000000000 )
b1100000000000000 ."
1!
#84000
0!
#85000
1H"
17#
1"
1>
1%
b11 T#
1T
1@"
b1000000 B
b1000000 {
b1000000 O
b1000000 z
1~"
1*#
01#
16#
0C
0Q
1G
1A
1N
b1100000000000000 D
b1100000000000000 |
b1100000000000000 R
b1100000000000000 v
0Q"
0I"
0X
b10010000000000000000000000000000 8
0U
05#
13"
1+
0?#
0)#
0/
b10010000000000000000000000000000 7
b0 9
0U#
1:
0V#
13
b0 S#
b1000000 0#
1.#
b1100000000000000 +#
12#
04
1N"
b1100000000000000 K"
b0 r
1!
#86000
0!
#87000
b1000100000000000000000000000000 8
1(#
0*#
1/
b10010000000000000000000000000000 9
b10010000000000000000000000000000 r
b1000100000000000000000000000000 7
b10110100000000000000000000000000 ;
b1111000000000000 =
b1111000000000000 @
b1111000000000000 \"
b1111000000000000 #
b1111000000000000 W"
b1111000000000000 M
b1111000000000000 4"
b1111000000000000 A"
02#
14
0:
b11 S#
b1111000000000000 )
b1111000000000000 ."
1!
#88000
0!
#89000
b1000100000000000000000000000000 9
b100000000000000 6
b1000100000000000000000000000000 7
b0 ;
b0 =
b0 @
b0 \"
b0 #
b0 W"
b0 M
b0 4"
b0 A"
b1000100000000000000000000000000 r
b0 )
b0 ."
1!
#90000
0!
#91000
b1010000000000000000000000000000 8
b1010000000000000000000000000000 7
b1100000000000000000000000000 ;
b1000000000000 =
b1000000000000 @
b1000000000000 \"
b1000000000000 #
b1000000000000 W"
b1000000000000 M
b1000000000000 4"
b1000000000000 A"
b1000000000000 )
b1000000000000 ."
1!
#92000
0!
#93000
b10000000000000000000000000000000 8
b1010000000000000000000000000000 9
b0 6
b10000000000000000000000000000000 7
b110000000000000000000000000000 ;
b100000000000000 =
b100000000000000 @
b100000000000000 \"
b100000000000000 #
b100000000000000 W"
b100000000000000 M
b100000000000000 4"
b100000000000000 A"
b1010000000000000000000000000000 r
b100000000000000 )
b100000000000000 ."
1!
#94000
0!
